----------------------------------------------------------
----------------------------------------------------------
Best: -4.595882 using {'activation': 'softplus', 'batch_size': 63, 'dropout_rate': 0.73187110036045977, 'epochs': 104, 'init_mode': 'uniform', 'learn_rate': 0.028008910190300888, 'momentum': 0.91327712434367814, 'neurons': 81, 'weight_constraint': 5}
----------------------------------------------------------
mean mae=-4.751499 (std=1.431583) with: {'activation': 'relu', 'batch_size': 79, 'dropout_rate': 0.87073230627737641, 'epochs': 999, 'init_mode': 'he_normal', 'learn_rate': 0.27558327248137648, 'momentum': 0.74420559439741463, 'neurons': 63, 'weight_constraint': 4}
mean mse=-105.814800 (std=65.375188) with: {'activation': 'relu', 'batch_size': 79, 'dropout_rate': 0.87073230627737641, 'epochs': 999, 'init_mode': 'he_normal', 'learn_rate': 0.27558327248137648, 'momentum': 0.74420559439741463, 'neurons': 63, 'weight_constraint': 4}
mean r2=-0.182800 (std=0.072595) with: {'activation': 'relu', 'batch_size': 79, 'dropout_rate': 0.87073230627737641, 'epochs': 999, 'init_mode': 'he_normal', 'learn_rate': 0.27558327248137648, 'momentum': 0.74420559439741463, 'neurons': 63, 'weight_constraint': 4}
mean ev=0.000100 (std=0.000206) with: {'activation': 'relu', 'batch_size': 79, 'dropout_rate': 0.87073230627737641, 'epochs': 999, 'init_mode': 'he_normal', 'learn_rate': 0.27558327248137648, 'momentum': 0.74420559439741463, 'neurons': 63, 'weight_constraint': 4}
****************************************************
mean mae=-4.676582 (std=1.462609) with: {'activation': 'softmax', 'batch_size': 31, 'dropout_rate': 0.48663799695836207, 'epochs': 205, 'init_mode': 'he_uniform', 'learn_rate': 0.24248450500998012, 'momentum': 0.82472944162204964, 'neurons': 28, 'weight_constraint': 5}
mean mse=-100.979184 (std=67.426520) with: {'activation': 'softmax', 'batch_size': 31, 'dropout_rate': 0.48663799695836207, 'epochs': 205, 'init_mode': 'he_uniform', 'learn_rate': 0.24248450500998012, 'momentum': 0.82472944162204964, 'neurons': 28, 'weight_constraint': 5}
mean r2=-0.107097 (std=0.111713) with: {'activation': 'softmax', 'batch_size': 31, 'dropout_rate': 0.48663799695836207, 'epochs': 205, 'init_mode': 'he_uniform', 'learn_rate': 0.24248450500998012, 'momentum': 0.82472944162204964, 'neurons': 28, 'weight_constraint': 5}
mean ev=0.042757 (std=0.051456) with: {'activation': 'softmax', 'batch_size': 31, 'dropout_rate': 0.48663799695836207, 'epochs': 205, 'init_mode': 'he_uniform', 'learn_rate': 0.24248450500998012, 'momentum': 0.82472944162204964, 'neurons': 28, 'weight_constraint': 5}
****************************************************
mean mae=-4.687926 (std=1.371406) with: {'activation': 'sigmoid', 'batch_size': 76, 'dropout_rate': 0.7643726087611824, 'epochs': 543, 'init_mode': 'glorot_normal', 'learn_rate': 0.061246424449177654, 'momentum': 0.55954767873913025, 'neurons': 10, 'weight_constraint': 3}
mean mse=-100.000116 (std=64.453081) with: {'activation': 'sigmoid', 'batch_size': 76, 'dropout_rate': 0.7643726087611824, 'epochs': 543, 'init_mode': 'glorot_normal', 'learn_rate': 0.061246424449177654, 'momentum': 0.55954767873913025, 'neurons': 10, 'weight_constraint': 3}
mean r2=-0.102198 (std=0.114788) with: {'activation': 'sigmoid', 'batch_size': 76, 'dropout_rate': 0.7643726087611824, 'epochs': 543, 'init_mode': 'glorot_normal', 'learn_rate': 0.061246424449177654, 'momentum': 0.55954767873913025, 'neurons': 10, 'weight_constraint': 3}
mean ev=0.042440 (std=0.026902) with: {'activation': 'sigmoid', 'batch_size': 76, 'dropout_rate': 0.7643726087611824, 'epochs': 543, 'init_mode': 'glorot_normal', 'learn_rate': 0.061246424449177654, 'momentum': 0.55954767873913025, 'neurons': 10, 'weight_constraint': 3}
****************************************************
mean mae=-4.595882 (std=1.295253) with: {'activation': 'softplus', 'batch_size': 63, 'dropout_rate': 0.73187110036045977, 'epochs': 104, 'init_mode': 'uniform', 'learn_rate': 0.028008910190300888, 'momentum': 0.91327712434367814, 'neurons': 81, 'weight_constraint': 5}
mean mse=-96.168071 (std=63.466861) with: {'activation': 'softplus', 'batch_size': 63, 'dropout_rate': 0.73187110036045977, 'epochs': 104, 'init_mode': 'uniform', 'learn_rate': 0.028008910190300888, 'momentum': 0.91327712434367814, 'neurons': 81, 'weight_constraint': 5}
mean r2=-0.060737 (std=0.084799) with: {'activation': 'softplus', 'batch_size': 63, 'dropout_rate': 0.73187110036045977, 'epochs': 104, 'init_mode': 'uniform', 'learn_rate': 0.028008910190300888, 'momentum': 0.91327712434367814, 'neurons': 81, 'weight_constraint': 5}
mean ev=0.058129 (std=0.042310) with: {'activation': 'softplus', 'batch_size': 63, 'dropout_rate': 0.73187110036045977, 'epochs': 104, 'init_mode': 'uniform', 'learn_rate': 0.028008910190300888, 'momentum': 0.91327712434367814, 'neurons': 81, 'weight_constraint': 5}
****************************************************
mean mae=-4.750286 (std=1.439114) with: {'activation': 'hard_sigmoid', 'batch_size': 37, 'dropout_rate': 0.95801350457483747, 'epochs': 540, 'init_mode': 'he_uniform', 'learn_rate': 0.027164608761267122, 'momentum': 0.99799445653075924, 'neurons': 84, 'weight_constraint': 4}
mean mse=-105.664916 (std=65.229267) with: {'activation': 'hard_sigmoid', 'batch_size': 37, 'dropout_rate': 0.95801350457483747, 'epochs': 540, 'init_mode': 'he_uniform', 'learn_rate': 0.027164608761267122, 'momentum': 0.99799445653075924, 'neurons': 84, 'weight_constraint': 4}
mean r2=-0.182158 (std=0.072032) with: {'activation': 'hard_sigmoid', 'batch_size': 37, 'dropout_rate': 0.95801350457483747, 'epochs': 540, 'init_mode': 'he_uniform', 'learn_rate': 0.027164608761267122, 'momentum': 0.99799445653075924, 'neurons': 84, 'weight_constraint': 4}
mean ev=-0.000000 (std=0.000000) with: {'activation': 'hard_sigmoid', 'batch_size': 37, 'dropout_rate': 0.95801350457483747, 'epochs': 540, 'init_mode': 'he_uniform', 'learn_rate': 0.027164608761267122, 'momentum': 0.99799445653075924, 'neurons': 84, 'weight_constraint': 4}
****************************************************
mean mae=-7.036905 (std=2.545344) with: {'activation': 'softsign', 'batch_size': 8, 'dropout_rate': 0.61612483141090613, 'epochs': 622, 'init_mode': 'he_normal', 'learn_rate': 0.11044865782495157, 'momentum': 0.84546559868556481, 'neurons': 66, 'weight_constraint': 4}
mean mse=-115.916174 (std=59.820593) with: {'activation': 'softsign', 'batch_size': 8, 'dropout_rate': 0.61612483141090613, 'epochs': 622, 'init_mode': 'he_normal', 'learn_rate': 0.11044865782495157, 'momentum': 0.84546559868556481, 'neurons': 66, 'weight_constraint': 4}
mean r2=-0.421621 (std=0.483024) with: {'activation': 'softsign', 'batch_size': 8, 'dropout_rate': 0.61612483141090613, 'epochs': 622, 'init_mode': 'he_normal', 'learn_rate': 0.11044865782495157, 'momentum': 0.84546559868556481, 'neurons': 66, 'weight_constraint': 4}
mean ev=0.046843 (std=0.049916) with: {'activation': 'softsign', 'batch_size': 8, 'dropout_rate': 0.61612483141090613, 'epochs': 622, 'init_mode': 'he_normal', 'learn_rate': 0.11044865782495157, 'momentum': 0.84546559868556481, 'neurons': 66, 'weight_constraint': 4}
****************************************************
mean mae=-4.731599 (std=1.426481) with: {'activation': 'relu', 'batch_size': 79, 'dropout_rate': 0.72055957329212617, 'epochs': 802, 'init_mode': 'lecun_uniform', 'learn_rate': 0.059929621892024991, 'momentum': 0.84833246470322532, 'neurons': 15, 'weight_constraint': 3}
mean mse=-104.362025 (std=65.821602) with: {'activation': 'relu', 'batch_size': 79, 'dropout_rate': 0.72055957329212617, 'epochs': 802, 'init_mode': 'lecun_uniform', 'learn_rate': 0.059929621892024991, 'momentum': 0.84833246470322532, 'neurons': 15, 'weight_constraint': 3}
mean r2=-0.156882 (std=0.093154) with: {'activation': 'relu', 'batch_size': 79, 'dropout_rate': 0.72055957329212617, 'epochs': 802, 'init_mode': 'lecun_uniform', 'learn_rate': 0.059929621892024991, 'momentum': 0.84833246470322532, 'neurons': 15, 'weight_constraint': 3}
mean ev=0.017718 (std=0.010883) with: {'activation': 'relu', 'batch_size': 79, 'dropout_rate': 0.72055957329212617, 'epochs': 802, 'init_mode': 'lecun_uniform', 'learn_rate': 0.059929621892024991, 'momentum': 0.84833246470322532, 'neurons': 15, 'weight_constraint': 3}
****************************************************
mean mae=-4.887985 (std=1.202484) with: {'activation': 'linear', 'batch_size': 10, 'dropout_rate': 0.064506898912538344, 'epochs': 145, 'init_mode': 'glorot_uniform', 'learn_rate': 0.10245812592922686, 'momentum': 0.80435129169692876, 'neurons': 14, 'weight_constraint': 4}
mean mse=-95.352155 (std=63.102458) with: {'activation': 'linear', 'batch_size': 10, 'dropout_rate': 0.064506898912538344, 'epochs': 145, 'init_mode': 'glorot_uniform', 'learn_rate': 0.10245812592922686, 'momentum': 0.80435129169692876, 'neurons': 14, 'weight_constraint': 4}
mean r2=-0.065803 (std=0.123434) with: {'activation': 'linear', 'batch_size': 10, 'dropout_rate': 0.064506898912538344, 'epochs': 145, 'init_mode': 'glorot_uniform', 'learn_rate': 0.10245812592922686, 'momentum': 0.80435129169692876, 'neurons': 14, 'weight_constraint': 4}
mean ev=0.057778 (std=0.085106) with: {'activation': 'linear', 'batch_size': 10, 'dropout_rate': 0.064506898912538344, 'epochs': 145, 'init_mode': 'glorot_uniform', 'learn_rate': 0.10245812592922686, 'momentum': 0.80435129169692876, 'neurons': 14, 'weight_constraint': 4}
****************************************************
mean mae=-4.838562 (std=1.361249) with: {'activation': 'softmax', 'batch_size': 32, 'dropout_rate': 0.086525688502205086, 'epochs': 173, 'init_mode': 'glorot_uniform', 'learn_rate': 0.075373533607164284, 'momentum': 0.98245764626318244, 'neurons': 1, 'weight_constraint': 4}
mean mse=-106.245943 (std=65.339575) with: {'activation': 'softmax', 'batch_size': 32, 'dropout_rate': 0.086525688502205086, 'epochs': 173, 'init_mode': 'glorot_uniform', 'learn_rate': 0.075373533607164284, 'momentum': 0.98245764626318244, 'neurons': 1, 'weight_constraint': 4}
mean r2=-0.184164 (std=0.092949) with: {'activation': 'softmax', 'batch_size': 32, 'dropout_rate': 0.086525688502205086, 'epochs': 173, 'init_mode': 'glorot_uniform', 'learn_rate': 0.075373533607164284, 'momentum': 0.98245764626318244, 'neurons': 1, 'weight_constraint': 4}
mean ev=-0.000000 (std=0.000000) with: {'activation': 'softmax', 'batch_size': 32, 'dropout_rate': 0.086525688502205086, 'epochs': 173, 'init_mode': 'glorot_uniform', 'learn_rate': 0.075373533607164284, 'momentum': 0.98245764626318244, 'neurons': 1, 'weight_constraint': 4}
****************************************************
mean mae=-4.705618 (std=1.423404) with: {'activation': 'softmax', 'batch_size': 65, 'dropout_rate': 0.38390261549744131, 'epochs': 45, 'init_mode': 'he_normal', 'learn_rate': 0.058539296591354907, 'momentum': 0.86815732279721913, 'neurons': 23, 'weight_constraint': 5}
mean mse=-104.286054 (std=65.889768) with: {'activation': 'softmax', 'batch_size': 65, 'dropout_rate': 0.38390261549744131, 'epochs': 45, 'init_mode': 'he_normal', 'learn_rate': 0.058539296591354907, 'momentum': 0.86815732279721913, 'neurons': 23, 'weight_constraint': 5}
mean r2=-0.150809 (std=0.111002) with: {'activation': 'softmax', 'batch_size': 65, 'dropout_rate': 0.38390261549744131, 'epochs': 45, 'init_mode': 'he_normal', 'learn_rate': 0.058539296591354907, 'momentum': 0.86815732279721913, 'neurons': 23, 'weight_constraint': 5}
mean ev=0.026912 (std=0.035522) with: {'activation': 'softmax', 'batch_size': 65, 'dropout_rate': 0.38390261549744131, 'epochs': 45, 'init_mode': 'he_normal', 'learn_rate': 0.058539296591354907, 'momentum': 0.86815732279721913, 'neurons': 23, 'weight_constraint': 5}
****************************************************
mean mae=-4.726755 (std=1.397373) with: {'activation': 'sigmoid', 'batch_size': 83, 'dropout_rate': 0.035509031860330269, 'epochs': 30, 'init_mode': 'uniform', 'learn_rate': 0.23884281635680127, 'momentum': 0.52557140155067361, 'neurons': 71, 'weight_constraint': 4}
mean mse=-101.652902 (std=63.838561) with: {'activation': 'sigmoid', 'batch_size': 83, 'dropout_rate': 0.035509031860330269, 'epochs': 30, 'init_mode': 'uniform', 'learn_rate': 0.23884281635680127, 'momentum': 0.52557140155067361, 'neurons': 71, 'weight_constraint': 4}
mean r2=-0.130238 (std=0.105213) with: {'activation': 'sigmoid', 'batch_size': 83, 'dropout_rate': 0.035509031860330269, 'epochs': 30, 'init_mode': 'uniform', 'learn_rate': 0.23884281635680127, 'momentum': 0.52557140155067361, 'neurons': 71, 'weight_constraint': 4}
mean ev=0.036637 (std=0.022093) with: {'activation': 'sigmoid', 'batch_size': 83, 'dropout_rate': 0.035509031860330269, 'epochs': 30, 'init_mode': 'uniform', 'learn_rate': 0.23884281635680127, 'momentum': 0.52557140155067361, 'neurons': 71, 'weight_constraint': 4}
****************************************************
mean mae=-5.485713 (std=0.978584) with: {'activation': 'linear', 'batch_size': 21, 'dropout_rate': 0.24429086705790837, 'epochs': 585, 'init_mode': 'uniform', 'learn_rate': 0.10562848082991055, 'momentum': 0.81943884103018272, 'neurons': 19, 'weight_constraint': 5}
mean mse=-98.816862 (std=60.006760) with: {'activation': 'linear', 'batch_size': 21, 'dropout_rate': 0.24429086705790837, 'epochs': 585, 'init_mode': 'uniform', 'learn_rate': 0.10562848082991055, 'momentum': 0.81943884103018272, 'neurons': 19, 'weight_constraint': 5}
mean r2=-0.249976 (std=0.506420) with: {'activation': 'linear', 'batch_size': 21, 'dropout_rate': 0.24429086705790837, 'epochs': 585, 'init_mode': 'uniform', 'learn_rate': 0.10562848082991055, 'momentum': 0.81943884103018272, 'neurons': 19, 'weight_constraint': 5}
mean ev=-0.038390 (std=0.344456) with: {'activation': 'linear', 'batch_size': 21, 'dropout_rate': 0.24429086705790837, 'epochs': 585, 'init_mode': 'uniform', 'learn_rate': 0.10562848082991055, 'momentum': 0.81943884103018272, 'neurons': 19, 'weight_constraint': 5}
****************************************************
mean mae=-4.808766 (std=1.493582) with: {'activation': 'softplus', 'batch_size': 23, 'dropout_rate': 0.93259473112942171, 'epochs': 373, 'init_mode': 'zero', 'learn_rate': 0.24341532041496233, 'momentum': 0.99721561873714681, 'neurons': 83, 'weight_constraint': 4}
mean mse=-105.965333 (std=65.640854) with: {'activation': 'softplus', 'batch_size': 23, 'dropout_rate': 0.93259473112942171, 'epochs': 373, 'init_mode': 'zero', 'learn_rate': 0.24341532041496233, 'momentum': 0.99721561873714681, 'neurons': 83, 'weight_constraint': 4}
mean r2=-0.189558 (std=0.082951) with: {'activation': 'softplus', 'batch_size': 23, 'dropout_rate': 0.93259473112942171, 'epochs': 373, 'init_mode': 'zero', 'learn_rate': 0.24341532041496233, 'momentum': 0.99721561873714681, 'neurons': 83, 'weight_constraint': 4}
mean ev=0.000001 (std=0.000001) with: {'activation': 'softplus', 'batch_size': 23, 'dropout_rate': 0.93259473112942171, 'epochs': 373, 'init_mode': 'zero', 'learn_rate': 0.24341532041496233, 'momentum': 0.99721561873714681, 'neurons': 83, 'weight_constraint': 4}
****************************************************
mean mae=-4.719962 (std=1.150086) with: {'activation': 'tanh', 'batch_size': 42, 'dropout_rate': 0.74213010462952078, 'epochs': 779, 'init_mode': 'he_uniform', 'learn_rate': 0.010547251439657471, 'momentum': 0.57633155588943286, 'neurons': 10, 'weight_constraint': 3}
mean mse=-94.830792 (std=61.937989) with: {'activation': 'tanh', 'batch_size': 42, 'dropout_rate': 0.74213010462952078, 'epochs': 779, 'init_mode': 'he_uniform', 'learn_rate': 0.010547251439657471, 'momentum': 0.57633155588943286, 'neurons': 10, 'weight_constraint': 3}
mean r2=-0.057301 (std=0.075645) with: {'activation': 'tanh', 'batch_size': 42, 'dropout_rate': 0.74213010462952078, 'epochs': 779, 'init_mode': 'he_uniform', 'learn_rate': 0.010547251439657471, 'momentum': 0.57633155588943286, 'neurons': 10, 'weight_constraint': 3}
mean ev=0.055839 (std=0.057419) with: {'activation': 'tanh', 'batch_size': 42, 'dropout_rate': 0.74213010462952078, 'epochs': 779, 'init_mode': 'he_uniform', 'learn_rate': 0.010547251439657471, 'momentum': 0.57633155588943286, 'neurons': 10, 'weight_constraint': 3}
****************************************************
mean mae=-4.706347 (std=1.303098) with: {'activation': 'softsign', 'batch_size': 58, 'dropout_rate': 0.84998003248619358, 'epochs': 521, 'init_mode': 'uniform', 'learn_rate': 0.13398234847669396, 'momentum': 0.90023821037528484, 'neurons': 21, 'weight_constraint': 4}
mean mse=-95.199345 (std=61.859670) with: {'activation': 'softsign', 'batch_size': 58, 'dropout_rate': 0.84998003248619358, 'epochs': 521, 'init_mode': 'uniform', 'learn_rate': 0.13398234847669396, 'momentum': 0.90023821037528484, 'neurons': 21, 'weight_constraint': 4}
mean r2=-0.048993 (std=0.097401) with: {'activation': 'softsign', 'batch_size': 58, 'dropout_rate': 0.84998003248619358, 'epochs': 521, 'init_mode': 'uniform', 'learn_rate': 0.13398234847669396, 'momentum': 0.90023821037528484, 'neurons': 21, 'weight_constraint': 4}
mean ev=0.058696 (std=0.036780) with: {'activation': 'softsign', 'batch_size': 58, 'dropout_rate': 0.84998003248619358, 'epochs': 521, 'init_mode': 'uniform', 'learn_rate': 0.13398234847669396, 'momentum': 0.90023821037528484, 'neurons': 21, 'weight_constraint': 4}
****************************************************
mean mae=-4.705311 (std=1.475414) with: {'activation': 'softmax', 'batch_size': 75, 'dropout_rate': 0.41138361587937655, 'epochs': 201, 'init_mode': 'uniform', 'learn_rate': 0.24042045922332103, 'momentum': 0.52698105107257343, 'neurons': 63, 'weight_constraint': 4}
mean mse=-101.636923 (std=67.420841) with: {'activation': 'softmax', 'batch_size': 75, 'dropout_rate': 0.41138361587937655, 'epochs': 201, 'init_mode': 'uniform', 'learn_rate': 0.24042045922332103, 'momentum': 0.52698105107257343, 'neurons': 63, 'weight_constraint': 4}
mean r2=-0.127943 (std=0.101776) with: {'activation': 'softmax', 'batch_size': 75, 'dropout_rate': 0.41138361587937655, 'epochs': 201, 'init_mode': 'uniform', 'learn_rate': 0.24042045922332103, 'momentum': 0.52698105107257343, 'neurons': 63, 'weight_constraint': 4}
mean ev=0.038435 (std=0.028397) with: {'activation': 'softmax', 'batch_size': 75, 'dropout_rate': 0.41138361587937655, 'epochs': 201, 'init_mode': 'uniform', 'learn_rate': 0.24042045922332103, 'momentum': 0.52698105107257343, 'neurons': 63, 'weight_constraint': 4}
****************************************************
mean mae=-4.928283 (std=1.365615) with: {'activation': 'relu', 'batch_size': 1, 'dropout_rate': 0.50637582201860787, 'epochs': 498, 'init_mode': 'zero', 'learn_rate': 0.17222204573350355, 'momentum': 0.89095744100820462, 'neurons': 2, 'weight_constraint': 3}
mean mse=-104.968052 (std=68.322933) with: {'activation': 'relu', 'batch_size': 1, 'dropout_rate': 0.50637582201860787, 'epochs': 498, 'init_mode': 'zero', 'learn_rate': 0.17222204573350355, 'momentum': 0.89095744100820462, 'neurons': 2, 'weight_constraint': 3}
mean r2=-0.156249 (std=0.099926) with: {'activation': 'relu', 'batch_size': 1, 'dropout_rate': 0.50637582201860787, 'epochs': 498, 'init_mode': 'zero', 'learn_rate': 0.17222204573350355, 'momentum': 0.89095744100820462, 'neurons': 2, 'weight_constraint': 3}
mean ev=0.000000 (std=0.000000) with: {'activation': 'relu', 'batch_size': 1, 'dropout_rate': 0.50637582201860787, 'epochs': 498, 'init_mode': 'zero', 'learn_rate': 0.17222204573350355, 'momentum': 0.89095744100820462, 'neurons': 2, 'weight_constraint': 3}
****************************************************
mean mae=-4.696761 (std=1.354153) with: {'activation': 'hard_sigmoid', 'batch_size': 20, 'dropout_rate': 0.33025325205950629, 'epochs': 705, 'init_mode': 'glorot_uniform', 'learn_rate': 0.15801526973757743, 'momentum': 0.8304221954791926, 'neurons': 24, 'weight_constraint': 2}
mean mse=-100.185976 (std=64.481100) with: {'activation': 'hard_sigmoid', 'batch_size': 20, 'dropout_rate': 0.33025325205950629, 'epochs': 705, 'init_mode': 'glorot_uniform', 'learn_rate': 0.15801526973757743, 'momentum': 0.8304221954791926, 'neurons': 24, 'weight_constraint': 2}
mean r2=-0.107500 (std=0.081323) with: {'activation': 'hard_sigmoid', 'batch_size': 20, 'dropout_rate': 0.33025325205950629, 'epochs': 705, 'init_mode': 'glorot_uniform', 'learn_rate': 0.15801526973757743, 'momentum': 0.8304221954791926, 'neurons': 24, 'weight_constraint': 2}
mean ev=0.032753 (std=0.017316) with: {'activation': 'hard_sigmoid', 'batch_size': 20, 'dropout_rate': 0.33025325205950629, 'epochs': 705, 'init_mode': 'glorot_uniform', 'learn_rate': 0.15801526973757743, 'momentum': 0.8304221954791926, 'neurons': 24, 'weight_constraint': 2}
****************************************************
mean mae=-4.811153 (std=1.393578) with: {'activation': 'tanh', 'batch_size': 82, 'dropout_rate': 0.98359658363067215, 'epochs': 115, 'init_mode': 'lecun_uniform', 'learn_rate': 0.0783108535678773, 'momentum': 0.79836550345402013, 'neurons': 19, 'weight_constraint': 3}
mean mse=-103.378131 (std=65.539453) with: {'activation': 'tanh', 'batch_size': 82, 'dropout_rate': 0.98359658363067215, 'epochs': 115, 'init_mode': 'lecun_uniform', 'learn_rate': 0.0783108535678773, 'momentum': 0.79836550345402013, 'neurons': 19, 'weight_constraint': 3}
mean r2=-0.147366 (std=0.087382) with: {'activation': 'tanh', 'batch_size': 82, 'dropout_rate': 0.98359658363067215, 'epochs': 115, 'init_mode': 'lecun_uniform', 'learn_rate': 0.0783108535678773, 'momentum': 0.79836550345402013, 'neurons': 19, 'weight_constraint': 3}
mean ev=0.006988 (std=0.007973) with: {'activation': 'tanh', 'batch_size': 82, 'dropout_rate': 0.98359658363067215, 'epochs': 115, 'init_mode': 'lecun_uniform', 'learn_rate': 0.0783108535678773, 'momentum': 0.79836550345402013, 'neurons': 19, 'weight_constraint': 3}
****************************************************
mean mae=-4.756652 (std=1.440203) with: {'activation': 'hard_sigmoid', 'batch_size': 78, 'dropout_rate': 0.64492549935774657, 'epochs': 804, 'init_mode': 'glorot_uniform', 'learn_rate': 0.25324199886993848, 'momentum': 0.81415438953904151, 'neurons': 1, 'weight_constraint': 2}
mean mse=-105.971589 (std=65.183221) with: {'activation': 'hard_sigmoid', 'batch_size': 78, 'dropout_rate': 0.64492549935774657, 'epochs': 804, 'init_mode': 'glorot_uniform', 'learn_rate': 0.25324199886993848, 'momentum': 0.81415438953904151, 'neurons': 1, 'weight_constraint': 2}
mean r2=-0.186618 (std=0.075007) with: {'activation': 'hard_sigmoid', 'batch_size': 78, 'dropout_rate': 0.64492549935774657, 'epochs': 804, 'init_mode': 'glorot_uniform', 'learn_rate': 0.25324199886993848, 'momentum': 0.81415438953904151, 'neurons': 1, 'weight_constraint': 2}
mean ev=0.001279 (std=0.002036) with: {'activation': 'hard_sigmoid', 'batch_size': 78, 'dropout_rate': 0.64492549935774657, 'epochs': 804, 'init_mode': 'glorot_uniform', 'learn_rate': 0.25324199886993848, 'momentum': 0.81415438953904151, 'neurons': 1, 'weight_constraint': 2}
****************************************************
mean mae=-4.772508 (std=0.983652) with: {'activation': 'softsign', 'batch_size': 79, 'dropout_rate': 0.52351222803139907, 'epochs': 809, 'init_mode': 'normal', 'learn_rate': 0.084377677980378735, 'momentum': 0.8767172479708033, 'neurons': 20, 'weight_constraint': 3}
mean mse=-87.041306 (std=59.943433) with: {'activation': 'softsign', 'batch_size': 79, 'dropout_rate': 0.52351222803139907, 'epochs': 809, 'init_mode': 'normal', 'learn_rate': 0.084377677980378735, 'momentum': 0.8767172479708033, 'neurons': 20, 'weight_constraint': 3}
mean r2=-0.000593 (std=0.165791) with: {'activation': 'softsign', 'batch_size': 79, 'dropout_rate': 0.52351222803139907, 'epochs': 809, 'init_mode': 'normal', 'learn_rate': 0.084377677980378735, 'momentum': 0.8767172479708033, 'neurons': 20, 'weight_constraint': 3}
mean ev=0.063384 (std=0.161072) with: {'activation': 'softsign', 'batch_size': 79, 'dropout_rate': 0.52351222803139907, 'epochs': 809, 'init_mode': 'normal', 'learn_rate': 0.084377677980378735, 'momentum': 0.8767172479708033, 'neurons': 20, 'weight_constraint': 3}
****************************************************
mean mae=-4.654776 (std=1.406880) with: {'activation': 'softplus', 'batch_size': 86, 'dropout_rate': 0.34397153711889972, 'epochs': 570, 'init_mode': 'glorot_uniform', 'learn_rate': 0.27739372742554119, 'momentum': 0.87907613660906958, 'neurons': 29, 'weight_constraint': 1}
mean mse=-97.518580 (std=64.895237) with: {'activation': 'softplus', 'batch_size': 86, 'dropout_rate': 0.34397153711889972, 'epochs': 570, 'init_mode': 'glorot_uniform', 'learn_rate': 0.27739372742554119, 'momentum': 0.87907613660906958, 'neurons': 29, 'weight_constraint': 1}
mean r2=-0.067349 (std=0.106656) with: {'activation': 'softplus', 'batch_size': 86, 'dropout_rate': 0.34397153711889972, 'epochs': 570, 'init_mode': 'glorot_uniform', 'learn_rate': 0.27739372742554119, 'momentum': 0.87907613660906958, 'neurons': 29, 'weight_constraint': 1}
mean ev=0.067641 (std=0.037535) with: {'activation': 'softplus', 'batch_size': 86, 'dropout_rate': 0.34397153711889972, 'epochs': 570, 'init_mode': 'glorot_uniform', 'learn_rate': 0.27739372742554119, 'momentum': 0.87907613660906958, 'neurons': 29, 'weight_constraint': 1}
****************************************************
mean mae=-5.203513 (std=0.990897) with: {'activation': 'sigmoid', 'batch_size': 15, 'dropout_rate': 0.17044835521592505, 'epochs': 174, 'init_mode': 'glorot_uniform', 'learn_rate': 0.10520806688202322, 'momentum': 0.86932566324511851, 'neurons': 76, 'weight_constraint': 4}
mean mse=-89.271232 (std=53.833345) with: {'activation': 'sigmoid', 'batch_size': 15, 'dropout_rate': 0.17044835521592505, 'epochs': 174, 'init_mode': 'glorot_uniform', 'learn_rate': 0.10520806688202322, 'momentum': 0.86932566324511851, 'neurons': 76, 'weight_constraint': 4}
mean r2=-0.098339 (std=0.301532) with: {'activation': 'sigmoid', 'batch_size': 15, 'dropout_rate': 0.17044835521592505, 'epochs': 174, 'init_mode': 'glorot_uniform', 'learn_rate': 0.10520806688202322, 'momentum': 0.86932566324511851, 'neurons': 76, 'weight_constraint': 4}
mean ev=-0.028008 (std=0.298166) with: {'activation': 'sigmoid', 'batch_size': 15, 'dropout_rate': 0.17044835521592505, 'epochs': 174, 'init_mode': 'glorot_uniform', 'learn_rate': 0.10520806688202322, 'momentum': 0.86932566324511851, 'neurons': 76, 'weight_constraint': 4}
****************************************************
mean mae=-4.669765 (std=1.444752) with: {'activation': 'softmax', 'batch_size': 84, 'dropout_rate': 0.13388893843376115, 'epochs': 536, 'init_mode': 'zero', 'learn_rate': 0.27961786356024604, 'momentum': 0.85311037917536048, 'neurons': 39, 'weight_constraint': 3}
mean mse=-100.313883 (std=66.892387) with: {'activation': 'softmax', 'batch_size': 84, 'dropout_rate': 0.13388893843376115, 'epochs': 536, 'init_mode': 'zero', 'learn_rate': 0.27961786356024604, 'momentum': 0.85311037917536048, 'neurons': 39, 'weight_constraint': 3}
mean r2=-0.111770 (std=0.125648) with: {'activation': 'softmax', 'batch_size': 84, 'dropout_rate': 0.13388893843376115, 'epochs': 536, 'init_mode': 'zero', 'learn_rate': 0.27961786356024604, 'momentum': 0.85311037917536048, 'neurons': 39, 'weight_constraint': 3}
mean ev=0.044247 (std=0.066888) with: {'activation': 'softmax', 'batch_size': 84, 'dropout_rate': 0.13388893843376115, 'epochs': 536, 'init_mode': 'zero', 'learn_rate': 0.27961786356024604, 'momentum': 0.85311037917536048, 'neurons': 39, 'weight_constraint': 3}
****************************************************
mean mae=-8.024067 (std=3.544304) with: {'activation': 'linear', 'batch_size': 72, 'dropout_rate': 0.38451438067595745, 'epochs': 381, 'init_mode': 'he_uniform', 'learn_rate': 0.17279631332398768, 'momentum': 0.91468231551105372, 'neurons': 32, 'weight_constraint': 4}
mean mse=-136.076158 (std=85.277141) with: {'activation': 'linear', 'batch_size': 72, 'dropout_rate': 0.38451438067595745, 'epochs': 381, 'init_mode': 'he_uniform', 'learn_rate': 0.17279631332398768, 'momentum': 0.91468231551105372, 'neurons': 32, 'weight_constraint': 4}
mean r2=-0.889391 (std=1.619871) with: {'activation': 'linear', 'batch_size': 72, 'dropout_rate': 0.38451438067595745, 'epochs': 381, 'init_mode': 'he_uniform', 'learn_rate': 0.17279631332398768, 'momentum': 0.91468231551105372, 'neurons': 32, 'weight_constraint': 4}
mean ev=0.033849 (std=0.128908) with: {'activation': 'linear', 'batch_size': 72, 'dropout_rate': 0.38451438067595745, 'epochs': 381, 'init_mode': 'he_uniform', 'learn_rate': 0.17279631332398768, 'momentum': 0.91468231551105372, 'neurons': 32, 'weight_constraint': 4}
****************************************************
mean mae=-3082.766516 (std=526.724950) with: {'activation': 'linear', 'batch_size': 36, 'dropout_rate': 0.20777913164073902, 'epochs': 394, 'init_mode': 'he_uniform', 'learn_rate': 0.28342762859486359, 'momentum': 0.87111895982601117, 'neurons': 32, 'weight_constraint': 5}
mean mse=-10011652.911262 (std=3444787.964822) with: {'activation': 'linear', 'batch_size': 36, 'dropout_rate': 0.20777913164073902, 'epochs': 394, 'init_mode': 'he_uniform', 'learn_rate': 0.28342762859486359, 'momentum': 0.87111895982601117, 'neurons': 32, 'weight_constraint': 5}
mean r2=-234587.670457 (std=357800.750595) with: {'activation': 'linear', 'batch_size': 36, 'dropout_rate': 0.20777913164073902, 'epochs': 394, 'init_mode': 'he_uniform', 'learn_rate': 0.28342762859486359, 'momentum': 0.87111895982601117, 'neurons': 32, 'weight_constraint': 5}
mean ev=-6130.564156 (std=11214.970402) with: {'activation': 'linear', 'batch_size': 36, 'dropout_rate': 0.20777913164073902, 'epochs': 394, 'init_mode': 'he_uniform', 'learn_rate': 0.28342762859486359, 'momentum': 0.87111895982601117, 'neurons': 32, 'weight_constraint': 5}
****************************************************
mean mae=-5.327189 (std=0.988050) with: {'activation': 'softsign', 'batch_size': 86, 'dropout_rate': 0.10917501901779901, 'epochs': 865, 'init_mode': 'uniform', 'learn_rate': 0.23535266176695352, 'momentum': 0.92952206516209834, 'neurons': 80, 'weight_constraint': 2}
mean mse=-87.580131 (std=53.201848) with: {'activation': 'softsign', 'batch_size': 86, 'dropout_rate': 0.10917501901779901, 'epochs': 865, 'init_mode': 'uniform', 'learn_rate': 0.23535266176695352, 'momentum': 0.92952206516209834, 'neurons': 80, 'weight_constraint': 2}
mean r2=-0.126079 (std=0.478581) with: {'activation': 'softsign', 'batch_size': 86, 'dropout_rate': 0.10917501901779901, 'epochs': 865, 'init_mode': 'uniform', 'learn_rate': 0.23535266176695352, 'momentum': 0.92952206516209834, 'neurons': 80, 'weight_constraint': 2}
mean ev=0.061270 (std=0.128642) with: {'activation': 'softsign', 'batch_size': 86, 'dropout_rate': 0.10917501901779901, 'epochs': 865, 'init_mode': 'uniform', 'learn_rate': 0.23535266176695352, 'momentum': 0.92952206516209834, 'neurons': 80, 'weight_constraint': 2}
****************************************************
mean mae=-4.752224 (std=1.433071) with: {'activation': 'linear', 'batch_size': 12, 'dropout_rate': 0.47794131020455644, 'epochs': 905, 'init_mode': 'zero', 'learn_rate': 0.029738548053286153, 'momentum': 0.63897695132302523, 'neurons': 26, 'weight_constraint': 2}
mean mse=-105.654589 (std=65.261463) with: {'activation': 'linear', 'batch_size': 12, 'dropout_rate': 0.47794131020455644, 'epochs': 905, 'init_mode': 'zero', 'learn_rate': 0.029738548053286153, 'momentum': 0.63897695132302523, 'neurons': 26, 'weight_constraint': 2}
mean r2=-0.180508 (std=0.075238) with: {'activation': 'linear', 'batch_size': 12, 'dropout_rate': 0.47794131020455644, 'epochs': 905, 'init_mode': 'zero', 'learn_rate': 0.029738548053286153, 'momentum': 0.63897695132302523, 'neurons': 26, 'weight_constraint': 2}
mean ev=-0.000000 (std=0.000000) with: {'activation': 'linear', 'batch_size': 12, 'dropout_rate': 0.47794131020455644, 'epochs': 905, 'init_mode': 'zero', 'learn_rate': 0.029738548053286153, 'momentum': 0.63897695132302523, 'neurons': 26, 'weight_constraint': 2}
****************************************************
mean mae=-4.702587 (std=1.359534) with: {'activation': 'hard_sigmoid', 'batch_size': 32, 'dropout_rate': 0.32346690904172448, 'epochs': 828, 'init_mode': 'he_normal', 'learn_rate': 0.1277446089811336, 'momentum': 0.92318527977439091, 'neurons': 16, 'weight_constraint': 2}
mean mse=-101.740283 (std=65.795813) with: {'activation': 'hard_sigmoid', 'batch_size': 32, 'dropout_rate': 0.32346690904172448, 'epochs': 828, 'init_mode': 'he_normal', 'learn_rate': 0.1277446089811336, 'momentum': 0.92318527977439091, 'neurons': 16, 'weight_constraint': 2}
mean r2=-0.120288 (std=0.085659) with: {'activation': 'hard_sigmoid', 'batch_size': 32, 'dropout_rate': 0.32346690904172448, 'epochs': 828, 'init_mode': 'he_normal', 'learn_rate': 0.1277446089811336, 'momentum': 0.92318527977439091, 'neurons': 16, 'weight_constraint': 2}
mean ev=0.030303 (std=0.017716) with: {'activation': 'hard_sigmoid', 'batch_size': 32, 'dropout_rate': 0.32346690904172448, 'epochs': 828, 'init_mode': 'he_normal', 'learn_rate': 0.1277446089811336, 'momentum': 0.92318527977439091, 'neurons': 16, 'weight_constraint': 2}
****************************************************
mean mae=-4.751474 (std=1.459338) with: {'activation': 'relu', 'batch_size': 58, 'dropout_rate': 0.64853800548930529, 'epochs': 302, 'init_mode': 'glorot_normal', 'learn_rate': 0.13869410191950476, 'momentum': 0.55357369260714684, 'neurons': 17, 'weight_constraint': 1}
mean mse=-105.764008 (std=65.554682) with: {'activation': 'relu', 'batch_size': 58, 'dropout_rate': 0.64853800548930529, 'epochs': 302, 'init_mode': 'glorot_normal', 'learn_rate': 0.13869410191950476, 'momentum': 0.55357369260714684, 'neurons': 17, 'weight_constraint': 1}
mean r2=-0.180178 (std=0.078444) with: {'activation': 'relu', 'batch_size': 58, 'dropout_rate': 0.64853800548930529, 'epochs': 302, 'init_mode': 'glorot_normal', 'learn_rate': 0.13869410191950476, 'momentum': 0.55357369260714684, 'neurons': 17, 'weight_constraint': 1}
mean ev=0.009040 (std=0.003887) with: {'activation': 'relu', 'batch_size': 58, 'dropout_rate': 0.64853800548930529, 'epochs': 302, 'init_mode': 'glorot_normal', 'learn_rate': 0.13869410191950476, 'momentum': 0.55357369260714684, 'neurons': 17, 'weight_constraint': 1}
****************************************************
mean mae=-4.810170 (std=1.095103) with: {'activation': 'softsign', 'batch_size': 95, 'dropout_rate': 0.55096855822717961, 'epochs': 115, 'init_mode': 'he_normal', 'learn_rate': 0.2530840785598471, 'momentum': 0.64941284122184595, 'neurons': 82, 'weight_constraint': 1}
mean mse=-89.221707 (std=59.622666) with: {'activation': 'softsign', 'batch_size': 95, 'dropout_rate': 0.55096855822717961, 'epochs': 115, 'init_mode': 'he_normal', 'learn_rate': 0.2530840785598471, 'momentum': 0.64941284122184595, 'neurons': 82, 'weight_constraint': 1}
mean r2=0.007448 (std=0.080381) with: {'activation': 'softsign', 'batch_size': 95, 'dropout_rate': 0.55096855822717961, 'epochs': 115, 'init_mode': 'he_normal', 'learn_rate': 0.2530840785598471, 'momentum': 0.64941284122184595, 'neurons': 82, 'weight_constraint': 1}
mean ev=0.080008 (std=0.054800) with: {'activation': 'softsign', 'batch_size': 95, 'dropout_rate': 0.55096855822717961, 'epochs': 115, 'init_mode': 'he_normal', 'learn_rate': 0.2530840785598471, 'momentum': 0.64941284122184595, 'neurons': 82, 'weight_constraint': 1}
****************************************************
mean mae=-4.648515 (std=1.328949) with: {'activation': 'relu', 'batch_size': 59, 'dropout_rate': 0.4760469821226132, 'epochs': 59, 'init_mode': 'he_uniform', 'learn_rate': 0.11328846846465548, 'momentum': 0.74180753016752921, 'neurons': 25, 'weight_constraint': 3}
mean mse=-96.779913 (std=55.396154) with: {'activation': 'relu', 'batch_size': 59, 'dropout_rate': 0.4760469821226132, 'epochs': 59, 'init_mode': 'he_uniform', 'learn_rate': 0.11328846846465548, 'momentum': 0.74180753016752921, 'neurons': 25, 'weight_constraint': 3}
mean r2=-0.104671 (std=0.071708) with: {'activation': 'relu', 'batch_size': 59, 'dropout_rate': 0.4760469821226132, 'epochs': 59, 'init_mode': 'he_uniform', 'learn_rate': 0.11328846846465548, 'momentum': 0.74180753016752921, 'neurons': 25, 'weight_constraint': 3}
mean ev=0.046970 (std=0.042242) with: {'activation': 'relu', 'batch_size': 59, 'dropout_rate': 0.4760469821226132, 'epochs': 59, 'init_mode': 'he_uniform', 'learn_rate': 0.11328846846465548, 'momentum': 0.74180753016752921, 'neurons': 25, 'weight_constraint': 3}
****************************************************
mean mae=-7.107594 (std=3.246663) with: {'activation': 'softsign', 'batch_size': 21, 'dropout_rate': 0.68808941352377107, 'epochs': 346, 'init_mode': 'glorot_uniform', 'learn_rate': 0.18501039748276646, 'momentum': 0.9480403941477652, 'neurons': 80, 'weight_constraint': 1}
mean mse=-120.797256 (std=71.556282) with: {'activation': 'softsign', 'batch_size': 21, 'dropout_rate': 0.68808941352377107, 'epochs': 346, 'init_mode': 'glorot_uniform', 'learn_rate': 0.18501039748276646, 'momentum': 0.9480403941477652, 'neurons': 80, 'weight_constraint': 1}
mean r2=-0.375428 (std=0.449861) with: {'activation': 'softsign', 'batch_size': 21, 'dropout_rate': 0.68808941352377107, 'epochs': 346, 'init_mode': 'glorot_uniform', 'learn_rate': 0.18501039748276646, 'momentum': 0.9480403941477652, 'neurons': 80, 'weight_constraint': 1}
mean ev=-0.001057 (std=0.045786) with: {'activation': 'softsign', 'batch_size': 21, 'dropout_rate': 0.68808941352377107, 'epochs': 346, 'init_mode': 'glorot_uniform', 'learn_rate': 0.18501039748276646, 'momentum': 0.9480403941477652, 'neurons': 80, 'weight_constraint': 1}
****************************************************
mean mae=-4.714300 (std=1.365744) with: {'activation': 'hard_sigmoid', 'batch_size': 13, 'dropout_rate': 0.36206457765094591, 'epochs': 530, 'init_mode': 'zero', 'learn_rate': 0.27879903814096846, 'momentum': 0.78135314255866783, 'neurons': 84, 'weight_constraint': 3}
mean mse=-98.571849 (std=62.680377) with: {'activation': 'hard_sigmoid', 'batch_size': 13, 'dropout_rate': 0.36206457765094591, 'epochs': 530, 'init_mode': 'zero', 'learn_rate': 0.27879903814096846, 'momentum': 0.78135314255866783, 'neurons': 84, 'weight_constraint': 3}
mean r2=-0.094914 (std=0.070884) with: {'activation': 'hard_sigmoid', 'batch_size': 13, 'dropout_rate': 0.36206457765094591, 'epochs': 530, 'init_mode': 'zero', 'learn_rate': 0.27879903814096846, 'momentum': 0.78135314255866783, 'neurons': 84, 'weight_constraint': 3}
mean ev=0.030759 (std=0.013212) with: {'activation': 'hard_sigmoid', 'batch_size': 13, 'dropout_rate': 0.36206457765094591, 'epochs': 530, 'init_mode': 'zero', 'learn_rate': 0.27879903814096846, 'momentum': 0.78135314255866783, 'neurons': 84, 'weight_constraint': 3}
****************************************************
mean mae=-4.808308 (std=1.327196) with: {'activation': 'relu', 'batch_size': 43, 'dropout_rate': 0.71083111884151717, 'epochs': 305, 'init_mode': 'zero', 'learn_rate': 0.12812256258938096, 'momentum': 0.98877549846449564, 'neurons': 45, 'weight_constraint': 5}
mean mse=-105.756194 (std=66.052385) with: {'activation': 'relu', 'batch_size': 43, 'dropout_rate': 0.71083111884151717, 'epochs': 305, 'init_mode': 'zero', 'learn_rate': 0.12812256258938096, 'momentum': 0.98877549846449564, 'neurons': 45, 'weight_constraint': 5}
mean r2=-0.177088 (std=0.076282) with: {'activation': 'relu', 'batch_size': 43, 'dropout_rate': 0.71083111884151717, 'epochs': 305, 'init_mode': 'zero', 'learn_rate': 0.12812256258938096, 'momentum': 0.98877549846449564, 'neurons': 45, 'weight_constraint': 5}
mean ev=-0.000000 (std=0.000000) with: {'activation': 'relu', 'batch_size': 43, 'dropout_rate': 0.71083111884151717, 'epochs': 305, 'init_mode': 'zero', 'learn_rate': 0.12812256258938096, 'momentum': 0.98877549846449564, 'neurons': 45, 'weight_constraint': 5}
****************************************************
mean mae=-5.078677 (std=0.891147) with: {'activation': 'hard_sigmoid', 'batch_size': 56, 'dropout_rate': 0.021749484691774283, 'epochs': 667, 'init_mode': 'glorot_uniform', 'learn_rate': 0.063619789235868418, 'momentum': 0.63451411635105481, 'neurons': 55, 'weight_constraint': 4}
mean mse=-89.503774 (std=59.806174) with: {'activation': 'hard_sigmoid', 'batch_size': 56, 'dropout_rate': 0.021749484691774283, 'epochs': 667, 'init_mode': 'glorot_uniform', 'learn_rate': 0.063619789235868418, 'momentum': 0.63451411635105481, 'neurons': 55, 'weight_constraint': 4}
mean r2=-0.098863 (std=0.361034) with: {'activation': 'hard_sigmoid', 'batch_size': 56, 'dropout_rate': 0.021749484691774283, 'epochs': 667, 'init_mode': 'glorot_uniform', 'learn_rate': 0.063619789235868418, 'momentum': 0.63451411635105481, 'neurons': 55, 'weight_constraint': 4}
mean ev=-0.017964 (std=0.345460) with: {'activation': 'hard_sigmoid', 'batch_size': 56, 'dropout_rate': 0.021749484691774283, 'epochs': 667, 'init_mode': 'glorot_uniform', 'learn_rate': 0.063619789235868418, 'momentum': 0.63451411635105481, 'neurons': 55, 'weight_constraint': 4}
****************************************************
mean mae=-4.806241 (std=1.472296) with: {'activation': 'softsign', 'batch_size': 34, 'dropout_rate': 0.33986681538583163, 'epochs': 705, 'init_mode': 'zero', 'learn_rate': 0.19651722015337658, 'momentum': 0.74807268895126278, 'neurons': 73, 'weight_constraint': 4}
mean mse=-105.402236 (std=64.642740) with: {'activation': 'softsign', 'batch_size': 34, 'dropout_rate': 0.33986681538583163, 'epochs': 705, 'init_mode': 'zero', 'learn_rate': 0.19651722015337658, 'momentum': 0.74807268895126278, 'neurons': 73, 'weight_constraint': 4}
mean r2=-0.184270 (std=0.079398) with: {'activation': 'softsign', 'batch_size': 34, 'dropout_rate': 0.33986681538583163, 'epochs': 705, 'init_mode': 'zero', 'learn_rate': 0.19651722015337658, 'momentum': 0.74807268895126278, 'neurons': 73, 'weight_constraint': 4}
mean ev=-0.000000 (std=0.000000) with: {'activation': 'softsign', 'batch_size': 34, 'dropout_rate': 0.33986681538583163, 'epochs': 705, 'init_mode': 'zero', 'learn_rate': 0.19651722015337658, 'momentum': 0.74807268895126278, 'neurons': 73, 'weight_constraint': 4}
****************************************************
mean mae=-4.891110 (std=1.391878) with: {'activation': 'softmax', 'batch_size': 27, 'dropout_rate': 0.75972724524268886, 'epochs': 192, 'init_mode': 'normal', 'learn_rate': 0.27431247050358099, 'momentum': 0.96496119754742748, 'neurons': 46, 'weight_constraint': 3}
mean mse=-107.619194 (std=68.016406) with: {'activation': 'softmax', 'batch_size': 27, 'dropout_rate': 0.75972724524268886, 'epochs': 192, 'init_mode': 'normal', 'learn_rate': 0.27431247050358099, 'momentum': 0.96496119754742748, 'neurons': 46, 'weight_constraint': 3}
mean r2=-0.189911 (std=0.103873) with: {'activation': 'softmax', 'batch_size': 27, 'dropout_rate': 0.75972724524268886, 'epochs': 192, 'init_mode': 'normal', 'learn_rate': 0.27431247050358099, 'momentum': 0.96496119754742748, 'neurons': 46, 'weight_constraint': 3}
mean ev=0.000442 (std=0.001992) with: {'activation': 'softmax', 'batch_size': 27, 'dropout_rate': 0.75972724524268886, 'epochs': 192, 'init_mode': 'normal', 'learn_rate': 0.27431247050358099, 'momentum': 0.96496119754742748, 'neurons': 46, 'weight_constraint': 3}
****************************************************
mean mae=-5.296830 (std=1.290040) with: {'activation': 'hard_sigmoid', 'batch_size': 3, 'dropout_rate': 0.030760438862843402, 'epochs': 224, 'init_mode': 'glorot_normal', 'learn_rate': 0.24832814950608839, 'momentum': 0.96617653674886272, 'neurons': 50, 'weight_constraint': 3}
mean mse=-111.604996 (std=72.881336) with: {'activation': 'hard_sigmoid', 'batch_size': 3, 'dropout_rate': 0.030760438862843402, 'epochs': 224, 'init_mode': 'glorot_normal', 'learn_rate': 0.24832814950608839, 'momentum': 0.96617653674886272, 'neurons': 50, 'weight_constraint': 3}
mean r2=-0.304841 (std=0.251156) with: {'activation': 'hard_sigmoid', 'batch_size': 3, 'dropout_rate': 0.030760438862843402, 'epochs': 224, 'init_mode': 'glorot_normal', 'learn_rate': 0.24832814950608839, 'momentum': 0.96617653674886272, 'neurons': 50, 'weight_constraint': 3}
mean ev=0.000016 (std=0.000047) with: {'activation': 'hard_sigmoid', 'batch_size': 3, 'dropout_rate': 0.030760438862843402, 'epochs': 224, 'init_mode': 'glorot_normal', 'learn_rate': 0.24832814950608839, 'momentum': 0.96617653674886272, 'neurons': 50, 'weight_constraint': 3}
****************************************************
mean mae=-4.798781 (std=1.280706) with: {'activation': 'sigmoid', 'batch_size': 16, 'dropout_rate': 0.29300038998677014, 'epochs': 915, 'init_mode': 'zero', 'learn_rate': 0.14596712833352007, 'momentum': 0.88986614072737336, 'neurons': 54, 'weight_constraint': 3}
mean mse=-95.150623 (std=61.876936) with: {'activation': 'sigmoid', 'batch_size': 16, 'dropout_rate': 0.29300038998677014, 'epochs': 915, 'init_mode': 'zero', 'learn_rate': 0.14596712833352007, 'momentum': 0.88986614072737336, 'neurons': 54, 'weight_constraint': 3}
mean r2=-0.063723 (std=0.089402) with: {'activation': 'sigmoid', 'batch_size': 16, 'dropout_rate': 0.29300038998677014, 'epochs': 915, 'init_mode': 'zero', 'learn_rate': 0.14596712833352007, 'momentum': 0.88986614072737336, 'neurons': 54, 'weight_constraint': 3}
mean ev=0.064533 (std=0.032963) with: {'activation': 'sigmoid', 'batch_size': 16, 'dropout_rate': 0.29300038998677014, 'epochs': 915, 'init_mode': 'zero', 'learn_rate': 0.14596712833352007, 'momentum': 0.88986614072737336, 'neurons': 54, 'weight_constraint': 3}
****************************************************
mean mae=-4.786110 (std=1.062078) with: {'activation': 'tanh', 'batch_size': 37, 'dropout_rate': 0.70752622539199628, 'epochs': 123, 'init_mode': 'he_uniform', 'learn_rate': 0.057196900359487657, 'momentum': 0.81710713801231782, 'neurons': 65, 'weight_constraint': 2}
mean mse=-89.991778 (std=59.083613) with: {'activation': 'tanh', 'batch_size': 37, 'dropout_rate': 0.70752622539199628, 'epochs': 123, 'init_mode': 'he_uniform', 'learn_rate': 0.057196900359487657, 'momentum': 0.81710713801231782, 'neurons': 65, 'weight_constraint': 2}
mean r2=-0.016365 (std=0.110141) with: {'activation': 'tanh', 'batch_size': 37, 'dropout_rate': 0.70752622539199628, 'epochs': 123, 'init_mode': 'he_uniform', 'learn_rate': 0.057196900359487657, 'momentum': 0.81710713801231782, 'neurons': 65, 'weight_constraint': 2}
mean ev=0.064778 (std=0.086218) with: {'activation': 'tanh', 'batch_size': 37, 'dropout_rate': 0.70752622539199628, 'epochs': 123, 'init_mode': 'he_uniform', 'learn_rate': 0.057196900359487657, 'momentum': 0.81710713801231782, 'neurons': 65, 'weight_constraint': 2}
****************************************************
mean mae=-4.786681 (std=1.506648) with: {'activation': 'tanh', 'batch_size': 37, 'dropout_rate': 0.29248045973076731, 'epochs': 398, 'init_mode': 'zero', 'learn_rate': 0.17135358057871927, 'momentum': 0.99502777666153519, 'neurons': 34, 'weight_constraint': 2}
mean mse=-107.449606 (std=65.862327) with: {'activation': 'tanh', 'batch_size': 37, 'dropout_rate': 0.29248045973076731, 'epochs': 398, 'init_mode': 'zero', 'learn_rate': 0.17135358057871927, 'momentum': 0.99502777666153519, 'neurons': 34, 'weight_constraint': 2}
mean r2=-0.203705 (std=0.077452) with: {'activation': 'tanh', 'batch_size': 37, 'dropout_rate': 0.29248045973076731, 'epochs': 398, 'init_mode': 'zero', 'learn_rate': 0.17135358057871927, 'momentum': 0.99502777666153519, 'neurons': 34, 'weight_constraint': 2}
mean ev=0.000000 (std=0.000000) with: {'activation': 'tanh', 'batch_size': 37, 'dropout_rate': 0.29248045973076731, 'epochs': 398, 'init_mode': 'zero', 'learn_rate': 0.17135358057871927, 'momentum': 0.99502777666153519, 'neurons': 34, 'weight_constraint': 2}
****************************************************
mean mae=-4.734721 (std=1.202701) with: {'activation': 'softsign', 'batch_size': 65, 'dropout_rate': 0.96126839880794768, 'epochs': 751, 'init_mode': 'glorot_uniform', 'learn_rate': 0.13608960448559854, 'momentum': 0.68206858551924787, 'neurons': 59, 'weight_constraint': 5}
mean mse=-93.106861 (std=61.540669) with: {'activation': 'softsign', 'batch_size': 65, 'dropout_rate': 0.96126839880794768, 'epochs': 751, 'init_mode': 'glorot_uniform', 'learn_rate': 0.13608960448559854, 'momentum': 0.68206858551924787, 'neurons': 59, 'weight_constraint': 5}
mean r2=-0.033469 (std=0.089059) with: {'activation': 'softsign', 'batch_size': 65, 'dropout_rate': 0.96126839880794768, 'epochs': 751, 'init_mode': 'glorot_uniform', 'learn_rate': 0.13608960448559854, 'momentum': 0.68206858551924787, 'neurons': 59, 'weight_constraint': 5}
mean ev=0.062119 (std=0.048342) with: {'activation': 'softsign', 'batch_size': 65, 'dropout_rate': 0.96126839880794768, 'epochs': 751, 'init_mode': 'glorot_uniform', 'learn_rate': 0.13608960448559854, 'momentum': 0.68206858551924787, 'neurons': 59, 'weight_constraint': 5}
****************************************************
mean mae=-4.952431 (std=0.882845) with: {'activation': 'relu', 'batch_size': 68, 'dropout_rate': 0.41479193587948926, 'epochs': 652, 'init_mode': 'lecun_uniform', 'learn_rate': 0.049363069421375222, 'momentum': 0.57818682568707569, 'neurons': 48, 'weight_constraint': 3}
mean mse=-88.650982 (std=57.389685) with: {'activation': 'relu', 'batch_size': 68, 'dropout_rate': 0.41479193587948926, 'epochs': 652, 'init_mode': 'lecun_uniform', 'learn_rate': 0.049363069421375222, 'momentum': 0.57818682568707569, 'neurons': 48, 'weight_constraint': 3}
mean r2=-0.191751 (std=0.681226) with: {'activation': 'relu', 'batch_size': 68, 'dropout_rate': 0.41479193587948926, 'epochs': 652, 'init_mode': 'lecun_uniform', 'learn_rate': 0.049363069421375222, 'momentum': 0.57818682568707569, 'neurons': 48, 'weight_constraint': 3}
mean ev=-0.093840 (std=0.553560) with: {'activation': 'relu', 'batch_size': 68, 'dropout_rate': 0.41479193587948926, 'epochs': 652, 'init_mode': 'lecun_uniform', 'learn_rate': 0.049363069421375222, 'momentum': 0.57818682568707569, 'neurons': 48, 'weight_constraint': 3}
****************************************************
mean mae=-4.790767 (std=0.942198) with: {'activation': 'tanh', 'batch_size': 67, 'dropout_rate': 0.092893179202185747, 'epochs': 469, 'init_mode': 'glorot_normal', 'learn_rate': 0.17409163506090872, 'momentum': 0.91165367245293283, 'neurons': 34, 'weight_constraint': 1}
mean mse=-92.220151 (std=60.746041) with: {'activation': 'tanh', 'batch_size': 67, 'dropout_rate': 0.092893179202185747, 'epochs': 469, 'init_mode': 'glorot_normal', 'learn_rate': 0.17409163506090872, 'momentum': 0.91165367245293283, 'neurons': 34, 'weight_constraint': 1}
mean r2=-0.092492 (std=0.241835) with: {'activation': 'tanh', 'batch_size': 67, 'dropout_rate': 0.092893179202185747, 'epochs': 469, 'init_mode': 'glorot_normal', 'learn_rate': 0.17409163506090872, 'momentum': 0.91165367245293283, 'neurons': 34, 'weight_constraint': 1}
mean ev=0.083276 (std=0.061919) with: {'activation': 'tanh', 'batch_size': 67, 'dropout_rate': 0.092893179202185747, 'epochs': 469, 'init_mode': 'glorot_normal', 'learn_rate': 0.17409163506090872, 'momentum': 0.91165367245293283, 'neurons': 34, 'weight_constraint': 1}
****************************************************
mean mae=-4.721566 (std=1.341361) with: {'activation': 'softplus', 'batch_size': 71, 'dropout_rate': 0.86358557995110996, 'epochs': 146, 'init_mode': 'normal', 'learn_rate': 0.24913131021287233, 'momentum': 0.56645289819709777, 'neurons': 70, 'weight_constraint': 1}
mean mse=-101.727279 (std=65.480444) with: {'activation': 'softplus', 'batch_size': 71, 'dropout_rate': 0.86358557995110996, 'epochs': 146, 'init_mode': 'normal', 'learn_rate': 0.24913131021287233, 'momentum': 0.56645289819709777, 'neurons': 70, 'weight_constraint': 1}
mean r2=-0.118490 (std=0.092989) with: {'activation': 'softplus', 'batch_size': 71, 'dropout_rate': 0.86358557995110996, 'epochs': 146, 'init_mode': 'normal', 'learn_rate': 0.24913131021287233, 'momentum': 0.56645289819709777, 'neurons': 70, 'weight_constraint': 1}
mean ev=0.031632 (std=0.020696) with: {'activation': 'softplus', 'batch_size': 71, 'dropout_rate': 0.86358557995110996, 'epochs': 146, 'init_mode': 'normal', 'learn_rate': 0.24913131021287233, 'momentum': 0.56645289819709777, 'neurons': 70, 'weight_constraint': 1}
****************************************************
mean mae=-4.656585 (std=1.181066) with: {'activation': 'softplus', 'batch_size': 77, 'dropout_rate': 0.071068278991234121, 'epochs': 39, 'init_mode': 'he_uniform', 'learn_rate': 0.28502830725464373, 'momentum': 0.62036967811335098, 'neurons': 29, 'weight_constraint': 2}
mean mse=-95.407641 (std=61.209533) with: {'activation': 'softplus', 'batch_size': 77, 'dropout_rate': 0.071068278991234121, 'epochs': 39, 'init_mode': 'he_uniform', 'learn_rate': 0.28502830725464373, 'momentum': 0.62036967811335098, 'neurons': 29, 'weight_constraint': 2}
mean r2=-0.066199 (std=0.071150) with: {'activation': 'softplus', 'batch_size': 77, 'dropout_rate': 0.071068278991234121, 'epochs': 39, 'init_mode': 'he_uniform', 'learn_rate': 0.28502830725464373, 'momentum': 0.62036967811335098, 'neurons': 29, 'weight_constraint': 2}
mean ev=0.058807 (std=0.054935) with: {'activation': 'softplus', 'batch_size': 77, 'dropout_rate': 0.071068278991234121, 'epochs': 39, 'init_mode': 'he_uniform', 'learn_rate': 0.28502830725464373, 'momentum': 0.62036967811335098, 'neurons': 29, 'weight_constraint': 2}
****************************************************
mean mae=-4.795662 (std=1.437496) with: {'activation': 'softmax', 'batch_size': 74, 'dropout_rate': 0.23103287527301219, 'epochs': 103, 'init_mode': 'glorot_uniform', 'learn_rate': 0.21935520006047274, 'momentum': 0.99925788363141699, 'neurons': 68, 'weight_constraint': 3}
mean mse=-97.354879 (std=65.711261) with: {'activation': 'softmax', 'batch_size': 74, 'dropout_rate': 0.23103287527301219, 'epochs': 103, 'init_mode': 'glorot_uniform', 'learn_rate': 0.21935520006047274, 'momentum': 0.99925788363141699, 'neurons': 68, 'weight_constraint': 3}
mean r2=-0.083775 (std=0.154187) with: {'activation': 'softmax', 'batch_size': 74, 'dropout_rate': 0.23103287527301219, 'epochs': 103, 'init_mode': 'glorot_uniform', 'learn_rate': 0.21935520006047274, 'momentum': 0.99925788363141699, 'neurons': 68, 'weight_constraint': 3}
mean ev=0.056696 (std=0.083621) with: {'activation': 'softmax', 'batch_size': 74, 'dropout_rate': 0.23103287527301219, 'epochs': 103, 'init_mode': 'glorot_uniform', 'learn_rate': 0.21935520006047274, 'momentum': 0.99925788363141699, 'neurons': 68, 'weight_constraint': 3}
****************************************************
mean mae=-4.770880 (std=1.417982) with: {'activation': 'hard_sigmoid', 'batch_size': 19, 'dropout_rate': 0.52390120984791355, 'epochs': 542, 'init_mode': 'zero', 'learn_rate': 0.15869992185227447, 'momentum': 0.67393700143693924, 'neurons': 30, 'weight_constraint': 1}
mean mse=-103.093870 (std=65.711022) with: {'activation': 'hard_sigmoid', 'batch_size': 19, 'dropout_rate': 0.52390120984791355, 'epochs': 542, 'init_mode': 'zero', 'learn_rate': 0.15869992185227447, 'momentum': 0.67393700143693924, 'neurons': 30, 'weight_constraint': 1}
mean r2=-0.162770 (std=0.091191) with: {'activation': 'hard_sigmoid', 'batch_size': 19, 'dropout_rate': 0.52390120984791355, 'epochs': 542, 'init_mode': 'zero', 'learn_rate': 0.15869992185227447, 'momentum': 0.67393700143693924, 'neurons': 30, 'weight_constraint': 1}
mean ev=0.028989 (std=0.013748) with: {'activation': 'hard_sigmoid', 'batch_size': 19, 'dropout_rate': 0.52390120984791355, 'epochs': 542, 'init_mode': 'zero', 'learn_rate': 0.15869992185227447, 'momentum': 0.67393700143693924, 'neurons': 30, 'weight_constraint': 1}
****************************************************
mean mae=-4.943763 (std=1.022078) with: {'activation': 'linear', 'batch_size': 84, 'dropout_rate': 0.51500513368594547, 'epochs': 840, 'init_mode': 'lecun_uniform', 'learn_rate': 0.026472215572310491, 'momentum': 0.89884848571151132, 'neurons': 47, 'weight_constraint': 2}
mean mse=-90.260871 (std=62.091118) with: {'activation': 'linear', 'batch_size': 84, 'dropout_rate': 0.51500513368594547, 'epochs': 840, 'init_mode': 'lecun_uniform', 'learn_rate': 0.026472215572310491, 'momentum': 0.89884848571151132, 'neurons': 47, 'weight_constraint': 2}
mean r2=-0.032556 (std=0.162882) with: {'activation': 'linear', 'batch_size': 84, 'dropout_rate': 0.51500513368594547, 'epochs': 840, 'init_mode': 'lecun_uniform', 'learn_rate': 0.026472215572310491, 'momentum': 0.89884848571151132, 'neurons': 47, 'weight_constraint': 2}
mean ev=0.043374 (std=0.166694) with: {'activation': 'linear', 'batch_size': 84, 'dropout_rate': 0.51500513368594547, 'epochs': 840, 'init_mode': 'lecun_uniform', 'learn_rate': 0.026472215572310491, 'momentum': 0.89884848571151132, 'neurons': 47, 'weight_constraint': 2}
****************************************************
