----------------------------------------------------------
----------------------------------------------------------
Best: -4.552701 using {'activation': 'softmax', 'batch_size': 85, 'dropout_rate': 0.56314113761657147, 'epochs': 622, 'init_mode': 'lecun_uniform', 'learn_rate': 0.28295328578579187, 'momentum': 0.61167964082173099, 'neurons': 28, 'weight_constraint': 4}
----------------------------------------------------------
mean mae=-4.741530 (std=1.399608) with: {'activation': 'relu', 'batch_size': 28, 'dropout_rate': 0.74004969661540476, 'epochs': 242, 'init_mode': 'normal', 'learn_rate': 0.16012181811408932, 'momentum': 0.50728748124270984, 'neurons': 23, 'weight_constraint': 2}
mean mse=-104.755905 (std=65.342555) with: {'activation': 'relu', 'batch_size': 28, 'dropout_rate': 0.74004969661540476, 'epochs': 242, 'init_mode': 'normal', 'learn_rate': 0.16012181811408932, 'momentum': 0.50728748124270984, 'neurons': 23, 'weight_constraint': 2}
mean r2=-0.163177 (std=0.096427) with: {'activation': 'relu', 'batch_size': 28, 'dropout_rate': 0.74004969661540476, 'epochs': 242, 'init_mode': 'normal', 'learn_rate': 0.16012181811408932, 'momentum': 0.50728748124270984, 'neurons': 23, 'weight_constraint': 2}
mean ev=0.017321 (std=0.012066) with: {'activation': 'relu', 'batch_size': 28, 'dropout_rate': 0.74004969661540476, 'epochs': 242, 'init_mode': 'normal', 'learn_rate': 0.16012181811408932, 'momentum': 0.50728748124270984, 'neurons': 23, 'weight_constraint': 2}
****************************************************
mean mae=-4.764288 (std=1.442854) with: {'activation': 'tanh', 'batch_size': 6, 'dropout_rate': 0.033421427726344592, 'epochs': 419, 'init_mode': 'zero', 'learn_rate': 0.041162796506822932, 'momentum': 0.64191417647897286, 'neurons': 77, 'weight_constraint': 3}
mean mse=-105.872972 (std=65.411842) with: {'activation': 'tanh', 'batch_size': 6, 'dropout_rate': 0.033421427726344592, 'epochs': 419, 'init_mode': 'zero', 'learn_rate': 0.041162796506822932, 'momentum': 0.64191417647897286, 'neurons': 77, 'weight_constraint': 3}
mean r2=-0.183111 (std=0.077842) with: {'activation': 'tanh', 'batch_size': 6, 'dropout_rate': 0.033421427726344592, 'epochs': 419, 'init_mode': 'zero', 'learn_rate': 0.041162796506822932, 'momentum': 0.64191417647897286, 'neurons': 77, 'weight_constraint': 3}
mean ev=-0.000000 (std=0.000000) with: {'activation': 'tanh', 'batch_size': 6, 'dropout_rate': 0.033421427726344592, 'epochs': 419, 'init_mode': 'zero', 'learn_rate': 0.041162796506822932, 'momentum': 0.64191417647897286, 'neurons': 77, 'weight_constraint': 3}
****************************************************
mean mae=-4.989153 (std=1.056928) with: {'activation': 'softplus', 'batch_size': 36, 'dropout_rate': 0.0022592336185135371, 'epochs': 420, 'init_mode': 'lecun_uniform', 'learn_rate': 0.16561129007936998, 'momentum': 0.74268870683135479, 'neurons': 19, 'weight_constraint': 3}
mean mse=-93.932011 (std=59.973813) with: {'activation': 'softplus', 'batch_size': 36, 'dropout_rate': 0.0022592336185135371, 'epochs': 420, 'init_mode': 'lecun_uniform', 'learn_rate': 0.16561129007936998, 'momentum': 0.74268870683135479, 'neurons': 19, 'weight_constraint': 3}
mean r2=-0.078391 (std=0.141076) with: {'activation': 'softplus', 'batch_size': 36, 'dropout_rate': 0.0022592336185135371, 'epochs': 420, 'init_mode': 'lecun_uniform', 'learn_rate': 0.16561129007936998, 'momentum': 0.74268870683135479, 'neurons': 19, 'weight_constraint': 3}
mean ev=0.026770 (std=0.107037) with: {'activation': 'softplus', 'batch_size': 36, 'dropout_rate': 0.0022592336185135371, 'epochs': 420, 'init_mode': 'lecun_uniform', 'learn_rate': 0.16561129007936998, 'momentum': 0.74268870683135479, 'neurons': 19, 'weight_constraint': 3}
****************************************************
mean mae=-4.552701 (std=1.339401) with: {'activation': 'softmax', 'batch_size': 85, 'dropout_rate': 0.56314113761657147, 'epochs': 622, 'init_mode': 'lecun_uniform', 'learn_rate': 0.28295328578579187, 'momentum': 0.61167964082173099, 'neurons': 28, 'weight_constraint': 4}
mean mse=-95.119528 (std=60.929445) with: {'activation': 'softmax', 'batch_size': 85, 'dropout_rate': 0.56314113761657147, 'epochs': 622, 'init_mode': 'lecun_uniform', 'learn_rate': 0.28295328578579187, 'momentum': 0.61167964082173099, 'neurons': 28, 'weight_constraint': 4}
mean r2=-0.064587 (std=0.081280) with: {'activation': 'softmax', 'batch_size': 85, 'dropout_rate': 0.56314113761657147, 'epochs': 622, 'init_mode': 'lecun_uniform', 'learn_rate': 0.28295328578579187, 'momentum': 0.61167964082173099, 'neurons': 28, 'weight_constraint': 4}
mean ev=0.059586 (std=0.056393) with: {'activation': 'softmax', 'batch_size': 85, 'dropout_rate': 0.56314113761657147, 'epochs': 622, 'init_mode': 'lecun_uniform', 'learn_rate': 0.28295328578579187, 'momentum': 0.61167964082173099, 'neurons': 28, 'weight_constraint': 4}
****************************************************
mean mae=-4.725822 (std=1.445646) with: {'activation': 'softplus', 'batch_size': 60, 'dropout_rate': 0.81616829814602687, 'epochs': 26, 'init_mode': 'he_normal', 'learn_rate': 0.21993779338380118, 'momentum': 0.85131117762762321, 'neurons': 69, 'weight_constraint': 2}
mean mse=-104.060326 (std=65.084660) with: {'activation': 'softplus', 'batch_size': 60, 'dropout_rate': 0.81616829814602687, 'epochs': 26, 'init_mode': 'he_normal', 'learn_rate': 0.21993779338380118, 'momentum': 0.85131117762762321, 'neurons': 69, 'weight_constraint': 2}
mean r2=-0.163185 (std=0.068111) with: {'activation': 'softplus', 'batch_size': 60, 'dropout_rate': 0.81616829814602687, 'epochs': 26, 'init_mode': 'he_normal', 'learn_rate': 0.21993779338380118, 'momentum': 0.85131117762762321, 'neurons': 69, 'weight_constraint': 2}
mean ev=0.012299 (std=0.008660) with: {'activation': 'softplus', 'batch_size': 60, 'dropout_rate': 0.81616829814602687, 'epochs': 26, 'init_mode': 'he_normal', 'learn_rate': 0.21993779338380118, 'momentum': 0.85131117762762321, 'neurons': 69, 'weight_constraint': 2}
****************************************************
mean mae=-4.795437 (std=1.463122) with: {'activation': 'relu', 'batch_size': 45, 'dropout_rate': 0.97805807911651887, 'epochs': 246, 'init_mode': 'zero', 'learn_rate': 0.28509405750985761, 'momentum': 0.88373782531024436, 'neurons': 48, 'weight_constraint': 5}
mean mse=-106.324398 (std=65.743324) with: {'activation': 'relu', 'batch_size': 45, 'dropout_rate': 0.97805807911651887, 'epochs': 246, 'init_mode': 'zero', 'learn_rate': 0.28509405750985761, 'momentum': 0.88373782531024436, 'neurons': 48, 'weight_constraint': 5}
mean r2=-0.186244 (std=0.085067) with: {'activation': 'relu', 'batch_size': 45, 'dropout_rate': 0.97805807911651887, 'epochs': 246, 'init_mode': 'zero', 'learn_rate': 0.28509405750985761, 'momentum': 0.88373782531024436, 'neurons': 48, 'weight_constraint': 5}
mean ev=-0.000000 (std=0.000000) with: {'activation': 'relu', 'batch_size': 45, 'dropout_rate': 0.97805807911651887, 'epochs': 246, 'init_mode': 'zero', 'learn_rate': 0.28509405750985761, 'momentum': 0.88373782531024436, 'neurons': 48, 'weight_constraint': 5}
****************************************************
mean mae=-4.644130 (std=1.415196) with: {'activation': 'softmax', 'batch_size': 43, 'dropout_rate': 0.60825805674533096, 'epochs': 622, 'init_mode': 'zero', 'learn_rate': 0.27802231063463556, 'momentum': 0.63428788990749752, 'neurons': 60, 'weight_constraint': 5}
mean mse=-96.502298 (std=64.431769) with: {'activation': 'softmax', 'batch_size': 43, 'dropout_rate': 0.60825805674533096, 'epochs': 622, 'init_mode': 'zero', 'learn_rate': 0.27802231063463556, 'momentum': 0.63428788990749752, 'neurons': 60, 'weight_constraint': 5}
mean r2=-0.064696 (std=0.128159) with: {'activation': 'softmax', 'batch_size': 43, 'dropout_rate': 0.60825805674533096, 'epochs': 622, 'init_mode': 'zero', 'learn_rate': 0.27802231063463556, 'momentum': 0.63428788990749752, 'neurons': 60, 'weight_constraint': 5}
mean ev=0.068786 (std=0.049411) with: {'activation': 'softmax', 'batch_size': 43, 'dropout_rate': 0.60825805674533096, 'epochs': 622, 'init_mode': 'zero', 'learn_rate': 0.27802231063463556, 'momentum': 0.63428788990749752, 'neurons': 60, 'weight_constraint': 5}
****************************************************
mean mae=-4.980061 (std=1.171650) with: {'activation': 'relu', 'batch_size': 55, 'dropout_rate': 0.46314886982734593, 'epochs': 492, 'init_mode': 'glorot_uniform', 'learn_rate': 0.1396524301517533, 'momentum': 0.51758413073540233, 'neurons': 70, 'weight_constraint': 4}
mean mse=-88.996960 (std=61.703039) with: {'activation': 'relu', 'batch_size': 55, 'dropout_rate': 0.46314886982734593, 'epochs': 492, 'init_mode': 'glorot_uniform', 'learn_rate': 0.1396524301517533, 'momentum': 0.51758413073540233, 'neurons': 70, 'weight_constraint': 4}
mean r2=-0.036610 (std=0.222447) with: {'activation': 'relu', 'batch_size': 55, 'dropout_rate': 0.46314886982734593, 'epochs': 492, 'init_mode': 'glorot_uniform', 'learn_rate': 0.1396524301517533, 'momentum': 0.51758413073540233, 'neurons': 70, 'weight_constraint': 4}
mean ev=0.043234 (std=0.176735) with: {'activation': 'relu', 'batch_size': 55, 'dropout_rate': 0.46314886982734593, 'epochs': 492, 'init_mode': 'glorot_uniform', 'learn_rate': 0.1396524301517533, 'momentum': 0.51758413073540233, 'neurons': 70, 'weight_constraint': 4}
****************************************************
mean mae=-4.634610 (std=1.044053) with: {'activation': 'sigmoid', 'batch_size': 44, 'dropout_rate': 0.63619999393286752, 'epochs': 787, 'init_mode': 'lecun_uniform', 'learn_rate': 0.090051018047195966, 'momentum': 0.61042626041444281, 'neurons': 71, 'weight_constraint': 3}
mean mse=-90.640069 (std=61.261522) with: {'activation': 'sigmoid', 'batch_size': 44, 'dropout_rate': 0.63619999393286752, 'epochs': 787, 'init_mode': 'lecun_uniform', 'learn_rate': 0.090051018047195966, 'momentum': 0.61042626041444281, 'neurons': 71, 'weight_constraint': 3}
mean r2=-0.032452 (std=0.124599) with: {'activation': 'sigmoid', 'batch_size': 44, 'dropout_rate': 0.63619999393286752, 'epochs': 787, 'init_mode': 'lecun_uniform', 'learn_rate': 0.090051018047195966, 'momentum': 0.61042626041444281, 'neurons': 71, 'weight_constraint': 3}
mean ev=0.052044 (std=0.136606) with: {'activation': 'sigmoid', 'batch_size': 44, 'dropout_rate': 0.63619999393286752, 'epochs': 787, 'init_mode': 'lecun_uniform', 'learn_rate': 0.090051018047195966, 'momentum': 0.61042626041444281, 'neurons': 71, 'weight_constraint': 3}
****************************************************
mean mae=-5.059232 (std=1.068179) with: {'activation': 'relu', 'batch_size': 35, 'dropout_rate': 0.41022121207148221, 'epochs': 822, 'init_mode': 'normal', 'learn_rate': 0.17139746736345265, 'momentum': 0.63204355952740354, 'neurons': 81, 'weight_constraint': 4}
mean mse=-94.267887 (std=60.397569) with: {'activation': 'relu', 'batch_size': 35, 'dropout_rate': 0.41022121207148221, 'epochs': 822, 'init_mode': 'normal', 'learn_rate': 0.17139746736345265, 'momentum': 0.63204355952740354, 'neurons': 81, 'weight_constraint': 4}
mean r2=-0.082399 (std=0.146077) with: {'activation': 'relu', 'batch_size': 35, 'dropout_rate': 0.41022121207148221, 'epochs': 822, 'init_mode': 'normal', 'learn_rate': 0.17139746736345265, 'momentum': 0.63204355952740354, 'neurons': 81, 'weight_constraint': 4}
mean ev=0.043707 (std=0.066319) with: {'activation': 'relu', 'batch_size': 35, 'dropout_rate': 0.41022121207148221, 'epochs': 822, 'init_mode': 'normal', 'learn_rate': 0.17139746736345265, 'momentum': 0.63204355952740354, 'neurons': 81, 'weight_constraint': 4}
****************************************************
mean mae=-4.647559 (std=1.006329) with: {'activation': 'sigmoid', 'batch_size': 88, 'dropout_rate': 0.49273730553650785, 'epochs': 185, 'init_mode': 'he_normal', 'learn_rate': 0.13843207811978656, 'momentum': 0.94737153696394538, 'neurons': 45, 'weight_constraint': 3}
mean mse=-90.691993 (std=60.878926) with: {'activation': 'sigmoid', 'batch_size': 88, 'dropout_rate': 0.49273730553650785, 'epochs': 185, 'init_mode': 'he_normal', 'learn_rate': 0.13843207811978656, 'momentum': 0.94737153696394538, 'neurons': 45, 'weight_constraint': 3}
mean r2=-0.042010 (std=0.163340) with: {'activation': 'sigmoid', 'batch_size': 88, 'dropout_rate': 0.49273730553650785, 'epochs': 185, 'init_mode': 'he_normal', 'learn_rate': 0.13843207811978656, 'momentum': 0.94737153696394538, 'neurons': 45, 'weight_constraint': 3}
mean ev=0.051774 (std=0.144570) with: {'activation': 'sigmoid', 'batch_size': 88, 'dropout_rate': 0.49273730553650785, 'epochs': 185, 'init_mode': 'he_normal', 'learn_rate': 0.13843207811978656, 'momentum': 0.94737153696394538, 'neurons': 45, 'weight_constraint': 3}
****************************************************
mean mae=-4.950310 (std=1.167256) with: {'activation': 'softplus', 'batch_size': 60, 'dropout_rate': 0.48004678342689022, 'epochs': 3, 'init_mode': 'glorot_normal', 'learn_rate': 0.062550146638054027, 'momentum': 0.97229073107816244, 'neurons': 69, 'weight_constraint': 4}
mean mse=-99.941574 (std=65.938243) with: {'activation': 'softplus', 'batch_size': 60, 'dropout_rate': 0.48004678342689022, 'epochs': 3, 'init_mode': 'glorot_normal', 'learn_rate': 0.062550146638054027, 'momentum': 0.97229073107816244, 'neurons': 69, 'weight_constraint': 4}
mean r2=-0.120270 (std=0.087055) with: {'activation': 'softplus', 'batch_size': 60, 'dropout_rate': 0.48004678342689022, 'epochs': 3, 'init_mode': 'glorot_normal', 'learn_rate': 0.062550146638054027, 'momentum': 0.97229073107816244, 'neurons': 69, 'weight_constraint': 4}
mean ev=0.022070 (std=0.016753) with: {'activation': 'softplus', 'batch_size': 60, 'dropout_rate': 0.48004678342689022, 'epochs': 3, 'init_mode': 'glorot_normal', 'learn_rate': 0.062550146638054027, 'momentum': 0.97229073107816244, 'neurons': 69, 'weight_constraint': 4}
****************************************************
mean mae=-4.658920 (std=1.362188) with: {'activation': 'linear', 'batch_size': 55, 'dropout_rate': 0.95449111371248363, 'epochs': 421, 'init_mode': 'he_normal', 'learn_rate': 0.0053927888882258548, 'momentum': 0.78136857949807381, 'neurons': 27, 'weight_constraint': 1}
mean mse=-99.779690 (std=63.702672) with: {'activation': 'linear', 'batch_size': 55, 'dropout_rate': 0.95449111371248363, 'epochs': 421, 'init_mode': 'he_normal', 'learn_rate': 0.0053927888882258548, 'momentum': 0.78136857949807381, 'neurons': 27, 'weight_constraint': 1}
mean r2=-0.099988 (std=0.087569) with: {'activation': 'linear', 'batch_size': 55, 'dropout_rate': 0.95449111371248363, 'epochs': 421, 'init_mode': 'he_normal', 'learn_rate': 0.0053927888882258548, 'momentum': 0.78136857949807381, 'neurons': 27, 'weight_constraint': 1}
mean ev=0.045200 (std=0.023231) with: {'activation': 'linear', 'batch_size': 55, 'dropout_rate': 0.95449111371248363, 'epochs': 421, 'init_mode': 'he_normal', 'learn_rate': 0.0053927888882258548, 'momentum': 0.78136857949807381, 'neurons': 27, 'weight_constraint': 1}
****************************************************
mean mae=-4.597354 (std=1.314152) with: {'activation': 'hard_sigmoid', 'batch_size': 57, 'dropout_rate': 0.92433069973199167, 'epochs': 346, 'init_mode': 'he_uniform', 'learn_rate': 0.096775719912644151, 'momentum': 0.6597381554667906, 'neurons': 82, 'weight_constraint': 3}
mean mse=-96.403872 (std=63.269711) with: {'activation': 'hard_sigmoid', 'batch_size': 57, 'dropout_rate': 0.92433069973199167, 'epochs': 346, 'init_mode': 'he_uniform', 'learn_rate': 0.096775719912644151, 'momentum': 0.6597381554667906, 'neurons': 82, 'weight_constraint': 3}
mean r2=-0.065164 (std=0.090822) with: {'activation': 'hard_sigmoid', 'batch_size': 57, 'dropout_rate': 0.92433069973199167, 'epochs': 346, 'init_mode': 'he_uniform', 'learn_rate': 0.096775719912644151, 'momentum': 0.6597381554667906, 'neurons': 82, 'weight_constraint': 3}
mean ev=0.055248 (std=0.048817) with: {'activation': 'hard_sigmoid', 'batch_size': 57, 'dropout_rate': 0.92433069973199167, 'epochs': 346, 'init_mode': 'he_uniform', 'learn_rate': 0.096775719912644151, 'momentum': 0.6597381554667906, 'neurons': 82, 'weight_constraint': 3}
****************************************************
mean mae=-4.803533 (std=1.387973) with: {'activation': 'relu', 'batch_size': 5, 'dropout_rate': 0.40595834305964273, 'epochs': 883, 'init_mode': 'uniform', 'learn_rate': 0.25715716774958308, 'momentum': 0.84446383301622885, 'neurons': 98, 'weight_constraint': 5}
mean mse=-102.998707 (std=62.373493) with: {'activation': 'relu', 'batch_size': 5, 'dropout_rate': 0.40595834305964273, 'epochs': 883, 'init_mode': 'uniform', 'learn_rate': 0.25715716774958308, 'momentum': 0.84446383301622885, 'neurons': 98, 'weight_constraint': 5}
mean r2=-0.156269 (std=0.087529) with: {'activation': 'relu', 'batch_size': 5, 'dropout_rate': 0.40595834305964273, 'epochs': 883, 'init_mode': 'uniform', 'learn_rate': 0.25715716774958308, 'momentum': 0.84446383301622885, 'neurons': 98, 'weight_constraint': 5}
mean ev=-0.000000 (std=0.000002) with: {'activation': 'relu', 'batch_size': 5, 'dropout_rate': 0.40595834305964273, 'epochs': 883, 'init_mode': 'uniform', 'learn_rate': 0.25715716774958308, 'momentum': 0.84446383301622885, 'neurons': 98, 'weight_constraint': 5}
****************************************************
mean mae=-1218.922563 (std=236.073702) with: {'activation': 'linear', 'batch_size': 39, 'dropout_rate': 0.047576226438068796, 'epochs': 195, 'init_mode': 'normal', 'learn_rate': 0.27445498652001366, 'momentum': 0.93762315286599796, 'neurons': 35, 'weight_constraint': 3}
mean mse=-1582351.758032 (std=637729.621942) with: {'activation': 'linear', 'batch_size': 39, 'dropout_rate': 0.047576226438068796, 'epochs': 195, 'init_mode': 'normal', 'learn_rate': 0.27445498652001366, 'momentum': 0.93762315286599796, 'neurons': 35, 'weight_constraint': 3}
mean r2=-30015.499998 (std=28167.141775) with: {'activation': 'linear', 'batch_size': 39, 'dropout_rate': 0.047576226438068796, 'epochs': 195, 'init_mode': 'normal', 'learn_rate': 0.27445498652001366, 'momentum': 0.93762315286599796, 'neurons': 35, 'weight_constraint': 3}
mean ev=-855.399579 (std=1236.799755) with: {'activation': 'linear', 'batch_size': 39, 'dropout_rate': 0.047576226438068796, 'epochs': 195, 'init_mode': 'normal', 'learn_rate': 0.27445498652001366, 'momentum': 0.93762315286599796, 'neurons': 35, 'weight_constraint': 3}
****************************************************
mean mae=-5.105340 (std=1.158197) with: {'activation': 'softsign', 'batch_size': 81, 'dropout_rate': 0.3122839969432516, 'epochs': 427, 'init_mode': 'he_uniform', 'learn_rate': 0.24022027036465823, 'momentum': 0.95571702506665956, 'neurons': 71, 'weight_constraint': 2}
mean mse=-94.055028 (std=68.244945) with: {'activation': 'softsign', 'batch_size': 81, 'dropout_rate': 0.3122839969432516, 'epochs': 427, 'init_mode': 'he_uniform', 'learn_rate': 0.24022027036465823, 'momentum': 0.95571702506665956, 'neurons': 71, 'weight_constraint': 2}
mean r2=-0.056939 (std=0.129317) with: {'activation': 'softsign', 'batch_size': 81, 'dropout_rate': 0.3122839969432516, 'epochs': 427, 'init_mode': 'he_uniform', 'learn_rate': 0.24022027036465823, 'momentum': 0.95571702506665956, 'neurons': 71, 'weight_constraint': 2}
mean ev=0.086632 (std=0.085324) with: {'activation': 'softsign', 'batch_size': 81, 'dropout_rate': 0.3122839969432516, 'epochs': 427, 'init_mode': 'he_uniform', 'learn_rate': 0.24022027036465823, 'momentum': 0.95571702506665956, 'neurons': 71, 'weight_constraint': 2}
****************************************************
mean mae=-4.821911 (std=1.403990) with: {'activation': 'relu', 'batch_size': 16, 'dropout_rate': 0.37744078246064472, 'epochs': 685, 'init_mode': 'glorot_uniform', 'learn_rate': 0.26555330842983849, 'momentum': 0.60107717168503627, 'neurons': 73, 'weight_constraint': 1}
mean mse=-106.948259 (std=65.943716) with: {'activation': 'relu', 'batch_size': 16, 'dropout_rate': 0.37744078246064472, 'epochs': 685, 'init_mode': 'glorot_uniform', 'learn_rate': 0.26555330842983849, 'momentum': 0.60107717168503627, 'neurons': 73, 'weight_constraint': 1}
mean r2=-0.192453 (std=0.093503) with: {'activation': 'relu', 'batch_size': 16, 'dropout_rate': 0.37744078246064472, 'epochs': 685, 'init_mode': 'glorot_uniform', 'learn_rate': 0.26555330842983849, 'momentum': 0.60107717168503627, 'neurons': 73, 'weight_constraint': 1}
mean ev=-0.000019 (std=0.000045) with: {'activation': 'relu', 'batch_size': 16, 'dropout_rate': 0.37744078246064472, 'epochs': 685, 'init_mode': 'glorot_uniform', 'learn_rate': 0.26555330842983849, 'momentum': 0.60107717168503627, 'neurons': 73, 'weight_constraint': 1}
****************************************************
mean mae=-4.742360 (std=1.506876) with: {'activation': 'softmax', 'batch_size': 16, 'dropout_rate': 0.51164295289333106, 'epochs': 944, 'init_mode': 'zero', 'learn_rate': 0.2335420302578034, 'momentum': 0.5677175672838054, 'neurons': 16, 'weight_constraint': 2}
mean mse=-103.031163 (std=64.306320) with: {'activation': 'softmax', 'batch_size': 16, 'dropout_rate': 0.51164295289333106, 'epochs': 944, 'init_mode': 'zero', 'learn_rate': 0.2335420302578034, 'momentum': 0.5677175672838054, 'neurons': 16, 'weight_constraint': 2}
mean r2=-0.152643 (std=0.109347) with: {'activation': 'softmax', 'batch_size': 16, 'dropout_rate': 0.51164295289333106, 'epochs': 944, 'init_mode': 'zero', 'learn_rate': 0.2335420302578034, 'momentum': 0.5677175672838054, 'neurons': 16, 'weight_constraint': 2}
mean ev=0.021848 (std=0.034110) with: {'activation': 'softmax', 'batch_size': 16, 'dropout_rate': 0.51164295289333106, 'epochs': 944, 'init_mode': 'zero', 'learn_rate': 0.2335420302578034, 'momentum': 0.5677175672838054, 'neurons': 16, 'weight_constraint': 2}
****************************************************
mean mae=-274.224602 (std=101.564262) with: {'activation': 'linear', 'batch_size': 23, 'dropout_rate': 0.25380819402768939, 'epochs': 148, 'init_mode': 'glorot_normal', 'learn_rate': 0.27920280441456591, 'momentum': 0.5631936418872987, 'neurons': 20, 'weight_constraint': 3}
mean mse=-88320.920695 (std=54730.836076) with: {'activation': 'linear', 'batch_size': 23, 'dropout_rate': 0.25380819402768939, 'epochs': 148, 'init_mode': 'glorot_normal', 'learn_rate': 0.27920280441456591, 'momentum': 0.5631936418872987, 'neurons': 20, 'weight_constraint': 3}
mean r2=-2204.057467 (std=3766.561646) with: {'activation': 'linear', 'batch_size': 23, 'dropout_rate': 0.25380819402768939, 'epochs': 148, 'init_mode': 'glorot_normal', 'learn_rate': 0.27920280441456591, 'momentum': 0.5631936418872987, 'neurons': 20, 'weight_constraint': 3}
mean ev=-80.783640 (std=159.037331) with: {'activation': 'linear', 'batch_size': 23, 'dropout_rate': 0.25380819402768939, 'epochs': 148, 'init_mode': 'glorot_normal', 'learn_rate': 0.27920280441456591, 'momentum': 0.5631936418872987, 'neurons': 20, 'weight_constraint': 3}
****************************************************
mean mae=-4.791036 (std=1.016873) with: {'activation': 'softsign', 'batch_size': 48, 'dropout_rate': 0.6265293920225703, 'epochs': 649, 'init_mode': 'lecun_uniform', 'learn_rate': 0.020317848587708433, 'momentum': 0.67772146240051134, 'neurons': 56, 'weight_constraint': 5}
mean mse=-88.798283 (std=60.014535) with: {'activation': 'softsign', 'batch_size': 48, 'dropout_rate': 0.6265293920225703, 'epochs': 649, 'init_mode': 'lecun_uniform', 'learn_rate': 0.020317848587708433, 'momentum': 0.67772146240051134, 'neurons': 56, 'weight_constraint': 5}
mean r2=-0.013503 (std=0.141457) with: {'activation': 'softsign', 'batch_size': 48, 'dropout_rate': 0.6265293920225703, 'epochs': 649, 'init_mode': 'lecun_uniform', 'learn_rate': 0.020317848587708433, 'momentum': 0.67772146240051134, 'neurons': 56, 'weight_constraint': 5}
mean ev=0.063353 (std=0.139619) with: {'activation': 'softsign', 'batch_size': 48, 'dropout_rate': 0.6265293920225703, 'epochs': 649, 'init_mode': 'lecun_uniform', 'learn_rate': 0.020317848587708433, 'momentum': 0.67772146240051134, 'neurons': 56, 'weight_constraint': 5}
****************************************************
mean mae=-5.281938 (std=1.441995) with: {'activation': 'sigmoid', 'batch_size': 14, 'dropout_rate': 0.0080033398822811821, 'epochs': 862, 'init_mode': 'uniform', 'learn_rate': 0.17923764149173699, 'momentum': 0.54231926017606069, 'neurons': 56, 'weight_constraint': 3}
mean mse=-99.945059 (std=74.092883) with: {'activation': 'sigmoid', 'batch_size': 14, 'dropout_rate': 0.0080033398822811821, 'epochs': 862, 'init_mode': 'uniform', 'learn_rate': 0.17923764149173699, 'momentum': 0.54231926017606069, 'neurons': 56, 'weight_constraint': 3}
mean r2=-0.196405 (std=0.397417) with: {'activation': 'sigmoid', 'batch_size': 14, 'dropout_rate': 0.0080033398822811821, 'epochs': 862, 'init_mode': 'uniform', 'learn_rate': 0.17923764149173699, 'momentum': 0.54231926017606069, 'neurons': 56, 'weight_constraint': 3}
mean ev=-0.023616 (std=0.361096) with: {'activation': 'sigmoid', 'batch_size': 14, 'dropout_rate': 0.0080033398822811821, 'epochs': 862, 'init_mode': 'uniform', 'learn_rate': 0.17923764149173699, 'momentum': 0.54231926017606069, 'neurons': 56, 'weight_constraint': 3}
****************************************************
mean mae=-4.803101 (std=1.041443) with: {'activation': 'softsign', 'batch_size': 16, 'dropout_rate': 0.8735825513370129, 'epochs': 549, 'init_mode': 'uniform', 'learn_rate': 0.050969478379565662, 'momentum': 0.65840395034452248, 'neurons': 64, 'weight_constraint': 3}
mean mse=-90.040635 (std=60.306363) with: {'activation': 'softsign', 'batch_size': 16, 'dropout_rate': 0.8735825513370129, 'epochs': 549, 'init_mode': 'uniform', 'learn_rate': 0.050969478379565662, 'momentum': 0.65840395034452248, 'neurons': 64, 'weight_constraint': 3}
mean r2=-0.013528 (std=0.110542) with: {'activation': 'softsign', 'batch_size': 16, 'dropout_rate': 0.8735825513370129, 'epochs': 549, 'init_mode': 'uniform', 'learn_rate': 0.050969478379565662, 'momentum': 0.65840395034452248, 'neurons': 64, 'weight_constraint': 3}
mean ev=0.073906 (std=0.083953) with: {'activation': 'softsign', 'batch_size': 16, 'dropout_rate': 0.8735825513370129, 'epochs': 549, 'init_mode': 'uniform', 'learn_rate': 0.050969478379565662, 'momentum': 0.65840395034452248, 'neurons': 64, 'weight_constraint': 3}
****************************************************
mean mae=-5.836953 (std=1.527065) with: {'activation': 'tanh', 'batch_size': 31, 'dropout_rate': 0.59285936071631429, 'epochs': 182, 'init_mode': 'uniform', 'learn_rate': 0.14350731228695568, 'momentum': 0.90729684628301621, 'neurons': 64, 'weight_constraint': 3}
mean mse=-91.937525 (std=59.473931) with: {'activation': 'tanh', 'batch_size': 31, 'dropout_rate': 0.59285936071631429, 'epochs': 182, 'init_mode': 'uniform', 'learn_rate': 0.14350731228695568, 'momentum': 0.90729684628301621, 'neurons': 64, 'weight_constraint': 3}
mean r2=-0.053612 (std=0.073008) with: {'activation': 'tanh', 'batch_size': 31, 'dropout_rate': 0.59285936071631429, 'epochs': 182, 'init_mode': 'uniform', 'learn_rate': 0.14350731228695568, 'momentum': 0.90729684628301621, 'neurons': 64, 'weight_constraint': 3}
mean ev=0.022078 (std=0.017386) with: {'activation': 'tanh', 'batch_size': 31, 'dropout_rate': 0.59285936071631429, 'epochs': 182, 'init_mode': 'uniform', 'learn_rate': 0.14350731228695568, 'momentum': 0.90729684628301621, 'neurons': 64, 'weight_constraint': 3}
****************************************************
mean mae=-4.790183 (std=1.389806) with: {'activation': 'linear', 'batch_size': 51, 'dropout_rate': 0.29823102933163681, 'epochs': 454, 'init_mode': 'zero', 'learn_rate': 0.29658835965254421, 'momentum': 0.67229747013995911, 'neurons': 18, 'weight_constraint': 3}
mean mse=-105.486274 (std=64.742946) with: {'activation': 'linear', 'batch_size': 51, 'dropout_rate': 0.29823102933163681, 'epochs': 454, 'init_mode': 'zero', 'learn_rate': 0.29658835965254421, 'momentum': 0.67229747013995911, 'neurons': 18, 'weight_constraint': 3}
mean r2=-0.175078 (std=0.088023) with: {'activation': 'linear', 'batch_size': 51, 'dropout_rate': 0.29823102933163681, 'epochs': 454, 'init_mode': 'zero', 'learn_rate': 0.29658835965254421, 'momentum': 0.67229747013995911, 'neurons': 18, 'weight_constraint': 3}
mean ev=0.000000 (std=0.000000) with: {'activation': 'linear', 'batch_size': 51, 'dropout_rate': 0.29823102933163681, 'epochs': 454, 'init_mode': 'zero', 'learn_rate': 0.29658835965254421, 'momentum': 0.67229747013995911, 'neurons': 18, 'weight_constraint': 3}
****************************************************
mean mae=-4.732244 (std=1.161733) with: {'activation': 'softplus', 'batch_size': 86, 'dropout_rate': 0.013353422291246022, 'epochs': 793, 'init_mode': 'he_normal', 'learn_rate': 0.23330383572388649, 'momentum': 0.97494103856887504, 'neurons': 88, 'weight_constraint': 1}
mean mse=-92.657780 (std=64.699134) with: {'activation': 'softplus', 'batch_size': 86, 'dropout_rate': 0.013353422291246022, 'epochs': 793, 'init_mode': 'he_normal', 'learn_rate': 0.23330383572388649, 'momentum': 0.97494103856887504, 'neurons': 88, 'weight_constraint': 1}
mean r2=-0.035295 (std=0.123802) with: {'activation': 'softplus', 'batch_size': 86, 'dropout_rate': 0.013353422291246022, 'epochs': 793, 'init_mode': 'he_normal', 'learn_rate': 0.23330383572388649, 'momentum': 0.97494103856887504, 'neurons': 88, 'weight_constraint': 1}
mean ev=0.083994 (std=0.054290) with: {'activation': 'softplus', 'batch_size': 86, 'dropout_rate': 0.013353422291246022, 'epochs': 793, 'init_mode': 'he_normal', 'learn_rate': 0.23330383572388649, 'momentum': 0.97494103856887504, 'neurons': 88, 'weight_constraint': 1}
****************************************************
mean mae=-4.985893 (std=1.272168) with: {'activation': 'linear', 'batch_size': 98, 'dropout_rate': 0.24660147822309098, 'epochs': 179, 'init_mode': 'normal', 'learn_rate': 0.18960946411415186, 'momentum': 0.54773512673243563, 'neurons': 74, 'weight_constraint': 1}
mean mse=-96.258214 (std=66.026783) with: {'activation': 'linear', 'batch_size': 98, 'dropout_rate': 0.24660147822309098, 'epochs': 179, 'init_mode': 'normal', 'learn_rate': 0.18960946411415186, 'momentum': 0.54773512673243563, 'neurons': 74, 'weight_constraint': 1}
mean r2=-0.065599 (std=0.120465) with: {'activation': 'linear', 'batch_size': 98, 'dropout_rate': 0.24660147822309098, 'epochs': 179, 'init_mode': 'normal', 'learn_rate': 0.18960946411415186, 'momentum': 0.54773512673243563, 'neurons': 74, 'weight_constraint': 1}
mean ev=0.074380 (std=0.072298) with: {'activation': 'linear', 'batch_size': 98, 'dropout_rate': 0.24660147822309098, 'epochs': 179, 'init_mode': 'normal', 'learn_rate': 0.18960946411415186, 'momentum': 0.54773512673243563, 'neurons': 74, 'weight_constraint': 1}
****************************************************
mean mae=-9.334811 (std=5.241151) with: {'activation': 'linear', 'batch_size': 78, 'dropout_rate': 0.099891736973852993, 'epochs': 224, 'init_mode': 'uniform', 'learn_rate': 0.19488140023297487, 'momentum': 0.99479112462878216, 'neurons': 36, 'weight_constraint': 3}
mean mse=-173.907880 (std=150.261740) with: {'activation': 'linear', 'batch_size': 78, 'dropout_rate': 0.099891736973852993, 'epochs': 224, 'init_mode': 'uniform', 'learn_rate': 0.19488140023297487, 'momentum': 0.99479112462878216, 'neurons': 36, 'weight_constraint': 3}
mean r2=-0.921327 (std=1.139161) with: {'activation': 'linear', 'batch_size': 78, 'dropout_rate': 0.099891736973852993, 'epochs': 224, 'init_mode': 'uniform', 'learn_rate': 0.19488140023297487, 'momentum': 0.99479112462878216, 'neurons': 36, 'weight_constraint': 3}
mean ev=-0.028579 (std=0.093430) with: {'activation': 'linear', 'batch_size': 78, 'dropout_rate': 0.099891736973852993, 'epochs': 224, 'init_mode': 'uniform', 'learn_rate': 0.19488140023297487, 'momentum': 0.99479112462878216, 'neurons': 36, 'weight_constraint': 3}
****************************************************
mean mae=-4.586782 (std=1.071282) with: {'activation': 'hard_sigmoid', 'batch_size': 84, 'dropout_rate': 0.19887622493848478, 'epochs': 517, 'init_mode': 'lecun_uniform', 'learn_rate': 0.015443960913943624, 'momentum': 0.88224520126505146, 'neurons': 19, 'weight_constraint': 3}
mean mse=-89.316618 (std=61.954070) with: {'activation': 'hard_sigmoid', 'batch_size': 84, 'dropout_rate': 0.19887622493848478, 'epochs': 517, 'init_mode': 'lecun_uniform', 'learn_rate': 0.015443960913943624, 'momentum': 0.88224520126505146, 'neurons': 19, 'weight_constraint': 3}
mean r2=-0.006015 (std=0.129018) with: {'activation': 'hard_sigmoid', 'batch_size': 84, 'dropout_rate': 0.19887622493848478, 'epochs': 517, 'init_mode': 'lecun_uniform', 'learn_rate': 0.015443960913943624, 'momentum': 0.88224520126505146, 'neurons': 19, 'weight_constraint': 3}
mean ev=0.069604 (std=0.120863) with: {'activation': 'hard_sigmoid', 'batch_size': 84, 'dropout_rate': 0.19887622493848478, 'epochs': 517, 'init_mode': 'lecun_uniform', 'learn_rate': 0.015443960913943624, 'momentum': 0.88224520126505146, 'neurons': 19, 'weight_constraint': 3}
****************************************************
mean mae=-4.752508 (std=1.327455) with: {'activation': 'relu', 'batch_size': 81, 'dropout_rate': 0.33788252951266706, 'epochs': 816, 'init_mode': 'uniform', 'learn_rate': 0.046700968938366852, 'momentum': 0.98694985084167675, 'neurons': 71, 'weight_constraint': 2}
mean mse=-99.994042 (std=62.526767) with: {'activation': 'relu', 'batch_size': 81, 'dropout_rate': 0.33788252951266706, 'epochs': 816, 'init_mode': 'uniform', 'learn_rate': 0.046700968938366852, 'momentum': 0.98694985084167675, 'neurons': 71, 'weight_constraint': 2}
mean r2=-0.111907 (std=0.087677) with: {'activation': 'relu', 'batch_size': 81, 'dropout_rate': 0.33788252951266706, 'epochs': 816, 'init_mode': 'uniform', 'learn_rate': 0.046700968938366852, 'momentum': 0.98694985084167675, 'neurons': 71, 'weight_constraint': 2}
mean ev=0.029087 (std=0.017663) with: {'activation': 'relu', 'batch_size': 81, 'dropout_rate': 0.33788252951266706, 'epochs': 816, 'init_mode': 'uniform', 'learn_rate': 0.046700968938366852, 'momentum': 0.98694985084167675, 'neurons': 71, 'weight_constraint': 2}
****************************************************
mean mae=-36.932806 (std=40.106821) with: {'activation': 'tanh', 'batch_size': 4, 'dropout_rate': 0.4244851389775528, 'epochs': 166, 'init_mode': 'he_normal', 'learn_rate': 0.2837934369010181, 'momentum': 0.99963683107212142, 'neurons': 6, 'weight_constraint': 2}
mean mse=-3044.897278 (std=6088.564447) with: {'activation': 'tanh', 'batch_size': 4, 'dropout_rate': 0.4244851389775528, 'epochs': 166, 'init_mode': 'he_normal', 'learn_rate': 0.2837934369010181, 'momentum': 0.99963683107212142, 'neurons': 6, 'weight_constraint': 2}
mean r2=-42.888295 (std=66.346277) with: {'activation': 'tanh', 'batch_size': 4, 'dropout_rate': 0.4244851389775528, 'epochs': 166, 'init_mode': 'he_normal', 'learn_rate': 0.2837934369010181, 'momentum': 0.99963683107212142, 'neurons': 6, 'weight_constraint': 2}
mean ev=0.000000 (std=0.000000) with: {'activation': 'tanh', 'batch_size': 4, 'dropout_rate': 0.4244851389775528, 'epochs': 166, 'init_mode': 'he_normal', 'learn_rate': 0.2837934369010181, 'momentum': 0.99963683107212142, 'neurons': 6, 'weight_constraint': 2}
****************************************************
mean mae=-4.960725 (std=1.047862) with: {'activation': 'sigmoid', 'batch_size': 45, 'dropout_rate': 0.14155841225261689, 'epochs': 776, 'init_mode': 'zero', 'learn_rate': 0.22393282846724419, 'momentum': 0.80829403702023506, 'neurons': 49, 'weight_constraint': 3}
mean mse=-90.241214 (std=58.342132) with: {'activation': 'sigmoid', 'batch_size': 45, 'dropout_rate': 0.14155841225261689, 'epochs': 776, 'init_mode': 'zero', 'learn_rate': 0.22393282846724419, 'momentum': 0.80829403702023506, 'neurons': 49, 'weight_constraint': 3}
mean r2=-0.032821 (std=0.110416) with: {'activation': 'sigmoid', 'batch_size': 45, 'dropout_rate': 0.14155841225261689, 'epochs': 776, 'init_mode': 'zero', 'learn_rate': 0.22393282846724419, 'momentum': 0.80829403702023506, 'neurons': 49, 'weight_constraint': 3}
mean ev=0.051423 (std=0.105345) with: {'activation': 'sigmoid', 'batch_size': 45, 'dropout_rate': 0.14155841225261689, 'epochs': 776, 'init_mode': 'zero', 'learn_rate': 0.22393282846724419, 'momentum': 0.80829403702023506, 'neurons': 49, 'weight_constraint': 3}
****************************************************
mean mae=-4.879349 (std=0.983829) with: {'activation': 'softsign', 'batch_size': 30, 'dropout_rate': 0.50743198157866221, 'epochs': 413, 'init_mode': 'glorot_normal', 'learn_rate': 0.07453154688244254, 'momentum': 0.59017459009847073, 'neurons': 46, 'weight_constraint': 4}
mean mse=-87.312444 (std=60.899147) with: {'activation': 'softsign', 'batch_size': 30, 'dropout_rate': 0.50743198157866221, 'epochs': 413, 'init_mode': 'glorot_normal', 'learn_rate': 0.07453154688244254, 'momentum': 0.59017459009847073, 'neurons': 46, 'weight_constraint': 4}
mean r2=-0.009006 (std=0.209977) with: {'activation': 'softsign', 'batch_size': 30, 'dropout_rate': 0.50743198157866221, 'epochs': 413, 'init_mode': 'glorot_normal', 'learn_rate': 0.07453154688244254, 'momentum': 0.59017459009847073, 'neurons': 46, 'weight_constraint': 4}
mean ev=0.048494 (std=0.206602) with: {'activation': 'softsign', 'batch_size': 30, 'dropout_rate': 0.50743198157866221, 'epochs': 413, 'init_mode': 'glorot_normal', 'learn_rate': 0.07453154688244254, 'momentum': 0.59017459009847073, 'neurons': 46, 'weight_constraint': 4}
****************************************************
mean mae=-4.605956 (std=1.221899) with: {'activation': 'hard_sigmoid', 'batch_size': 93, 'dropout_rate': 0.85875240555203525, 'epochs': 810, 'init_mode': 'lecun_uniform', 'learn_rate': 0.079538882743657474, 'momentum': 0.69851635343367602, 'neurons': 33, 'weight_constraint': 2}
mean mse=-94.770089 (std=62.960279) with: {'activation': 'hard_sigmoid', 'batch_size': 93, 'dropout_rate': 0.85875240555203525, 'epochs': 810, 'init_mode': 'lecun_uniform', 'learn_rate': 0.079538882743657474, 'momentum': 0.69851635343367602, 'neurons': 33, 'weight_constraint': 2}
mean r2=-0.050025 (std=0.086417) with: {'activation': 'hard_sigmoid', 'batch_size': 93, 'dropout_rate': 0.85875240555203525, 'epochs': 810, 'init_mode': 'lecun_uniform', 'learn_rate': 0.079538882743657474, 'momentum': 0.69851635343367602, 'neurons': 33, 'weight_constraint': 2}
mean ev=0.069921 (std=0.049883) with: {'activation': 'hard_sigmoid', 'batch_size': 93, 'dropout_rate': 0.85875240555203525, 'epochs': 810, 'init_mode': 'lecun_uniform', 'learn_rate': 0.079538882743657474, 'momentum': 0.69851635343367602, 'neurons': 33, 'weight_constraint': 2}
****************************************************
mean mae=-4.557460 (std=1.169410) with: {'activation': 'sigmoid', 'batch_size': 50, 'dropout_rate': 0.54560232709800582, 'epochs': 180, 'init_mode': 'glorot_uniform', 'learn_rate': 0.089907868598023896, 'momentum': 0.60767891173235355, 'neurons': 65, 'weight_constraint': 3}
mean mse=-91.323505 (std=62.049451) with: {'activation': 'sigmoid', 'batch_size': 50, 'dropout_rate': 0.54560232709800582, 'epochs': 180, 'init_mode': 'glorot_uniform', 'learn_rate': 0.089907868598023896, 'momentum': 0.60767891173235355, 'neurons': 65, 'weight_constraint': 3}
mean r2=-0.014259 (std=0.106371) with: {'activation': 'sigmoid', 'batch_size': 50, 'dropout_rate': 0.54560232709800582, 'epochs': 180, 'init_mode': 'glorot_uniform', 'learn_rate': 0.089907868598023896, 'momentum': 0.60767891173235355, 'neurons': 65, 'weight_constraint': 3}
mean ev=0.076291 (std=0.075855) with: {'activation': 'sigmoid', 'batch_size': 50, 'dropout_rate': 0.54560232709800582, 'epochs': 180, 'init_mode': 'glorot_uniform', 'learn_rate': 0.089907868598023896, 'momentum': 0.60767891173235355, 'neurons': 65, 'weight_constraint': 3}
****************************************************
mean mae=-4.768170 (std=1.433274) with: {'activation': 'softmax', 'batch_size': 91, 'dropout_rate': 0.29110749556800075, 'epochs': 44, 'init_mode': 'zero', 'learn_rate': 0.28909139914600196, 'momentum': 0.83921491463304854, 'neurons': 72, 'weight_constraint': 4}
mean mse=-106.036248 (std=64.924087) with: {'activation': 'softmax', 'batch_size': 91, 'dropout_rate': 0.29110749556800075, 'epochs': 44, 'init_mode': 'zero', 'learn_rate': 0.28909139914600196, 'momentum': 0.83921491463304854, 'neurons': 72, 'weight_constraint': 4}
mean r2=-0.185907 (std=0.077642) with: {'activation': 'softmax', 'batch_size': 91, 'dropout_rate': 0.29110749556800075, 'epochs': 44, 'init_mode': 'zero', 'learn_rate': 0.28909139914600196, 'momentum': 0.83921491463304854, 'neurons': 72, 'weight_constraint': 4}
mean ev=0.000022 (std=0.000019) with: {'activation': 'softmax', 'batch_size': 91, 'dropout_rate': 0.29110749556800075, 'epochs': 44, 'init_mode': 'zero', 'learn_rate': 0.28909139914600196, 'momentum': 0.83921491463304854, 'neurons': 72, 'weight_constraint': 4}
****************************************************
mean mae=-4.654920 (std=1.029826) with: {'activation': 'softplus', 'batch_size': 94, 'dropout_rate': 0.17781320147911961, 'epochs': 180, 'init_mode': 'glorot_normal', 'learn_rate': 0.052421363838369851, 'momentum': 0.77242912895077076, 'neurons': 83, 'weight_constraint': 3}
mean mse=-88.854087 (std=62.709673) with: {'activation': 'softplus', 'batch_size': 94, 'dropout_rate': 0.17781320147911961, 'epochs': 180, 'init_mode': 'glorot_normal', 'learn_rate': 0.052421363838369851, 'momentum': 0.77242912895077076, 'neurons': 83, 'weight_constraint': 3}
mean r2=0.000880 (std=0.134925) with: {'activation': 'softplus', 'batch_size': 94, 'dropout_rate': 0.17781320147911961, 'epochs': 180, 'init_mode': 'glorot_normal', 'learn_rate': 0.052421363838369851, 'momentum': 0.77242912895077076, 'neurons': 83, 'weight_constraint': 3}
mean ev=0.076551 (std=0.119804) with: {'activation': 'softplus', 'batch_size': 94, 'dropout_rate': 0.17781320147911961, 'epochs': 180, 'init_mode': 'glorot_normal', 'learn_rate': 0.052421363838369851, 'momentum': 0.77242912895077076, 'neurons': 83, 'weight_constraint': 3}
****************************************************
mean mae=-4.607764 (std=1.412750) with: {'activation': 'sigmoid', 'batch_size': 98, 'dropout_rate': 0.55044974667697832, 'epochs': 698, 'init_mode': 'he_uniform', 'learn_rate': 0.10251064259819068, 'momentum': 0.77217793906534316, 'neurons': 3, 'weight_constraint': 3}
mean mse=-97.782360 (std=66.327632) with: {'activation': 'sigmoid', 'batch_size': 98, 'dropout_rate': 0.55044974667697832, 'epochs': 698, 'init_mode': 'he_uniform', 'learn_rate': 0.10251064259819068, 'momentum': 0.77217793906534316, 'neurons': 3, 'weight_constraint': 3}
mean r2=-0.073827 (std=0.111712) with: {'activation': 'sigmoid', 'batch_size': 98, 'dropout_rate': 0.55044974667697832, 'epochs': 698, 'init_mode': 'he_uniform', 'learn_rate': 0.10251064259819068, 'momentum': 0.77217793906534316, 'neurons': 3, 'weight_constraint': 3}
mean ev=0.061584 (std=0.045901) with: {'activation': 'sigmoid', 'batch_size': 98, 'dropout_rate': 0.55044974667697832, 'epochs': 698, 'init_mode': 'he_uniform', 'learn_rate': 0.10251064259819068, 'momentum': 0.77217793906534316, 'neurons': 3, 'weight_constraint': 3}
****************************************************
mean mae=-4.629156 (std=1.253654) with: {'activation': 'softsign', 'batch_size': 91, 'dropout_rate': 0.41541216893007871, 'epochs': 588, 'init_mode': 'he_uniform', 'learn_rate': 0.18597989479510729, 'momentum': 0.99857966296520817, 'neurons': 4, 'weight_constraint': 2}
mean mse=-96.231308 (std=62.203225) with: {'activation': 'softsign', 'batch_size': 91, 'dropout_rate': 0.41541216893007871, 'epochs': 588, 'init_mode': 'he_uniform', 'learn_rate': 0.18597989479510729, 'momentum': 0.99857966296520817, 'neurons': 4, 'weight_constraint': 2}
mean r2=-0.059282 (std=0.090093) with: {'activation': 'softsign', 'batch_size': 91, 'dropout_rate': 0.41541216893007871, 'epochs': 588, 'init_mode': 'he_uniform', 'learn_rate': 0.18597989479510729, 'momentum': 0.99857966296520817, 'neurons': 4, 'weight_constraint': 2}
mean ev=0.063236 (std=0.030202) with: {'activation': 'softsign', 'batch_size': 91, 'dropout_rate': 0.41541216893007871, 'epochs': 588, 'init_mode': 'he_uniform', 'learn_rate': 0.18597989479510729, 'momentum': 0.99857966296520817, 'neurons': 4, 'weight_constraint': 2}
****************************************************
mean mae=-4.788571 (std=1.419959) with: {'activation': 'softplus', 'batch_size': 9, 'dropout_rate': 0.5174725102399057, 'epochs': 760, 'init_mode': 'glorot_normal', 'learn_rate': 0.11214258535865122, 'momentum': 0.85248089012913331, 'neurons': 32, 'weight_constraint': 4}
mean mse=-104.348933 (std=64.386418) with: {'activation': 'softplus', 'batch_size': 9, 'dropout_rate': 0.5174725102399057, 'epochs': 760, 'init_mode': 'glorot_normal', 'learn_rate': 0.11214258535865122, 'momentum': 0.85248089012913331, 'neurons': 32, 'weight_constraint': 4}
mean r2=-0.159927 (std=0.104668) with: {'activation': 'softplus', 'batch_size': 9, 'dropout_rate': 0.5174725102399057, 'epochs': 760, 'init_mode': 'glorot_normal', 'learn_rate': 0.11214258535865122, 'momentum': 0.85248089012913331, 'neurons': 32, 'weight_constraint': 4}
mean ev=0.018564 (std=0.015187) with: {'activation': 'softplus', 'batch_size': 9, 'dropout_rate': 0.5174725102399057, 'epochs': 760, 'init_mode': 'glorot_normal', 'learn_rate': 0.11214258535865122, 'momentum': 0.85248089012913331, 'neurons': 32, 'weight_constraint': 4}
****************************************************
mean mae=-4.763571 (std=1.011135) with: {'activation': 'hard_sigmoid', 'batch_size': 93, 'dropout_rate': 0.26985632062183362, 'epochs': 984, 'init_mode': 'glorot_normal', 'learn_rate': 0.033001132549712868, 'momentum': 0.75468128592897799, 'neurons': 63, 'weight_constraint': 2}
mean mse=-90.502976 (std=64.199339) with: {'activation': 'hard_sigmoid', 'batch_size': 93, 'dropout_rate': 0.26985632062183362, 'epochs': 984, 'init_mode': 'glorot_normal', 'learn_rate': 0.033001132549712868, 'momentum': 0.75468128592897799, 'neurons': 63, 'weight_constraint': 2}
mean r2=-0.020113 (std=0.146636) with: {'activation': 'hard_sigmoid', 'batch_size': 93, 'dropout_rate': 0.26985632062183362, 'epochs': 984, 'init_mode': 'glorot_normal', 'learn_rate': 0.033001132549712868, 'momentum': 0.75468128592897799, 'neurons': 63, 'weight_constraint': 2}
mean ev=0.058331 (std=0.143631) with: {'activation': 'hard_sigmoid', 'batch_size': 93, 'dropout_rate': 0.26985632062183362, 'epochs': 984, 'init_mode': 'glorot_normal', 'learn_rate': 0.033001132549712868, 'momentum': 0.75468128592897799, 'neurons': 63, 'weight_constraint': 2}
****************************************************
mean mae=-4.727579 (std=1.358246) with: {'activation': 'softmax', 'batch_size': 26, 'dropout_rate': 0.1550112870052518, 'epochs': 808, 'init_mode': 'normal', 'learn_rate': 0.23109366176854307, 'momentum': 0.61959927052116981, 'neurons': 82, 'weight_constraint': 2}
mean mse=-92.141991 (std=66.196180) with: {'activation': 'softmax', 'batch_size': 26, 'dropout_rate': 0.1550112870052518, 'epochs': 808, 'init_mode': 'normal', 'learn_rate': 0.23109366176854307, 'momentum': 0.61959927052116981, 'neurons': 82, 'weight_constraint': 2}
mean r2=-0.015539 (std=0.145386) with: {'activation': 'softmax', 'batch_size': 26, 'dropout_rate': 0.1550112870052518, 'epochs': 808, 'init_mode': 'normal', 'learn_rate': 0.23109366176854307, 'momentum': 0.61959927052116981, 'neurons': 82, 'weight_constraint': 2}
mean ev=0.084895 (std=0.079279) with: {'activation': 'softmax', 'batch_size': 26, 'dropout_rate': 0.1550112870052518, 'epochs': 808, 'init_mode': 'normal', 'learn_rate': 0.23109366176854307, 'momentum': 0.61959927052116981, 'neurons': 82, 'weight_constraint': 2}
****************************************************
mean mae=-4.754137 (std=1.101244) with: {'activation': 'softsign', 'batch_size': 31, 'dropout_rate': 0.0030429040489775489, 'epochs': 125, 'init_mode': 'glorot_normal', 'learn_rate': 0.22009865745689125, 'momentum': 0.58791139973902518, 'neurons': 74, 'weight_constraint': 1}
mean mse=-91.532304 (std=58.466031) with: {'activation': 'softsign', 'batch_size': 31, 'dropout_rate': 0.0030429040489775489, 'epochs': 125, 'init_mode': 'glorot_normal', 'learn_rate': 0.22009865745689125, 'momentum': 0.58791139973902518, 'neurons': 74, 'weight_constraint': 1}
mean r2=-0.061442 (std=0.123324) with: {'activation': 'softsign', 'batch_size': 31, 'dropout_rate': 0.0030429040489775489, 'epochs': 125, 'init_mode': 'glorot_normal', 'learn_rate': 0.22009865745689125, 'momentum': 0.58791139973902518, 'neurons': 74, 'weight_constraint': 1}
mean ev=0.059649 (std=0.115977) with: {'activation': 'softsign', 'batch_size': 31, 'dropout_rate': 0.0030429040489775489, 'epochs': 125, 'init_mode': 'glorot_normal', 'learn_rate': 0.22009865745689125, 'momentum': 0.58791139973902518, 'neurons': 74, 'weight_constraint': 1}
****************************************************
mean mae=-5.024390 (std=0.950806) with: {'activation': 'softsign', 'batch_size': 77, 'dropout_rate': 0.66591081062633684, 'epochs': 865, 'init_mode': 'he_normal', 'learn_rate': 0.20982171431287142, 'momentum': 0.75411569393679967, 'neurons': 74, 'weight_constraint': 5}
mean mse=-86.797888 (std=57.848411) with: {'activation': 'softsign', 'batch_size': 77, 'dropout_rate': 0.66591081062633684, 'epochs': 865, 'init_mode': 'he_normal', 'learn_rate': 0.20982171431287142, 'momentum': 0.75411569393679967, 'neurons': 74, 'weight_constraint': 5}
mean r2=-0.032122 (std=0.263131) with: {'activation': 'softsign', 'batch_size': 77, 'dropout_rate': 0.66591081062633684, 'epochs': 865, 'init_mode': 'he_normal', 'learn_rate': 0.20982171431287142, 'momentum': 0.75411569393679967, 'neurons': 74, 'weight_constraint': 5}
mean ev=0.039239 (std=0.222221) with: {'activation': 'softsign', 'batch_size': 77, 'dropout_rate': 0.66591081062633684, 'epochs': 865, 'init_mode': 'he_normal', 'learn_rate': 0.20982171431287142, 'momentum': 0.75411569393679967, 'neurons': 74, 'weight_constraint': 5}
****************************************************
mean mae=-4.576235 (std=1.389139) with: {'activation': 'softmax', 'batch_size': 62, 'dropout_rate': 0.42139424716468832, 'epochs': 798, 'init_mode': 'normal', 'learn_rate': 0.16660605938503453, 'momentum': 0.68636897155550058, 'neurons': 80, 'weight_constraint': 3}
mean mse=-94.801340 (std=64.852676) with: {'activation': 'softmax', 'batch_size': 62, 'dropout_rate': 0.42139424716468832, 'epochs': 798, 'init_mode': 'normal', 'learn_rate': 0.16660605938503453, 'momentum': 0.68636897155550058, 'neurons': 80, 'weight_constraint': 3}
mean r2=-0.043618 (std=0.138402) with: {'activation': 'softmax', 'batch_size': 62, 'dropout_rate': 0.42139424716468832, 'epochs': 798, 'init_mode': 'normal', 'learn_rate': 0.16660605938503453, 'momentum': 0.68636897155550058, 'neurons': 80, 'weight_constraint': 3}
mean ev=0.073363 (std=0.065645) with: {'activation': 'softmax', 'batch_size': 62, 'dropout_rate': 0.42139424716468832, 'epochs': 798, 'init_mode': 'normal', 'learn_rate': 0.16660605938503453, 'momentum': 0.68636897155550058, 'neurons': 80, 'weight_constraint': 3}
****************************************************
mean mae=-4.649704 (std=1.291385) with: {'activation': 'softmax', 'batch_size': 96, 'dropout_rate': 0.23032707266015939, 'epochs': 607, 'init_mode': 'he_normal', 'learn_rate': 0.14693513935214858, 'momentum': 0.83478198998972863, 'neurons': 90, 'weight_constraint': 2}
mean mse=-97.177935 (std=59.676102) with: {'activation': 'softmax', 'batch_size': 96, 'dropout_rate': 0.23032707266015939, 'epochs': 607, 'init_mode': 'he_normal', 'learn_rate': 0.14693513935214858, 'momentum': 0.83478198998972863, 'neurons': 90, 'weight_constraint': 2}
mean r2=-0.102623 (std=0.092876) with: {'activation': 'softmax', 'batch_size': 96, 'dropout_rate': 0.23032707266015939, 'epochs': 607, 'init_mode': 'he_normal', 'learn_rate': 0.14693513935214858, 'momentum': 0.83478198998972863, 'neurons': 90, 'weight_constraint': 2}
mean ev=0.056812 (std=0.035254) with: {'activation': 'softmax', 'batch_size': 96, 'dropout_rate': 0.23032707266015939, 'epochs': 607, 'init_mode': 'he_normal', 'learn_rate': 0.14693513935214858, 'momentum': 0.83478198998972863, 'neurons': 90, 'weight_constraint': 2}
****************************************************
mean mae=-4.694135 (std=1.084010) with: {'activation': 'sigmoid', 'batch_size': 97, 'dropout_rate': 0.10684084357728561, 'epochs': 179, 'init_mode': 'uniform', 'learn_rate': 0.095682881559070926, 'momentum': 0.79243444741463431, 'neurons': 40, 'weight_constraint': 2}
mean mse=-92.222339 (std=64.367229) with: {'activation': 'sigmoid', 'batch_size': 97, 'dropout_rate': 0.10684084357728561, 'epochs': 179, 'init_mode': 'uniform', 'learn_rate': 0.095682881559070926, 'momentum': 0.79243444741463431, 'neurons': 40, 'weight_constraint': 2}
mean r2=-0.023001 (std=0.091935) with: {'activation': 'sigmoid', 'batch_size': 97, 'dropout_rate': 0.10684084357728561, 'epochs': 179, 'init_mode': 'uniform', 'learn_rate': 0.095682881559070926, 'momentum': 0.79243444741463431, 'neurons': 40, 'weight_constraint': 2}
mean ev=0.072843 (std=0.092898) with: {'activation': 'sigmoid', 'batch_size': 97, 'dropout_rate': 0.10684084357728561, 'epochs': 179, 'init_mode': 'uniform', 'learn_rate': 0.095682881559070926, 'momentum': 0.79243444741463431, 'neurons': 40, 'weight_constraint': 2}
****************************************************
mean mae=-4.714089 (std=1.415432) with: {'activation': 'softmax', 'batch_size': 67, 'dropout_rate': 0.91585373590311703, 'epochs': 502, 'init_mode': 'glorot_normal', 'learn_rate': 0.13798266192616035, 'momentum': 0.65786707755411811, 'neurons': 60, 'weight_constraint': 2}
mean mse=-103.513329 (std=65.026284) with: {'activation': 'softmax', 'batch_size': 67, 'dropout_rate': 0.91585373590311703, 'epochs': 502, 'init_mode': 'glorot_normal', 'learn_rate': 0.13798266192616035, 'momentum': 0.65786707755411811, 'neurons': 60, 'weight_constraint': 2}
mean r2=-0.147926 (std=0.085462) with: {'activation': 'softmax', 'batch_size': 67, 'dropout_rate': 0.91585373590311703, 'epochs': 502, 'init_mode': 'glorot_normal', 'learn_rate': 0.13798266192616035, 'momentum': 0.65786707755411811, 'neurons': 60, 'weight_constraint': 2}
mean ev=0.023685 (std=0.012905) with: {'activation': 'softmax', 'batch_size': 67, 'dropout_rate': 0.91585373590311703, 'epochs': 502, 'init_mode': 'glorot_normal', 'learn_rate': 0.13798266192616035, 'momentum': 0.65786707755411811, 'neurons': 60, 'weight_constraint': 2}
****************************************************
mean mae=-4.650700 (std=1.394904) with: {'activation': 'hard_sigmoid', 'batch_size': 21, 'dropout_rate': 0.77671621202086549, 'epochs': 525, 'init_mode': 'lecun_uniform', 'learn_rate': 0.049136262299011163, 'momentum': 0.71377917759628695, 'neurons': 5, 'weight_constraint': 3}
mean mse=-102.015080 (std=64.759831) with: {'activation': 'hard_sigmoid', 'batch_size': 21, 'dropout_rate': 0.77671621202086549, 'epochs': 525, 'init_mode': 'lecun_uniform', 'learn_rate': 0.049136262299011163, 'momentum': 0.71377917759628695, 'neurons': 5, 'weight_constraint': 3}
mean r2=-0.134286 (std=0.079591) with: {'activation': 'hard_sigmoid', 'batch_size': 21, 'dropout_rate': 0.77671621202086549, 'epochs': 525, 'init_mode': 'lecun_uniform', 'learn_rate': 0.049136262299011163, 'momentum': 0.71377917759628695, 'neurons': 5, 'weight_constraint': 3}
mean ev=0.033275 (std=0.024747) with: {'activation': 'hard_sigmoid', 'batch_size': 21, 'dropout_rate': 0.77671621202086549, 'epochs': 525, 'init_mode': 'lecun_uniform', 'learn_rate': 0.049136262299011163, 'momentum': 0.71377917759628695, 'neurons': 5, 'weight_constraint': 3}
****************************************************
mean mae=-4.757889 (std=1.446406) with: {'activation': 'linear', 'batch_size': 52, 'dropout_rate': 0.45377851619005349, 'epochs': 559, 'init_mode': 'zero', 'learn_rate': 0.27004396580057805, 'momentum': 0.57571288961460376, 'neurons': 8, 'weight_constraint': 2}
mean mse=-105.725433 (std=65.548850) with: {'activation': 'linear', 'batch_size': 52, 'dropout_rate': 0.45377851619005349, 'epochs': 559, 'init_mode': 'zero', 'learn_rate': 0.27004396580057805, 'momentum': 0.57571288961460376, 'neurons': 8, 'weight_constraint': 2}
mean r2=-0.181855 (std=0.072802) with: {'activation': 'linear', 'batch_size': 52, 'dropout_rate': 0.45377851619005349, 'epochs': 559, 'init_mode': 'zero', 'learn_rate': 0.27004396580057805, 'momentum': 0.57571288961460376, 'neurons': 8, 'weight_constraint': 2}
mean ev=-0.000000 (std=0.000000) with: {'activation': 'linear', 'batch_size': 52, 'dropout_rate': 0.45377851619005349, 'epochs': 559, 'init_mode': 'zero', 'learn_rate': 0.27004396580057805, 'momentum': 0.57571288961460376, 'neurons': 8, 'weight_constraint': 2}
****************************************************
