----------------------------------------------------------
----------------------------------------------------------
Best: -4.507470 using {'activation': 'hard_sigmoid', 'batch_size': 93, 'dropout_rate': 0.50187459224873876, 'epochs': 951, 'init_mode': 'uniform', 'learn_rate': 0.040148858787782973, 'momentum': 0.57105554272726922, 'neurons': 23, 'weight_constraint': 5}
----------------------------------------------------------
mean mae=-4.507470 (std=1.108912) with: {'activation': 'hard_sigmoid', 'batch_size': 93, 'dropout_rate': 0.50187459224873876, 'epochs': 951, 'init_mode': 'uniform', 'learn_rate': 0.040148858787782973, 'momentum': 0.57105554272726922, 'neurons': 23, 'weight_constraint': 5}
mean mse=-89.939855 (std=62.066794) with: {'activation': 'hard_sigmoid', 'batch_size': 93, 'dropout_rate': 0.50187459224873876, 'epochs': 951, 'init_mode': 'uniform', 'learn_rate': 0.040148858787782973, 'momentum': 0.57105554272726922, 'neurons': 23, 'weight_constraint': 5}
mean r2=-0.006600 (std=0.108703) with: {'activation': 'hard_sigmoid', 'batch_size': 93, 'dropout_rate': 0.50187459224873876, 'epochs': 951, 'init_mode': 'uniform', 'learn_rate': 0.040148858787782973, 'momentum': 0.57105554272726922, 'neurons': 23, 'weight_constraint': 5}
mean ev=0.077020 (std=0.107786) with: {'activation': 'hard_sigmoid', 'batch_size': 93, 'dropout_rate': 0.50187459224873876, 'epochs': 951, 'init_mode': 'uniform', 'learn_rate': 0.040148858787782973, 'momentum': 0.57105554272726922, 'neurons': 23, 'weight_constraint': 5}
****************************************************
mean mae=-4.750454 (std=1.436297) with: {'activation': 'relu', 'batch_size': 41, 'dropout_rate': 0.24810116851355912, 'epochs': 761, 'init_mode': 'glorot_uniform', 'learn_rate': 0.10364959211512002, 'momentum': 0.58338817326616077, 'neurons': 1, 'weight_constraint': 5}
mean mse=-105.611186 (std=65.199897) with: {'activation': 'relu', 'batch_size': 41, 'dropout_rate': 0.24810116851355912, 'epochs': 761, 'init_mode': 'glorot_uniform', 'learn_rate': 0.10364959211512002, 'momentum': 0.58338817326616077, 'neurons': 1, 'weight_constraint': 5}
mean r2=-0.180845 (std=0.072859) with: {'activation': 'relu', 'batch_size': 41, 'dropout_rate': 0.24810116851355912, 'epochs': 761, 'init_mode': 'glorot_uniform', 'learn_rate': 0.10364959211512002, 'momentum': 0.58338817326616077, 'neurons': 1, 'weight_constraint': 5}
mean ev=-0.000000 (std=0.000000) with: {'activation': 'relu', 'batch_size': 41, 'dropout_rate': 0.24810116851355912, 'epochs': 761, 'init_mode': 'glorot_uniform', 'learn_rate': 0.10364959211512002, 'momentum': 0.58338817326616077, 'neurons': 1, 'weight_constraint': 5}
****************************************************
mean mae=-4.872287 (std=1.318923) with: {'activation': 'hard_sigmoid', 'batch_size': 60, 'dropout_rate': 0.038748375932319827, 'epochs': 953, 'init_mode': 'glorot_uniform', 'learn_rate': 0.17182794477082278, 'momentum': 0.94900355911257472, 'neurons': 13, 'weight_constraint': 3}
mean mse=-106.675282 (std=66.682322) with: {'activation': 'hard_sigmoid', 'batch_size': 60, 'dropout_rate': 0.038748375932319827, 'epochs': 953, 'init_mode': 'glorot_uniform', 'learn_rate': 0.17182794477082278, 'momentum': 0.94900355911257472, 'neurons': 13, 'weight_constraint': 3}
mean r2=-0.197203 (std=0.101860) with: {'activation': 'hard_sigmoid', 'batch_size': 60, 'dropout_rate': 0.038748375932319827, 'epochs': 953, 'init_mode': 'glorot_uniform', 'learn_rate': 0.17182794477082278, 'momentum': 0.94900355911257472, 'neurons': 13, 'weight_constraint': 3}
mean ev=0.000005 (std=0.000015) with: {'activation': 'hard_sigmoid', 'batch_size': 60, 'dropout_rate': 0.038748375932319827, 'epochs': 953, 'init_mode': 'glorot_uniform', 'learn_rate': 0.17182794477082278, 'momentum': 0.94900355911257472, 'neurons': 13, 'weight_constraint': 3}
****************************************************
mean mae=-4.817478 (std=1.417378) with: {'activation': 'hard_sigmoid', 'batch_size': 57, 'dropout_rate': 0.70242742416805526, 'epochs': 740, 'init_mode': 'zero', 'learn_rate': 0.20833160342933746, 'momentum': 0.91243523225027401, 'neurons': 10, 'weight_constraint': 1}
mean mse=-106.305702 (std=65.841754) with: {'activation': 'hard_sigmoid', 'batch_size': 57, 'dropout_rate': 0.70242742416805526, 'epochs': 740, 'init_mode': 'zero', 'learn_rate': 0.20833160342933746, 'momentum': 0.91243523225027401, 'neurons': 10, 'weight_constraint': 1}
mean r2=-0.183955 (std=0.089183) with: {'activation': 'hard_sigmoid', 'batch_size': 57, 'dropout_rate': 0.70242742416805526, 'epochs': 740, 'init_mode': 'zero', 'learn_rate': 0.20833160342933746, 'momentum': 0.91243523225027401, 'neurons': 10, 'weight_constraint': 1}
mean ev=-0.000003 (std=0.000008) with: {'activation': 'hard_sigmoid', 'batch_size': 57, 'dropout_rate': 0.70242742416805526, 'epochs': 740, 'init_mode': 'zero', 'learn_rate': 0.20833160342933746, 'momentum': 0.91243523225027401, 'neurons': 10, 'weight_constraint': 1}
****************************************************
mean mae=-4.751813 (std=1.432990) with: {'activation': 'softmax', 'batch_size': 50, 'dropout_rate': 0.80373977011231779, 'epochs': 654, 'init_mode': 'zero', 'learn_rate': 0.050890877375130129, 'momentum': 0.7605423557298987, 'neurons': 55, 'weight_constraint': 3}
mean mse=-104.881222 (std=65.263116) with: {'activation': 'softmax', 'batch_size': 50, 'dropout_rate': 0.80373977011231779, 'epochs': 654, 'init_mode': 'zero', 'learn_rate': 0.050890877375130129, 'momentum': 0.7605423557298987, 'neurons': 55, 'weight_constraint': 3}
mean r2=-0.169447 (std=0.074544) with: {'activation': 'softmax', 'batch_size': 50, 'dropout_rate': 0.80373977011231779, 'epochs': 654, 'init_mode': 'zero', 'learn_rate': 0.050890877375130129, 'momentum': 0.7605423557298987, 'neurons': 55, 'weight_constraint': 3}
mean ev=0.007686 (std=0.006919) with: {'activation': 'softmax', 'batch_size': 50, 'dropout_rate': 0.80373977011231779, 'epochs': 654, 'init_mode': 'zero', 'learn_rate': 0.050890877375130129, 'momentum': 0.7605423557298987, 'neurons': 55, 'weight_constraint': 3}
****************************************************
mean mae=-5.290991 (std=1.224575) with: {'activation': 'softmax', 'batch_size': 5, 'dropout_rate': 0.18554168703446072, 'epochs': 53, 'init_mode': 'normal', 'learn_rate': 0.26202025303033744, 'momentum': 0.95313863846175384, 'neurons': 5, 'weight_constraint': 5}
mean mse=-102.918205 (std=63.970898) with: {'activation': 'softmax', 'batch_size': 5, 'dropout_rate': 0.18554168703446072, 'epochs': 53, 'init_mode': 'normal', 'learn_rate': 0.26202025303033744, 'momentum': 0.95313863846175384, 'neurons': 5, 'weight_constraint': 5}
mean r2=-0.165498 (std=0.146200) with: {'activation': 'softmax', 'batch_size': 5, 'dropout_rate': 0.18554168703446072, 'epochs': 53, 'init_mode': 'normal', 'learn_rate': 0.26202025303033744, 'momentum': 0.95313863846175384, 'neurons': 5, 'weight_constraint': 5}
mean ev=-0.000048 (std=0.000142) with: {'activation': 'softmax', 'batch_size': 5, 'dropout_rate': 0.18554168703446072, 'epochs': 53, 'init_mode': 'normal', 'learn_rate': 0.26202025303033744, 'momentum': 0.95313863846175384, 'neurons': 5, 'weight_constraint': 5}
****************************************************
mean mae=-4.521949 (std=1.332855) with: {'activation': 'softmax', 'batch_size': 20, 'dropout_rate': 0.6105377409481294, 'epochs': 389, 'init_mode': 'zero', 'learn_rate': 0.14339220416150408, 'momentum': 0.71777773238317288, 'neurons': 92, 'weight_constraint': 5}
mean mse=-93.660325 (std=67.007542) with: {'activation': 'softmax', 'batch_size': 20, 'dropout_rate': 0.6105377409481294, 'epochs': 389, 'init_mode': 'zero', 'learn_rate': 0.14339220416150408, 'momentum': 0.71777773238317288, 'neurons': 92, 'weight_constraint': 5}
mean r2=-0.017655 (std=0.109624) with: {'activation': 'softmax', 'batch_size': 20, 'dropout_rate': 0.6105377409481294, 'epochs': 389, 'init_mode': 'zero', 'learn_rate': 0.14339220416150408, 'momentum': 0.71777773238317288, 'neurons': 92, 'weight_constraint': 5}
mean ev=0.094112 (std=0.061377) with: {'activation': 'softmax', 'batch_size': 20, 'dropout_rate': 0.6105377409481294, 'epochs': 389, 'init_mode': 'zero', 'learn_rate': 0.14339220416150408, 'momentum': 0.71777773238317288, 'neurons': 92, 'weight_constraint': 5}
****************************************************
mean mae=-4.743433 (std=1.356822) with: {'activation': 'relu', 'batch_size': 78, 'dropout_rate': 0.39278112886064454, 'epochs': 627, 'init_mode': 'he_uniform', 'learn_rate': 0.095025745967464242, 'momentum': 0.99344719069867105, 'neurons': 67, 'weight_constraint': 3}
mean mse=-100.649815 (std=63.765516) with: {'activation': 'relu', 'batch_size': 78, 'dropout_rate': 0.39278112886064454, 'epochs': 627, 'init_mode': 'he_uniform', 'learn_rate': 0.095025745967464242, 'momentum': 0.99344719069867105, 'neurons': 67, 'weight_constraint': 3}
mean r2=-0.114820 (std=0.092698) with: {'activation': 'relu', 'batch_size': 78, 'dropout_rate': 0.39278112886064454, 'epochs': 627, 'init_mode': 'he_uniform', 'learn_rate': 0.095025745967464242, 'momentum': 0.99344719069867105, 'neurons': 67, 'weight_constraint': 3}
mean ev=0.030534 (std=0.025831) with: {'activation': 'relu', 'batch_size': 78, 'dropout_rate': 0.39278112886064454, 'epochs': 627, 'init_mode': 'he_uniform', 'learn_rate': 0.095025745967464242, 'momentum': 0.99344719069867105, 'neurons': 67, 'weight_constraint': 3}
****************************************************
mean mae=-5.049216 (std=1.032023) with: {'activation': 'softsign', 'batch_size': 62, 'dropout_rate': 0.053059424585393027, 'epochs': 170, 'init_mode': 'normal', 'learn_rate': 0.050859424362363063, 'momentum': 0.8972739434892697, 'neurons': 82, 'weight_constraint': 1}
mean mse=-87.089875 (std=55.605470) with: {'activation': 'softsign', 'batch_size': 62, 'dropout_rate': 0.053059424585393027, 'epochs': 170, 'init_mode': 'normal', 'learn_rate': 0.050859424362363063, 'momentum': 0.8972739434892697, 'neurons': 82, 'weight_constraint': 1}
mean r2=-0.016341 (std=0.180105) with: {'activation': 'softsign', 'batch_size': 62, 'dropout_rate': 0.053059424585393027, 'epochs': 170, 'init_mode': 'normal', 'learn_rate': 0.050859424362363063, 'momentum': 0.8972739434892697, 'neurons': 82, 'weight_constraint': 1}
mean ev=0.055168 (std=0.177807) with: {'activation': 'softsign', 'batch_size': 62, 'dropout_rate': 0.053059424585393027, 'epochs': 170, 'init_mode': 'normal', 'learn_rate': 0.050859424362363063, 'momentum': 0.8972739434892697, 'neurons': 82, 'weight_constraint': 1}
****************************************************
mean mae=-13.041291 (std=7.809465) with: {'activation': 'softsign', 'batch_size': 17, 'dropout_rate': 0.35291695333268192, 'epochs': 825, 'init_mode': 'uniform', 'learn_rate': 0.20932091563713326, 'momentum': 0.90057821584784303, 'neurons': 92, 'weight_constraint': 1}
mean mse=-295.026274 (std=270.566824) with: {'activation': 'softsign', 'batch_size': 17, 'dropout_rate': 0.35291695333268192, 'epochs': 825, 'init_mode': 'uniform', 'learn_rate': 0.20932091563713326, 'momentum': 0.90057821584784303, 'neurons': 92, 'weight_constraint': 1}
mean r2=-4.593262 (std=6.931429) with: {'activation': 'softsign', 'batch_size': 17, 'dropout_rate': 0.35291695333268192, 'epochs': 825, 'init_mode': 'uniform', 'learn_rate': 0.20932091563713326, 'momentum': 0.90057821584784303, 'neurons': 92, 'weight_constraint': 1}
mean ev=0.023217 (std=0.026214) with: {'activation': 'softsign', 'batch_size': 17, 'dropout_rate': 0.35291695333268192, 'epochs': 825, 'init_mode': 'uniform', 'learn_rate': 0.20932091563713326, 'momentum': 0.90057821584784303, 'neurons': 92, 'weight_constraint': 1}
****************************************************
mean mae=-5.694943 (std=0.711213) with: {'activation': 'softsign', 'batch_size': 37, 'dropout_rate': 0.022866950069676865, 'epochs': 898, 'init_mode': 'he_normal', 'learn_rate': 0.059889998694467407, 'momentum': 0.67140261458070516, 'neurons': 87, 'weight_constraint': 3}
mean mse=-87.740912 (std=47.187146) with: {'activation': 'softsign', 'batch_size': 37, 'dropout_rate': 0.022866950069676865, 'epochs': 898, 'init_mode': 'he_normal', 'learn_rate': 0.059889998694467407, 'momentum': 0.67140261458070516, 'neurons': 87, 'weight_constraint': 3}
mean r2=-0.165547 (std=0.451305) with: {'activation': 'softsign', 'batch_size': 37, 'dropout_rate': 0.022866950069676865, 'epochs': 898, 'init_mode': 'he_normal', 'learn_rate': 0.059889998694467407, 'momentum': 0.67140261458070516, 'neurons': 87, 'weight_constraint': 3}
mean ev=-0.038604 (std=0.480450) with: {'activation': 'softsign', 'batch_size': 37, 'dropout_rate': 0.022866950069676865, 'epochs': 898, 'init_mode': 'he_normal', 'learn_rate': 0.059889998694467407, 'momentum': 0.67140261458070516, 'neurons': 87, 'weight_constraint': 3}
****************************************************
mean mae=-5.069807 (std=1.068482) with: {'activation': 'sigmoid', 'batch_size': 97, 'dropout_rate': 0.21425596298493743, 'epochs': 854, 'init_mode': 'zero', 'learn_rate': 0.069692138273949572, 'momentum': 0.86454281031320623, 'neurons': 77, 'weight_constraint': 4}
mean mse=-88.048204 (std=59.806957) with: {'activation': 'sigmoid', 'batch_size': 97, 'dropout_rate': 0.21425596298493743, 'epochs': 854, 'init_mode': 'zero', 'learn_rate': 0.069692138273949572, 'momentum': 0.86454281031320623, 'neurons': 77, 'weight_constraint': 4}
mean r2=-0.033519 (std=0.185469) with: {'activation': 'sigmoid', 'batch_size': 97, 'dropout_rate': 0.21425596298493743, 'epochs': 854, 'init_mode': 'zero', 'learn_rate': 0.069692138273949572, 'momentum': 0.86454281031320623, 'neurons': 77, 'weight_constraint': 4}
mean ev=0.002628 (std=0.192522) with: {'activation': 'sigmoid', 'batch_size': 97, 'dropout_rate': 0.21425596298493743, 'epochs': 854, 'init_mode': 'zero', 'learn_rate': 0.069692138273949572, 'momentum': 0.86454281031320623, 'neurons': 77, 'weight_constraint': 4}
****************************************************
mean mae=-4.790598 (std=1.132629) with: {'activation': 'hard_sigmoid', 'batch_size': 42, 'dropout_rate': 0.43004681431118652, 'epochs': 205, 'init_mode': 'glorot_uniform', 'learn_rate': 0.16686494614109468, 'momentum': 0.65131532083000332, 'neurons': 19, 'weight_constraint': 3}
mean mse=-92.725017 (std=61.584880) with: {'activation': 'hard_sigmoid', 'batch_size': 42, 'dropout_rate': 0.43004681431118652, 'epochs': 205, 'init_mode': 'glorot_uniform', 'learn_rate': 0.16686494614109468, 'momentum': 0.65131532083000332, 'neurons': 19, 'weight_constraint': 3}
mean r2=-0.044511 (std=0.116915) with: {'activation': 'hard_sigmoid', 'batch_size': 42, 'dropout_rate': 0.43004681431118652, 'epochs': 205, 'init_mode': 'glorot_uniform', 'learn_rate': 0.16686494614109468, 'momentum': 0.65131532083000332, 'neurons': 19, 'weight_constraint': 3}
mean ev=0.065813 (std=0.078701) with: {'activation': 'hard_sigmoid', 'batch_size': 42, 'dropout_rate': 0.43004681431118652, 'epochs': 205, 'init_mode': 'glorot_uniform', 'learn_rate': 0.16686494614109468, 'momentum': 0.65131532083000332, 'neurons': 19, 'weight_constraint': 3}
****************************************************
mean mae=-4.798244 (std=1.478468) with: {'activation': 'relu', 'batch_size': 23, 'dropout_rate': 0.96293157807256458, 'epochs': 191, 'init_mode': 'lecun_uniform', 'learn_rate': 0.17047457596933535, 'momentum': 0.89396219741296212, 'neurons': 41, 'weight_constraint': 2}
mean mse=-106.403493 (std=66.267031) with: {'activation': 'relu', 'batch_size': 23, 'dropout_rate': 0.96293157807256458, 'epochs': 191, 'init_mode': 'lecun_uniform', 'learn_rate': 0.17047457596933535, 'momentum': 0.89396219741296212, 'neurons': 41, 'weight_constraint': 2}
mean r2=-0.186643 (std=0.080753) with: {'activation': 'relu', 'batch_size': 23, 'dropout_rate': 0.96293157807256458, 'epochs': 191, 'init_mode': 'lecun_uniform', 'learn_rate': 0.17047457596933535, 'momentum': 0.89396219741296212, 'neurons': 41, 'weight_constraint': 2}
mean ev=0.000000 (std=0.000001) with: {'activation': 'relu', 'batch_size': 23, 'dropout_rate': 0.96293157807256458, 'epochs': 191, 'init_mode': 'lecun_uniform', 'learn_rate': 0.17047457596933535, 'momentum': 0.89396219741296212, 'neurons': 41, 'weight_constraint': 2}
****************************************************
mean mae=-4.965760 (std=1.137673) with: {'activation': 'linear', 'batch_size': 43, 'dropout_rate': 0.10305405194612337, 'epochs': 34, 'init_mode': 'he_uniform', 'learn_rate': 0.18962750551973653, 'momentum': 0.51898460846347416, 'neurons': 17, 'weight_constraint': 5}
mean mse=-94.259367 (std=63.830581) with: {'activation': 'linear', 'batch_size': 43, 'dropout_rate': 0.10305405194612337, 'epochs': 34, 'init_mode': 'he_uniform', 'learn_rate': 0.18962750551973653, 'momentum': 0.51898460846347416, 'neurons': 17, 'weight_constraint': 5}
mean r2=-0.040653 (std=0.163602) with: {'activation': 'linear', 'batch_size': 43, 'dropout_rate': 0.10305405194612337, 'epochs': 34, 'init_mode': 'he_uniform', 'learn_rate': 0.18962750551973653, 'momentum': 0.51898460846347416, 'neurons': 17, 'weight_constraint': 5}
mean ev=0.069867 (std=0.081857) with: {'activation': 'linear', 'batch_size': 43, 'dropout_rate': 0.10305405194612337, 'epochs': 34, 'init_mode': 'he_uniform', 'learn_rate': 0.18962750551973653, 'momentum': 0.51898460846347416, 'neurons': 17, 'weight_constraint': 5}
****************************************************
mean mae=-4.686489 (std=1.138381) with: {'activation': 'softsign', 'batch_size': 41, 'dropout_rate': 0.75803602502277134, 'epochs': 626, 'init_mode': 'normal', 'learn_rate': 0.030257577413566498, 'momentum': 0.95859635308021673, 'neurons': 34, 'weight_constraint': 5}
mean mse=-90.644138 (std=62.712915) with: {'activation': 'softsign', 'batch_size': 41, 'dropout_rate': 0.75803602502277134, 'epochs': 626, 'init_mode': 'normal', 'learn_rate': 0.030257577413566498, 'momentum': 0.95859635308021673, 'neurons': 34, 'weight_constraint': 5}
mean r2=-0.004415 (std=0.092489) with: {'activation': 'softsign', 'batch_size': 41, 'dropout_rate': 0.75803602502277134, 'epochs': 626, 'init_mode': 'normal', 'learn_rate': 0.030257577413566498, 'momentum': 0.95859635308021673, 'neurons': 34, 'weight_constraint': 5}
mean ev=0.078535 (std=0.079173) with: {'activation': 'softsign', 'batch_size': 41, 'dropout_rate': 0.75803602502277134, 'epochs': 626, 'init_mode': 'normal', 'learn_rate': 0.030257577413566498, 'momentum': 0.95859635308021673, 'neurons': 34, 'weight_constraint': 5}
****************************************************
mean mae=-4.847726 (std=1.014832) with: {'activation': 'softplus', 'batch_size': 44, 'dropout_rate': 0.068944222145251297, 'epochs': 306, 'init_mode': 'lecun_uniform', 'learn_rate': 0.1365935310104992, 'momentum': 0.88019215157563058, 'neurons': 50, 'weight_constraint': 1}
mean mse=-94.657436 (std=62.473638) with: {'activation': 'softplus', 'batch_size': 44, 'dropout_rate': 0.068944222145251297, 'epochs': 306, 'init_mode': 'lecun_uniform', 'learn_rate': 0.1365935310104992, 'momentum': 0.88019215157563058, 'neurons': 50, 'weight_constraint': 1}
mean r2=-0.120443 (std=0.289245) with: {'activation': 'softplus', 'batch_size': 44, 'dropout_rate': 0.068944222145251297, 'epochs': 306, 'init_mode': 'lecun_uniform', 'learn_rate': 0.1365935310104992, 'momentum': 0.88019215157563058, 'neurons': 50, 'weight_constraint': 1}
mean ev=0.047700 (std=0.136938) with: {'activation': 'softplus', 'batch_size': 44, 'dropout_rate': 0.068944222145251297, 'epochs': 306, 'init_mode': 'lecun_uniform', 'learn_rate': 0.1365935310104992, 'momentum': 0.88019215157563058, 'neurons': 50, 'weight_constraint': 1}
****************************************************
mean mae=-5.356665 (std=0.973803) with: {'activation': 'softsign', 'batch_size': 43, 'dropout_rate': 0.36399384220326303, 'epochs': 964, 'init_mode': 'glorot_normal', 'learn_rate': 0.16338438965019103, 'momentum': 0.52083501556151202, 'neurons': 98, 'weight_constraint': 3}
mean mse=-90.332070 (std=59.971635) with: {'activation': 'softsign', 'batch_size': 43, 'dropout_rate': 0.36399384220326303, 'epochs': 964, 'init_mode': 'glorot_normal', 'learn_rate': 0.16338438965019103, 'momentum': 0.52083501556151202, 'neurons': 98, 'weight_constraint': 3}
mean r2=-0.130361 (std=0.404356) with: {'activation': 'softsign', 'batch_size': 43, 'dropout_rate': 0.36399384220326303, 'epochs': 964, 'init_mode': 'glorot_normal', 'learn_rate': 0.16338438965019103, 'momentum': 0.52083501556151202, 'neurons': 98, 'weight_constraint': 3}
mean ev=0.023673 (std=0.232939) with: {'activation': 'softsign', 'batch_size': 43, 'dropout_rate': 0.36399384220326303, 'epochs': 964, 'init_mode': 'glorot_normal', 'learn_rate': 0.16338438965019103, 'momentum': 0.52083501556151202, 'neurons': 98, 'weight_constraint': 3}
****************************************************
mean mae=-4.747896 (std=1.445953) with: {'activation': 'softsign', 'batch_size': 11, 'dropout_rate': 0.50574568349000426, 'epochs': 967, 'init_mode': 'zero', 'learn_rate': 0.021958266469249026, 'momentum': 0.91810350037237276, 'neurons': 99, 'weight_constraint': 5}
mean mse=-106.158882 (std=65.699717) with: {'activation': 'softsign', 'batch_size': 11, 'dropout_rate': 0.50574568349000426, 'epochs': 967, 'init_mode': 'zero', 'learn_rate': 0.021958266469249026, 'momentum': 0.91810350037237276, 'neurons': 99, 'weight_constraint': 5}
mean r2=-0.186934 (std=0.072142) with: {'activation': 'softsign', 'batch_size': 11, 'dropout_rate': 0.50574568349000426, 'epochs': 967, 'init_mode': 'zero', 'learn_rate': 0.021958266469249026, 'momentum': 0.91810350037237276, 'neurons': 99, 'weight_constraint': 5}
mean ev=-0.000000 (std=0.000000) with: {'activation': 'softsign', 'batch_size': 11, 'dropout_rate': 0.50574568349000426, 'epochs': 967, 'init_mode': 'zero', 'learn_rate': 0.021958266469249026, 'momentum': 0.91810350037237276, 'neurons': 99, 'weight_constraint': 5}
****************************************************
mean mae=-4.801116 (std=1.471696) with: {'activation': 'tanh', 'batch_size': 26, 'dropout_rate': 0.036451248422167175, 'epochs': 976, 'init_mode': 'zero', 'learn_rate': 0.23755516997799603, 'momentum': 0.78773823961684708, 'neurons': 29, 'weight_constraint': 2}
mean mse=-106.364407 (std=65.546354) with: {'activation': 'tanh', 'batch_size': 26, 'dropout_rate': 0.036451248422167175, 'epochs': 976, 'init_mode': 'zero', 'learn_rate': 0.23755516997799603, 'momentum': 0.78773823961684708, 'neurons': 29, 'weight_constraint': 2}
mean r2=-0.187836 (std=0.084330) with: {'activation': 'tanh', 'batch_size': 26, 'dropout_rate': 0.036451248422167175, 'epochs': 976, 'init_mode': 'zero', 'learn_rate': 0.23755516997799603, 'momentum': 0.78773823961684708, 'neurons': 29, 'weight_constraint': 2}
mean ev=-0.000000 (std=0.000000) with: {'activation': 'tanh', 'batch_size': 26, 'dropout_rate': 0.036451248422167175, 'epochs': 976, 'init_mode': 'zero', 'learn_rate': 0.23755516997799603, 'momentum': 0.78773823961684708, 'neurons': 29, 'weight_constraint': 2}
****************************************************
mean mae=-4.781866 (std=1.450781) with: {'activation': 'relu', 'batch_size': 87, 'dropout_rate': 0.73088181154696674, 'epochs': 634, 'init_mode': 'glorot_normal', 'learn_rate': 0.21760467665987557, 'momentum': 0.94697137203344284, 'neurons': 26, 'weight_constraint': 5}
mean mse=-106.203330 (std=66.059951) with: {'activation': 'relu', 'batch_size': 87, 'dropout_rate': 0.73088181154696674, 'epochs': 634, 'init_mode': 'glorot_normal', 'learn_rate': 0.21760467665987557, 'momentum': 0.94697137203344284, 'neurons': 26, 'weight_constraint': 5}
mean r2=-0.183297 (std=0.081160) with: {'activation': 'relu', 'batch_size': 87, 'dropout_rate': 0.73088181154696674, 'epochs': 634, 'init_mode': 'glorot_normal', 'learn_rate': 0.21760467665987557, 'momentum': 0.94697137203344284, 'neurons': 26, 'weight_constraint': 5}
mean ev=-0.000000 (std=0.000000) with: {'activation': 'relu', 'batch_size': 87, 'dropout_rate': 0.73088181154696674, 'epochs': 634, 'init_mode': 'glorot_normal', 'learn_rate': 0.21760467665987557, 'momentum': 0.94697137203344284, 'neurons': 26, 'weight_constraint': 5}
****************************************************
mean mae=-6.362617 (std=1.785513) with: {'activation': 'softsign', 'batch_size': 74, 'dropout_rate': 0.26765751329154264, 'epochs': 606, 'init_mode': 'normal', 'learn_rate': 0.29251391281811617, 'momentum': 0.84315363579906777, 'neurons': 77, 'weight_constraint': 3}
mean mse=-111.618482 (std=74.004304) with: {'activation': 'softsign', 'batch_size': 74, 'dropout_rate': 0.26765751329154264, 'epochs': 606, 'init_mode': 'normal', 'learn_rate': 0.29251391281811617, 'momentum': 0.84315363579906777, 'neurons': 77, 'weight_constraint': 3}
mean r2=-0.260724 (std=0.241093) with: {'activation': 'softsign', 'batch_size': 74, 'dropout_rate': 0.26765751329154264, 'epochs': 606, 'init_mode': 'normal', 'learn_rate': 0.29251391281811617, 'momentum': 0.84315363579906777, 'neurons': 77, 'weight_constraint': 3}
mean ev=0.080000 (std=0.100460) with: {'activation': 'softsign', 'batch_size': 74, 'dropout_rate': 0.26765751329154264, 'epochs': 606, 'init_mode': 'normal', 'learn_rate': 0.29251391281811617, 'momentum': 0.84315363579906777, 'neurons': 77, 'weight_constraint': 3}
****************************************************
mean mae=-4.752633 (std=1.359479) with: {'activation': 'hard_sigmoid', 'batch_size': 10, 'dropout_rate': 0.40719881796866431, 'epochs': 947, 'init_mode': 'zero', 'learn_rate': 0.10127984611311419, 'momentum': 0.60251544715310867, 'neurons': 8, 'weight_constraint': 4}
mean mse=-100.217536 (std=64.241491) with: {'activation': 'hard_sigmoid', 'batch_size': 10, 'dropout_rate': 0.40719881796866431, 'epochs': 947, 'init_mode': 'zero', 'learn_rate': 0.10127984611311419, 'momentum': 0.60251544715310867, 'neurons': 8, 'weight_constraint': 4}
mean r2=-0.104503 (std=0.099818) with: {'activation': 'hard_sigmoid', 'batch_size': 10, 'dropout_rate': 0.40719881796866431, 'epochs': 947, 'init_mode': 'zero', 'learn_rate': 0.10127984611311419, 'momentum': 0.60251544715310867, 'neurons': 8, 'weight_constraint': 4}
mean ev=0.034437 (std=0.021071) with: {'activation': 'hard_sigmoid', 'batch_size': 10, 'dropout_rate': 0.40719881796866431, 'epochs': 947, 'init_mode': 'zero', 'learn_rate': 0.10127984611311419, 'momentum': 0.60251544715310867, 'neurons': 8, 'weight_constraint': 4}
****************************************************
mean mae=-4.829573 (std=1.495544) with: {'activation': 'softplus', 'batch_size': 17, 'dropout_rate': 0.66404930954139818, 'epochs': 240, 'init_mode': 'glorot_normal', 'learn_rate': 0.25847243258095043, 'momentum': 0.58923977794636828, 'neurons': 7, 'weight_constraint': 5}
mean mse=-106.784690 (std=64.529979) with: {'activation': 'softplus', 'batch_size': 17, 'dropout_rate': 0.66404930954139818, 'epochs': 240, 'init_mode': 'glorot_normal', 'learn_rate': 0.25847243258095043, 'momentum': 0.58923977794636828, 'neurons': 7, 'weight_constraint': 5}
mean r2=-0.200992 (std=0.108805) with: {'activation': 'softplus', 'batch_size': 17, 'dropout_rate': 0.66404930954139818, 'epochs': 240, 'init_mode': 'glorot_normal', 'learn_rate': 0.25847243258095043, 'momentum': 0.58923977794636828, 'neurons': 7, 'weight_constraint': 5}
mean ev=0.009185 (std=0.010215) with: {'activation': 'softplus', 'batch_size': 17, 'dropout_rate': 0.66404930954139818, 'epochs': 240, 'init_mode': 'glorot_normal', 'learn_rate': 0.25847243258095043, 'momentum': 0.58923977794636828, 'neurons': 7, 'weight_constraint': 5}
****************************************************
mean mae=-4.801399 (std=1.234345) with: {'activation': 'sigmoid', 'batch_size': 95, 'dropout_rate': 0.67322182681934628, 'epochs': 719, 'init_mode': 'uniform', 'learn_rate': 0.28575334615275122, 'momentum': 0.92662881520810381, 'neurons': 69, 'weight_constraint': 5}
mean mse=-96.915776 (std=61.382933) with: {'activation': 'sigmoid', 'batch_size': 95, 'dropout_rate': 0.67322182681934628, 'epochs': 719, 'init_mode': 'uniform', 'learn_rate': 0.28575334615275122, 'momentum': 0.92662881520810381, 'neurons': 69, 'weight_constraint': 5}
mean r2=-0.079041 (std=0.079252) with: {'activation': 'sigmoid', 'batch_size': 95, 'dropout_rate': 0.67322182681934628, 'epochs': 719, 'init_mode': 'uniform', 'learn_rate': 0.28575334615275122, 'momentum': 0.92662881520810381, 'neurons': 69, 'weight_constraint': 5}
mean ev=0.039802 (std=0.027434) with: {'activation': 'sigmoid', 'batch_size': 95, 'dropout_rate': 0.67322182681934628, 'epochs': 719, 'init_mode': 'uniform', 'learn_rate': 0.28575334615275122, 'momentum': 0.92662881520810381, 'neurons': 69, 'weight_constraint': 5}
****************************************************
mean mae=-4.796866 (std=1.185537) with: {'activation': 'relu', 'batch_size': 81, 'dropout_rate': 0.53755572058498802, 'epochs': 316, 'init_mode': 'normal', 'learn_rate': 0.06383597865935127, 'momentum': 0.75571167679300022, 'neurons': 24, 'weight_constraint': 4}
mean mse=-94.164322 (std=62.898395) with: {'activation': 'relu', 'batch_size': 81, 'dropout_rate': 0.53755572058498802, 'epochs': 316, 'init_mode': 'normal', 'learn_rate': 0.06383597865935127, 'momentum': 0.75571167679300022, 'neurons': 24, 'weight_constraint': 4}
mean r2=-0.115922 (std=0.268307) with: {'activation': 'relu', 'batch_size': 81, 'dropout_rate': 0.53755572058498802, 'epochs': 316, 'init_mode': 'normal', 'learn_rate': 0.06383597865935127, 'momentum': 0.75571167679300022, 'neurons': 24, 'weight_constraint': 4}
mean ev=-0.020192 (std=0.270444) with: {'activation': 'relu', 'batch_size': 81, 'dropout_rate': 0.53755572058498802, 'epochs': 316, 'init_mode': 'normal', 'learn_rate': 0.06383597865935127, 'momentum': 0.75571167679300022, 'neurons': 24, 'weight_constraint': 4}
****************************************************
mean mae=-4.707284 (std=1.441928) with: {'activation': 'hard_sigmoid', 'batch_size': 30, 'dropout_rate': 0.95493644248417131, 'epochs': 815, 'init_mode': 'normal', 'learn_rate': 0.0062956165851926335, 'momentum': 0.96325853249601179, 'neurons': 23, 'weight_constraint': 5}
mean mse=-105.407584 (std=65.234004) with: {'activation': 'hard_sigmoid', 'batch_size': 30, 'dropout_rate': 0.95493644248417131, 'epochs': 815, 'init_mode': 'normal', 'learn_rate': 0.0062956165851926335, 'momentum': 0.96325853249601179, 'neurons': 23, 'weight_constraint': 5}
mean r2=-0.176289 (std=0.076795) with: {'activation': 'hard_sigmoid', 'batch_size': 30, 'dropout_rate': 0.95493644248417131, 'epochs': 815, 'init_mode': 'normal', 'learn_rate': 0.0062956165851926335, 'momentum': 0.96325853249601179, 'neurons': 23, 'weight_constraint': 5}
mean ev=0.012403 (std=0.007997) with: {'activation': 'hard_sigmoid', 'batch_size': 30, 'dropout_rate': 0.95493644248417131, 'epochs': 815, 'init_mode': 'normal', 'learn_rate': 0.0062956165851926335, 'momentum': 0.96325853249601179, 'neurons': 23, 'weight_constraint': 5}
****************************************************
mean mae=-4.713068 (std=1.372555) with: {'activation': 'tanh', 'batch_size': 72, 'dropout_rate': 0.88343322618496911, 'epochs': 825, 'init_mode': 'uniform', 'learn_rate': 0.053391138187576959, 'momentum': 0.79587584653382115, 'neurons': 4, 'weight_constraint': 1}
mean mse=-102.466297 (std=65.052533) with: {'activation': 'tanh', 'batch_size': 72, 'dropout_rate': 0.88343322618496911, 'epochs': 825, 'init_mode': 'uniform', 'learn_rate': 0.053391138187576959, 'momentum': 0.79587584653382115, 'neurons': 4, 'weight_constraint': 1}
mean r2=-0.130935 (std=0.089442) with: {'activation': 'tanh', 'batch_size': 72, 'dropout_rate': 0.88343322618496911, 'epochs': 825, 'init_mode': 'uniform', 'learn_rate': 0.053391138187576959, 'momentum': 0.79587584653382115, 'neurons': 4, 'weight_constraint': 1}
mean ev=0.027493 (std=0.017497) with: {'activation': 'tanh', 'batch_size': 72, 'dropout_rate': 0.88343322618496911, 'epochs': 825, 'init_mode': 'uniform', 'learn_rate': 0.053391138187576959, 'momentum': 0.79587584653382115, 'neurons': 4, 'weight_constraint': 1}
****************************************************
mean mae=-4.713415 (std=1.237031) with: {'activation': 'tanh', 'batch_size': 36, 'dropout_rate': 0.90467534257205373, 'epochs': 653, 'init_mode': 'normal', 'learn_rate': 0.13249595534827815, 'momentum': 0.56803985105284982, 'neurons': 26, 'weight_constraint': 4}
mean mse=-95.946676 (std=60.791565) with: {'activation': 'tanh', 'batch_size': 36, 'dropout_rate': 0.90467534257205373, 'epochs': 653, 'init_mode': 'normal', 'learn_rate': 0.13249595534827815, 'momentum': 0.56803985105284982, 'neurons': 26, 'weight_constraint': 4}
mean r2=-0.071177 (std=0.081919) with: {'activation': 'tanh', 'batch_size': 36, 'dropout_rate': 0.90467534257205373, 'epochs': 653, 'init_mode': 'normal', 'learn_rate': 0.13249595534827815, 'momentum': 0.56803985105284982, 'neurons': 26, 'weight_constraint': 4}
mean ev=0.051567 (std=0.054053) with: {'activation': 'tanh', 'batch_size': 36, 'dropout_rate': 0.90467534257205373, 'epochs': 653, 'init_mode': 'normal', 'learn_rate': 0.13249595534827815, 'momentum': 0.56803985105284982, 'neurons': 26, 'weight_constraint': 4}
****************************************************
mean mae=-6.050960 (std=1.916601) with: {'activation': 'softsign', 'batch_size': 29, 'dropout_rate': 0.69458849215703533, 'epochs': 402, 'init_mode': 'lecun_uniform', 'learn_rate': 0.21198532955793356, 'momentum': 0.87240680062872999, 'neurons': 84, 'weight_constraint': 4}
mean mse=-97.931454 (std=57.051415) with: {'activation': 'softsign', 'batch_size': 29, 'dropout_rate': 0.69458849215703533, 'epochs': 402, 'init_mode': 'lecun_uniform', 'learn_rate': 0.21198532955793356, 'momentum': 0.87240680062872999, 'neurons': 84, 'weight_constraint': 4}
mean r2=-0.152196 (std=0.239364) with: {'activation': 'softsign', 'batch_size': 29, 'dropout_rate': 0.69458849215703533, 'epochs': 402, 'init_mode': 'lecun_uniform', 'learn_rate': 0.21198532955793356, 'momentum': 0.87240680062872999, 'neurons': 84, 'weight_constraint': 4}
mean ev=0.037542 (std=0.077105) with: {'activation': 'softsign', 'batch_size': 29, 'dropout_rate': 0.69458849215703533, 'epochs': 402, 'init_mode': 'lecun_uniform', 'learn_rate': 0.21198532955793356, 'momentum': 0.87240680062872999, 'neurons': 84, 'weight_constraint': 4}
****************************************************
mean mae=-4.570170 (std=1.395761) with: {'activation': 'relu', 'batch_size': 8, 'dropout_rate': 0.66635794795695957, 'epochs': 655, 'init_mode': 'glorot_normal', 'learn_rate': 0.0097274877587580494, 'momentum': 0.59240718741525766, 'neurons': 17, 'weight_constraint': 2}
mean mse=-99.275301 (std=64.891092) with: {'activation': 'relu', 'batch_size': 8, 'dropout_rate': 0.66635794795695957, 'epochs': 655, 'init_mode': 'glorot_normal', 'learn_rate': 0.0097274877587580494, 'momentum': 0.59240718741525766, 'neurons': 17, 'weight_constraint': 2}
mean r2=-0.098629 (std=0.078665) with: {'activation': 'relu', 'batch_size': 8, 'dropout_rate': 0.66635794795695957, 'epochs': 655, 'init_mode': 'glorot_normal', 'learn_rate': 0.0097274877587580494, 'momentum': 0.59240718741525766, 'neurons': 17, 'weight_constraint': 2}
mean ev=0.051706 (std=0.048493) with: {'activation': 'relu', 'batch_size': 8, 'dropout_rate': 0.66635794795695957, 'epochs': 655, 'init_mode': 'glorot_normal', 'learn_rate': 0.0097274877587580494, 'momentum': 0.59240718741525766, 'neurons': 17, 'weight_constraint': 2}
****************************************************
mean mae=-4.994017 (std=1.062065) with: {'activation': 'linear', 'batch_size': 80, 'dropout_rate': 0.5528473546458943, 'epochs': 714, 'init_mode': 'glorot_uniform', 'learn_rate': 0.26011978971302013, 'momentum': 0.50017080191186758, 'neurons': 71, 'weight_constraint': 5}
mean mse=-89.127298 (std=57.614955) with: {'activation': 'linear', 'batch_size': 80, 'dropout_rate': 0.5528473546458943, 'epochs': 714, 'init_mode': 'glorot_uniform', 'learn_rate': 0.26011978971302013, 'momentum': 0.50017080191186758, 'neurons': 71, 'weight_constraint': 5}
mean r2=-0.022318 (std=0.145815) with: {'activation': 'linear', 'batch_size': 80, 'dropout_rate': 0.5528473546458943, 'epochs': 714, 'init_mode': 'glorot_uniform', 'learn_rate': 0.26011978971302013, 'momentum': 0.50017080191186758, 'neurons': 71, 'weight_constraint': 5}
mean ev=0.054267 (std=0.122829) with: {'activation': 'linear', 'batch_size': 80, 'dropout_rate': 0.5528473546458943, 'epochs': 714, 'init_mode': 'glorot_uniform', 'learn_rate': 0.26011978971302013, 'momentum': 0.50017080191186758, 'neurons': 71, 'weight_constraint': 5}
****************************************************
mean mae=-18.975229 (std=11.516467) with: {'activation': 'softsign', 'batch_size': 9, 'dropout_rate': 0.4867516752102018, 'epochs': 287, 'init_mode': 'he_normal', 'learn_rate': 0.27651132424757885, 'momentum': 0.79946627346688515, 'neurons': 85, 'weight_constraint': 3}
mean mse=-568.890621 (std=573.851915) with: {'activation': 'softsign', 'batch_size': 9, 'dropout_rate': 0.4867516752102018, 'epochs': 287, 'init_mode': 'he_normal', 'learn_rate': 0.27651132424757885, 'momentum': 0.79946627346688515, 'neurons': 85, 'weight_constraint': 3}
mean r2=-11.702172 (std=19.092964) with: {'activation': 'softsign', 'batch_size': 9, 'dropout_rate': 0.4867516752102018, 'epochs': 287, 'init_mode': 'he_normal', 'learn_rate': 0.27651132424757885, 'momentum': 0.79946627346688515, 'neurons': 85, 'weight_constraint': 3}
mean ev=-0.041764 (std=0.122109) with: {'activation': 'softsign', 'batch_size': 9, 'dropout_rate': 0.4867516752102018, 'epochs': 287, 'init_mode': 'he_normal', 'learn_rate': 0.27651132424757885, 'momentum': 0.79946627346688515, 'neurons': 85, 'weight_constraint': 3}
****************************************************
mean mae=-4.859451 (std=1.470652) with: {'activation': 'relu', 'batch_size': 8, 'dropout_rate': 0.16618395105002359, 'epochs': 137, 'init_mode': 'glorot_uniform', 'learn_rate': 0.10148525743269898, 'momentum': 0.90272804555643782, 'neurons': 53, 'weight_constraint': 3}
mean mse=-106.699962 (std=64.527026) with: {'activation': 'relu', 'batch_size': 8, 'dropout_rate': 0.16618395105002359, 'epochs': 137, 'init_mode': 'glorot_uniform', 'learn_rate': 0.10148525743269898, 'momentum': 0.90272804555643782, 'neurons': 53, 'weight_constraint': 3}
mean r2=-0.198545 (std=0.103653) with: {'activation': 'relu', 'batch_size': 8, 'dropout_rate': 0.16618395105002359, 'epochs': 137, 'init_mode': 'glorot_uniform', 'learn_rate': 0.10148525743269898, 'momentum': 0.90272804555643782, 'neurons': 53, 'weight_constraint': 3}
mean ev=0.000034 (std=0.000153) with: {'activation': 'relu', 'batch_size': 8, 'dropout_rate': 0.16618395105002359, 'epochs': 137, 'init_mode': 'glorot_uniform', 'learn_rate': 0.10148525743269898, 'momentum': 0.90272804555643782, 'neurons': 53, 'weight_constraint': 3}
****************************************************
mean mae=-4.550755 (std=1.195138) with: {'activation': 'hard_sigmoid', 'batch_size': 97, 'dropout_rate': 0.20263513240551345, 'epochs': 358, 'init_mode': 'normal', 'learn_rate': 0.041877854970606504, 'momentum': 0.72560185298243662, 'neurons': 17, 'weight_constraint': 2}
mean mse=-91.770068 (std=62.760514) with: {'activation': 'hard_sigmoid', 'batch_size': 97, 'dropout_rate': 0.20263513240551345, 'epochs': 358, 'init_mode': 'normal', 'learn_rate': 0.041877854970606504, 'momentum': 0.72560185298243662, 'neurons': 17, 'weight_constraint': 2}
mean r2=-0.008735 (std=0.095309) with: {'activation': 'hard_sigmoid', 'batch_size': 97, 'dropout_rate': 0.20263513240551345, 'epochs': 358, 'init_mode': 'normal', 'learn_rate': 0.041877854970606504, 'momentum': 0.72560185298243662, 'neurons': 17, 'weight_constraint': 2}
mean ev=0.083438 (std=0.066562) with: {'activation': 'hard_sigmoid', 'batch_size': 97, 'dropout_rate': 0.20263513240551345, 'epochs': 358, 'init_mode': 'normal', 'learn_rate': 0.041877854970606504, 'momentum': 0.72560185298243662, 'neurons': 17, 'weight_constraint': 2}
****************************************************
mean mae=-7.365153 (std=3.042035) with: {'activation': 'softsign', 'batch_size': 35, 'dropout_rate': 0.84348992887659613, 'epochs': 512, 'init_mode': 'glorot_normal', 'learn_rate': 0.21629451284598034, 'momentum': 0.96165774099240242, 'neurons': 87, 'weight_constraint': 2}
mean mse=-120.687430 (std=73.389416) with: {'activation': 'softsign', 'batch_size': 35, 'dropout_rate': 0.84348992887659613, 'epochs': 512, 'init_mode': 'glorot_normal', 'learn_rate': 0.21629451284598034, 'momentum': 0.96165774099240242, 'neurons': 87, 'weight_constraint': 2}
mean r2=-0.451965 (std=0.525168) with: {'activation': 'softsign', 'batch_size': 35, 'dropout_rate': 0.84348992887659613, 'epochs': 512, 'init_mode': 'glorot_normal', 'learn_rate': 0.21629451284598034, 'momentum': 0.96165774099240242, 'neurons': 87, 'weight_constraint': 2}
mean ev=-0.068210 (std=0.253280) with: {'activation': 'softsign', 'batch_size': 35, 'dropout_rate': 0.84348992887659613, 'epochs': 512, 'init_mode': 'glorot_normal', 'learn_rate': 0.21629451284598034, 'momentum': 0.96165774099240242, 'neurons': 87, 'weight_constraint': 2}
****************************************************
mean mae=-4.730327 (std=1.420276) with: {'activation': 'softmax', 'batch_size': 76, 'dropout_rate': 0.92388570471050402, 'epochs': 720, 'init_mode': 'zero', 'learn_rate': 0.081775144221243615, 'momentum': 0.51825956136563645, 'neurons': 7, 'weight_constraint': 2}
mean mse=-104.343386 (std=64.947852) with: {'activation': 'softmax', 'batch_size': 76, 'dropout_rate': 0.92388570471050402, 'epochs': 720, 'init_mode': 'zero', 'learn_rate': 0.081775144221243615, 'momentum': 0.51825956136563645, 'neurons': 7, 'weight_constraint': 2}
mean r2=-0.164597 (std=0.073740) with: {'activation': 'softmax', 'batch_size': 76, 'dropout_rate': 0.92388570471050402, 'epochs': 720, 'init_mode': 'zero', 'learn_rate': 0.081775144221243615, 'momentum': 0.51825956136563645, 'neurons': 7, 'weight_constraint': 2}
mean ev=0.009581 (std=0.006814) with: {'activation': 'softmax', 'batch_size': 76, 'dropout_rate': 0.92388570471050402, 'epochs': 720, 'init_mode': 'zero', 'learn_rate': 0.081775144221243615, 'momentum': 0.51825956136563645, 'neurons': 7, 'weight_constraint': 2}
****************************************************
mean mae=-4.779196 (std=1.417031) with: {'activation': 'relu', 'batch_size': 26, 'dropout_rate': 0.26507878797325768, 'epochs': 623, 'init_mode': 'he_normal', 'learn_rate': 0.24805899088639646, 'momentum': 0.52734435101336563, 'neurons': 77, 'weight_constraint': 1}
mean mse=-106.139888 (std=65.856019) with: {'activation': 'relu', 'batch_size': 26, 'dropout_rate': 0.26507878797325768, 'epochs': 623, 'init_mode': 'he_normal', 'learn_rate': 0.24805899088639646, 'momentum': 0.52734435101336563, 'neurons': 77, 'weight_constraint': 1}
mean r2=-0.183573 (std=0.079319) with: {'activation': 'relu', 'batch_size': 26, 'dropout_rate': 0.26507878797325768, 'epochs': 623, 'init_mode': 'he_normal', 'learn_rate': 0.24805899088639646, 'momentum': 0.52734435101336563, 'neurons': 77, 'weight_constraint': 1}
mean ev=0.000058 (std=0.000161) with: {'activation': 'relu', 'batch_size': 26, 'dropout_rate': 0.26507878797325768, 'epochs': 623, 'init_mode': 'he_normal', 'learn_rate': 0.24805899088639646, 'momentum': 0.52734435101336563, 'neurons': 77, 'weight_constraint': 1}
****************************************************
mean mae=-5.306177 (std=0.896020) with: {'activation': 'softsign', 'batch_size': 44, 'dropout_rate': 0.54900498836709399, 'epochs': 813, 'init_mode': 'glorot_normal', 'learn_rate': 0.24184596065174183, 'momentum': 0.66883830194064531, 'neurons': 87, 'weight_constraint': 5}
mean mse=-87.766660 (std=60.741940) with: {'activation': 'softsign', 'batch_size': 44, 'dropout_rate': 0.54900498836709399, 'epochs': 813, 'init_mode': 'glorot_normal', 'learn_rate': 0.24184596065174183, 'momentum': 0.66883830194064531, 'neurons': 87, 'weight_constraint': 5}
mean r2=-0.060455 (std=0.320096) with: {'activation': 'softsign', 'batch_size': 44, 'dropout_rate': 0.54900498836709399, 'epochs': 813, 'init_mode': 'glorot_normal', 'learn_rate': 0.24184596065174183, 'momentum': 0.66883830194064531, 'neurons': 87, 'weight_constraint': 5}
mean ev=0.011362 (std=0.290587) with: {'activation': 'softsign', 'batch_size': 44, 'dropout_rate': 0.54900498836709399, 'epochs': 813, 'init_mode': 'glorot_normal', 'learn_rate': 0.24184596065174183, 'momentum': 0.66883830194064531, 'neurons': 87, 'weight_constraint': 5}
****************************************************
mean mae=-4.652987 (std=1.395461) with: {'activation': 'tanh', 'batch_size': 85, 'dropout_rate': 0.74523310464839376, 'epochs': 386, 'init_mode': 'normal', 'learn_rate': 0.0030614570997853836, 'momentum': 0.50149598477645985, 'neurons': 49, 'weight_constraint': 5}
mean mse=-101.369919 (std=64.662366) with: {'activation': 'tanh', 'batch_size': 85, 'dropout_rate': 0.74523310464839376, 'epochs': 386, 'init_mode': 'normal', 'learn_rate': 0.0030614570997853836, 'momentum': 0.50149598477645985, 'neurons': 49, 'weight_constraint': 5}
mean r2=-0.117480 (std=0.093172) with: {'activation': 'tanh', 'batch_size': 85, 'dropout_rate': 0.74523310464839376, 'epochs': 386, 'init_mode': 'normal', 'learn_rate': 0.0030614570997853836, 'momentum': 0.50149598477645985, 'neurons': 49, 'weight_constraint': 5}
mean ev=0.044544 (std=0.025771) with: {'activation': 'tanh', 'batch_size': 85, 'dropout_rate': 0.74523310464839376, 'epochs': 386, 'init_mode': 'normal', 'learn_rate': 0.0030614570997853836, 'momentum': 0.50149598477645985, 'neurons': 49, 'weight_constraint': 5}
****************************************************
mean mae=-4.971567 (std=0.928150) with: {'activation': 'tanh', 'batch_size': 69, 'dropout_rate': 0.12662269386908342, 'epochs': 712, 'init_mode': 'glorot_normal', 'learn_rate': 0.15840508599603595, 'momentum': 0.63481576838805709, 'neurons': 14, 'weight_constraint': 2}
mean mse=-88.335654 (std=55.563499) with: {'activation': 'tanh', 'batch_size': 69, 'dropout_rate': 0.12662269386908342, 'epochs': 712, 'init_mode': 'glorot_normal', 'learn_rate': 0.15840508599603595, 'momentum': 0.63481576838805709, 'neurons': 14, 'weight_constraint': 2}
mean r2=-0.134337 (std=0.545313) with: {'activation': 'tanh', 'batch_size': 69, 'dropout_rate': 0.12662269386908342, 'epochs': 712, 'init_mode': 'glorot_normal', 'learn_rate': 0.15840508599603595, 'momentum': 0.63481576838805709, 'neurons': 14, 'weight_constraint': 2}
mean ev=0.059124 (std=0.176919) with: {'activation': 'tanh', 'batch_size': 69, 'dropout_rate': 0.12662269386908342, 'epochs': 712, 'init_mode': 'glorot_normal', 'learn_rate': 0.15840508599603595, 'momentum': 0.63481576838805709, 'neurons': 14, 'weight_constraint': 2}
****************************************************
mean mae=-7.061643 (std=1.127444) with: {'activation': 'tanh', 'batch_size': 50, 'dropout_rate': 0.80314434739914209, 'epochs': 704, 'init_mode': 'glorot_normal', 'learn_rate': 0.094311322015759688, 'momentum': 0.90205988833501216, 'neurons': 93, 'weight_constraint': 4}
mean mse=-126.019989 (std=51.748110) with: {'activation': 'tanh', 'batch_size': 50, 'dropout_rate': 0.80314434739914209, 'epochs': 704, 'init_mode': 'glorot_normal', 'learn_rate': 0.094311322015759688, 'momentum': 0.90205988833501216, 'neurons': 93, 'weight_constraint': 4}
mean r2=-1.000170 (std=1.668202) with: {'activation': 'tanh', 'batch_size': 50, 'dropout_rate': 0.80314434739914209, 'epochs': 704, 'init_mode': 'glorot_normal', 'learn_rate': 0.094311322015759688, 'momentum': 0.90205988833501216, 'neurons': 93, 'weight_constraint': 4}
mean ev=-0.001652 (std=0.013289) with: {'activation': 'tanh', 'batch_size': 50, 'dropout_rate': 0.80314434739914209, 'epochs': 704, 'init_mode': 'glorot_normal', 'learn_rate': 0.094311322015759688, 'momentum': 0.90205988833501216, 'neurons': 93, 'weight_constraint': 4}
****************************************************
mean mae=-5.345228 (std=1.303128) with: {'activation': 'linear', 'batch_size': 90, 'dropout_rate': 0.14371249997362567, 'epochs': 378, 'init_mode': 'normal', 'learn_rate': 0.19759328632477921, 'momentum': 0.98933124512219572, 'neurons': 32, 'weight_constraint': 2}
mean mse=-93.782878 (std=58.846696) with: {'activation': 'linear', 'batch_size': 90, 'dropout_rate': 0.14371249997362567, 'epochs': 378, 'init_mode': 'normal', 'learn_rate': 0.19759328632477921, 'momentum': 0.98933124512219572, 'neurons': 32, 'weight_constraint': 2}
mean r2=-0.073268 (std=0.146127) with: {'activation': 'linear', 'batch_size': 90, 'dropout_rate': 0.14371249997362567, 'epochs': 378, 'init_mode': 'normal', 'learn_rate': 0.19759328632477921, 'momentum': 0.98933124512219572, 'neurons': 32, 'weight_constraint': 2}
mean ev=0.035373 (std=0.089579) with: {'activation': 'linear', 'batch_size': 90, 'dropout_rate': 0.14371249997362567, 'epochs': 378, 'init_mode': 'normal', 'learn_rate': 0.19759328632477921, 'momentum': 0.98933124512219572, 'neurons': 32, 'weight_constraint': 2}
****************************************************
mean mae=-4.610835 (std=1.160686) with: {'activation': 'sigmoid', 'batch_size': 92, 'dropout_rate': 0.60209239302906647, 'epochs': 718, 'init_mode': 'he_uniform', 'learn_rate': 0.066660235654986424, 'momentum': 0.53613126181746207, 'neurons': 84, 'weight_constraint': 2}
mean mse=-91.776847 (std=62.782432) with: {'activation': 'sigmoid', 'batch_size': 92, 'dropout_rate': 0.60209239302906647, 'epochs': 718, 'init_mode': 'he_uniform', 'learn_rate': 0.066660235654986424, 'momentum': 0.53613126181746207, 'neurons': 84, 'weight_constraint': 2}
mean r2=-0.016778 (std=0.106796) with: {'activation': 'sigmoid', 'batch_size': 92, 'dropout_rate': 0.60209239302906647, 'epochs': 718, 'init_mode': 'he_uniform', 'learn_rate': 0.066660235654986424, 'momentum': 0.53613126181746207, 'neurons': 84, 'weight_constraint': 2}
mean ev=0.073350 (std=0.077190) with: {'activation': 'sigmoid', 'batch_size': 92, 'dropout_rate': 0.60209239302906647, 'epochs': 718, 'init_mode': 'he_uniform', 'learn_rate': 0.066660235654986424, 'momentum': 0.53613126181746207, 'neurons': 84, 'weight_constraint': 2}
****************************************************
mean mae=-4.780323 (std=1.444666) with: {'activation': 'sigmoid', 'batch_size': 32, 'dropout_rate': 0.82548434576480789, 'epochs': 664, 'init_mode': 'uniform', 'learn_rate': 0.10087791850171869, 'momentum': 0.98569179918606331, 'neurons': 70, 'weight_constraint': 5}
mean mse=-105.953307 (std=65.682581) with: {'activation': 'sigmoid', 'batch_size': 32, 'dropout_rate': 0.82548434576480789, 'epochs': 664, 'init_mode': 'uniform', 'learn_rate': 0.10087791850171869, 'momentum': 0.98569179918606331, 'neurons': 70, 'weight_constraint': 5}
mean r2=-0.180698 (std=0.085231) with: {'activation': 'sigmoid', 'batch_size': 32, 'dropout_rate': 0.82548434576480789, 'epochs': 664, 'init_mode': 'uniform', 'learn_rate': 0.10087791850171869, 'momentum': 0.98569179918606331, 'neurons': 70, 'weight_constraint': 5}
mean ev=0.002510 (std=0.002243) with: {'activation': 'sigmoid', 'batch_size': 32, 'dropout_rate': 0.82548434576480789, 'epochs': 664, 'init_mode': 'uniform', 'learn_rate': 0.10087791850171869, 'momentum': 0.98569179918606331, 'neurons': 70, 'weight_constraint': 5}
****************************************************
mean mae=-4.791259 (std=1.142377) with: {'activation': 'sigmoid', 'batch_size': 30, 'dropout_rate': 0.3735749040517683, 'epochs': 750, 'init_mode': 'uniform', 'learn_rate': 0.16834262720386373, 'momentum': 0.87483174930802021, 'neurons': 29, 'weight_constraint': 5}
mean mse=-92.701382 (std=61.139831) with: {'activation': 'sigmoid', 'batch_size': 30, 'dropout_rate': 0.3735749040517683, 'epochs': 750, 'init_mode': 'uniform', 'learn_rate': 0.16834262720386373, 'momentum': 0.87483174930802021, 'neurons': 29, 'weight_constraint': 5}
mean r2=-0.038533 (std=0.073685) with: {'activation': 'sigmoid', 'batch_size': 30, 'dropout_rate': 0.3735749040517683, 'epochs': 750, 'init_mode': 'uniform', 'learn_rate': 0.16834262720386373, 'momentum': 0.87483174930802021, 'neurons': 29, 'weight_constraint': 5}
mean ev=0.072771 (std=0.038693) with: {'activation': 'sigmoid', 'batch_size': 30, 'dropout_rate': 0.3735749040517683, 'epochs': 750, 'init_mode': 'uniform', 'learn_rate': 0.16834262720386373, 'momentum': 0.87483174930802021, 'neurons': 29, 'weight_constraint': 5}
****************************************************
mean mae=-4.695530 (std=1.377190) with: {'activation': 'softmax', 'batch_size': 20, 'dropout_rate': 0.46450276552322278, 'epochs': 199, 'init_mode': 'he_uniform', 'learn_rate': 0.021003088747546941, 'momentum': 0.6779010526816871, 'neurons': 58, 'weight_constraint': 2}
mean mse=-100.677327 (std=64.891560) with: {'activation': 'softmax', 'batch_size': 20, 'dropout_rate': 0.46450276552322278, 'epochs': 199, 'init_mode': 'he_uniform', 'learn_rate': 0.021003088747546941, 'momentum': 0.6779010526816871, 'neurons': 58, 'weight_constraint': 2}
mean r2=-0.103510 (std=0.103841) with: {'activation': 'softmax', 'batch_size': 20, 'dropout_rate': 0.46450276552322278, 'epochs': 199, 'init_mode': 'he_uniform', 'learn_rate': 0.021003088747546941, 'momentum': 0.6779010526816871, 'neurons': 58, 'weight_constraint': 2}
mean ev=0.045867 (std=0.029101) with: {'activation': 'softmax', 'batch_size': 20, 'dropout_rate': 0.46450276552322278, 'epochs': 199, 'init_mode': 'he_uniform', 'learn_rate': 0.021003088747546941, 'momentum': 0.6779010526816871, 'neurons': 58, 'weight_constraint': 2}
****************************************************
mean mae=-4.771625 (std=1.437407) with: {'activation': 'tanh', 'batch_size': 64, 'dropout_rate': 0.097452204027542275, 'epochs': 466, 'init_mode': 'zero', 'learn_rate': 0.18772882885851844, 'momentum': 0.83847146390132354, 'neurons': 24, 'weight_constraint': 1}
mean mse=-105.990712 (std=65.504958) with: {'activation': 'tanh', 'batch_size': 64, 'dropout_rate': 0.097452204027542275, 'epochs': 466, 'init_mode': 'zero', 'learn_rate': 0.18772882885851844, 'momentum': 0.83847146390132354, 'neurons': 24, 'weight_constraint': 1}
mean r2=-0.183185 (std=0.079800) with: {'activation': 'tanh', 'batch_size': 64, 'dropout_rate': 0.097452204027542275, 'epochs': 466, 'init_mode': 'zero', 'learn_rate': 0.18772882885851844, 'momentum': 0.83847146390132354, 'neurons': 24, 'weight_constraint': 1}
mean ev=-0.000000 (std=0.000000) with: {'activation': 'tanh', 'batch_size': 64, 'dropout_rate': 0.097452204027542275, 'epochs': 466, 'init_mode': 'zero', 'learn_rate': 0.18772882885851844, 'momentum': 0.83847146390132354, 'neurons': 24, 'weight_constraint': 1}
****************************************************
mean mae=-4.777499 (std=1.503240) with: {'activation': 'relu', 'batch_size': 76, 'dropout_rate': 0.77051592220720944, 'epochs': 16, 'init_mode': 'glorot_uniform', 'learn_rate': 0.21302578993175286, 'momentum': 0.61110021970061812, 'neurons': 77, 'weight_constraint': 3}
mean mse=-106.500857 (std=66.892895) with: {'activation': 'relu', 'batch_size': 76, 'dropout_rate': 0.77051592220720944, 'epochs': 16, 'init_mode': 'glorot_uniform', 'learn_rate': 0.21302578993175286, 'momentum': 0.61110021970061812, 'neurons': 77, 'weight_constraint': 3}
mean r2=-0.195276 (std=0.064060) with: {'activation': 'relu', 'batch_size': 76, 'dropout_rate': 0.77051592220720944, 'epochs': 16, 'init_mode': 'glorot_uniform', 'learn_rate': 0.21302578993175286, 'momentum': 0.61110021970061812, 'neurons': 77, 'weight_constraint': 3}
mean ev=0.006740 (std=0.008341) with: {'activation': 'relu', 'batch_size': 76, 'dropout_rate': 0.77051592220720944, 'epochs': 16, 'init_mode': 'glorot_uniform', 'learn_rate': 0.21302578993175286, 'momentum': 0.61110021970061812, 'neurons': 77, 'weight_constraint': 3}
****************************************************
mean mae=-4.618347 (std=1.216956) with: {'activation': 'softplus', 'batch_size': 9, 'dropout_rate': 0.054826369918680055, 'epochs': 84, 'init_mode': 'he_normal', 'learn_rate': 0.0041194189312938525, 'momentum': 0.53240954614369884, 'neurons': 37, 'weight_constraint': 4}
mean mse=-94.459179 (std=61.936565) with: {'activation': 'softplus', 'batch_size': 9, 'dropout_rate': 0.054826369918680055, 'epochs': 84, 'init_mode': 'he_normal', 'learn_rate': 0.0041194189312938525, 'momentum': 0.53240954614369884, 'neurons': 37, 'weight_constraint': 4}
mean r2=-0.045043 (std=0.070855) with: {'activation': 'softplus', 'batch_size': 9, 'dropout_rate': 0.054826369918680055, 'epochs': 84, 'init_mode': 'he_normal', 'learn_rate': 0.0041194189312938525, 'momentum': 0.53240954614369884, 'neurons': 37, 'weight_constraint': 4}
mean ev=0.072442 (std=0.033206) with: {'activation': 'softplus', 'batch_size': 9, 'dropout_rate': 0.054826369918680055, 'epochs': 84, 'init_mode': 'he_normal', 'learn_rate': 0.0041194189312938525, 'momentum': 0.53240954614369884, 'neurons': 37, 'weight_constraint': 4}
****************************************************
