regulamentacao,funcionamento_predio_escolar,funcionamento_templo,funcionamento_empresa,funcionamento_outras_escolas,funcionamento_outros,forma_ocupacao,agua_rede_publica,agua_poco_artesiano,agua_cacimba,esgoto_rede_publica,esgoto_fossa,esgoto_inexistente,lixo_coleta_periodica,dependencia_diretoria,dependencia_professores,dependencia_secretaria,dependencia_laboratorio_informatica,dependencia_laboratorio_ciencias,dependencia_aee,dependencia_quadra_coberta,dependencia_quadra_descoberta,dependencia_cozinha,dependencia_biblioteca,dependencia_leitura,dependencia_parque_infantil,dependencia_bercario,dependencia_banheiro_fora,dependencia_banheiro_dentro,dependencia_banheiro_infantil,dependencia_banheiro_deficiencia,dependencia_vias_adequadas_deficiencia,dependencia_banheiro_chuveiro,dependencia_refeitorio,dependencia_despensa,dependencia_almoxarifado,dependencia_auditorio,dependencia_patio_coberto,dependencia_patio_descoberto,dependencia_alojamento_aluno,dependencia_alojamento_professor,dependencia_area_verde,dependencia_lavanderia,quantidade_salas_existentes,quantidade_salas_utilizadas_fora_e_dentro,equipamentos_televisao,equipamentos_videocassete,equipamentos_dvd,equipamentos_antena_parabolica,equipamentos_copiadora,equipamentos_retroprojetor,equipamentos_impressora,equipamentos_aparelho_som,equipamentos_projetor_multimidia,equipamentos_fax,equipamentos_maquina_fotografica,equipamentos_computadores,acesso_internet,banda_larga,total_funcionarios,modalidade_regular,modalidade_especial,modalidade_eja,brasil_alfabetizado,abre_finais_semana,'qtdDesistentes '
0.5,1,0,0,0,0,0,1,0,0,1,0,0,1,1,1,1,1,0,1,1,1,1,1,0,0,0,0,1,0,1,0,1,1,1,1,1,0,0,0,0,0,0,0.85,0.85,0,0,0.25,0,0.2,0.2,0.2,0.052632,0,0,0.125,0.014085,1,1,0.834862,1,0,1,0,0,39
0.5,1,0,0,0,0,0.5,1,0,0,1,0,0,1,1,1,1,1,0,0,0,0,1,1,0,0,0,0,1,0,0,1,0,0,1,0,0,0,0,0,0,0,0,0.4,0.4,0.615385,0,0.5,0,0.4,0.2,0,0.263158,0.125,0,0.375,0.183099,1,1,0.495413,1,0,1,0,1,0
0.5,1,0,0,0,0,0,1,0,0,1,0,0,1,1,1,1,1,1,0,0,1,1,1,0,0,0,0,1,0,1,1,0,1,0,1,0,0,0,0,0,0,0,0.5,0.5,0.230769,0,0,1,0.4,0,0.2,0.105263,0.25,0,0.25,0.084507,1,1,0.761468,1,0,1,1,1,0
0.5,1,0,0,0,0,0,1,0,0,1,0,0,1,1,1,1,1,0,0,1,1,1,1,0,0,0,0,1,0,0,0,0,1,1,1,0,1,1,0,0,0,0,0.8,0.8,0.384615,0,0.416667,0,0.4,0.2,0,0.105263,0.125,0,0.375,0.014085,1,1,0.761468,1,0,1,0,1,0
0.5,1,0,0,0,0,1,1,0,0,1,0,0,1,1,1,1,1,0,1,0,0,1,0,1,1,0,0,1,1,1,1,1,1,0,1,0,0,1,0,0,0,0,0.6,0.6,0.307692,0,0.333333,0,0,0,0.6,0.315789,0,0,0.25,0.014085,1,1,0.385321,1,0,0,0,0,2
0.5,1,0,0,0,0,0,1,0,0,0,1,0,1,0,1,1,0,0,1,0,0,1,1,0,0,0,1,1,0,0,0,1,1,1,1,0,0,0,0,0,0,0,0.65,0.65,0.076923,0,0.083333,0,0.2,0,0,0.105263,0,0,0.375,0.056338,1,1,0.477064,1,0,1,0,1,10
0.5,1,0,0,0,0,0,1,0,0,0,1,0,1,1,1,1,1,1,1,1,1,1,1,0,0,0,0,1,0,1,0,1,1,0,1,0,0,0,0,0,1,0,0.6,0.6,0.153846,0,0.166667,0,0.4,0.2,0.2,0.105263,0.25,0,0.125,0.253521,1,1,0.522936,1,0,1,0,1,19
0.5,1,0,0,0,0,0,1,0,0,1,0,0,1,1,1,1,1,0,0,0,1,1,1,0,0,0,0,1,0,0,0,0,1,1,1,1,0,0,0,0,1,0,0.85,0.85,0.076923,0,0.25,0,0.2,0.6,0,0.052632,0,0,0.25,0.028169,1,1,0.66055,1,0,1,0,0,1
0.5,1,0,0,0,0,0,1,0,0,0,1,0,1,1,1,1,1,0,1,1,1,1,1,1,1,0,1,0,0,1,1,1,1,0,1,0,0,0,0,0,0,0,0.55,0.55,0.230769,0,0.166667,0,0.2,0.2,0,0.052632,0,1,0.125,0.408451,1,1,0.59633,1,0,1,0,1,1
0.5,1,0,0,0,0,0,1,0,1,0,1,0,1,1,1,1,1,1,1,1,1,1,1,0,0,0,0,1,0,1,1,1,1,1,1,0,0,0,0,0,0,0,0.6,0.6,0.384615,0,0,0,0.2,0.2,0.8,0.105263,0.125,0,0.125,0.014085,1,1,0.541284,1,0,1,0,1,0
0.5,1,0,0,0,0,0,1,0,0,1,0,0,1,1,1,1,1,1,1,0,1,1,1,1,1,0,0,1,0,1,1,0,1,1,1,1,0,0,0,0,0,0,0.65,0.65,0.076923,0,0.083333,1,0.2,0.2,0.2,0,0,0,0.125,0.112676,1,1,0.651376,1,0,1,1,0,6
0.5,1,0,0,0,0,0,1,0,0,0,1,0,1,1,1,1,1,0,1,0,1,1,1,0,0,0,0,1,0,1,0,1,1,1,1,0,0,0,0,0,0,0,0.45,0.45,0.846154,0,1,0,0.2,0.2,0.2,0,0.125,1,0,0.267606,1,1,0.247706,1,0,0,0,1,2
0.5,1,0,0,0,0,0,1,0,0,1,1,0,1,1,1,1,1,0,1,1,1,1,1,0,0,0,0,1,0,1,0,0,1,1,1,0,0,0,0,0,0,0,0.75,0.75,0.076923,0,0.166667,0,0,0.2,0,0.105263,0,0,0.125,0.056338,1,1,0.752294,1,0,1,1,1,6
0.5,1,0,0,0,0,0,1,0,0,1,0,0,1,1,1,1,1,0,1,1,1,1,1,0,0,0,0,1,0,1,1,1,0,1,1,0,0,0,0,0,0,0,0.45,0.45,0.153846,0,0.083333,1,0.4,0.4,0.2,0.052632,0.125,1,0.375,0.183099,1,1,0.605505,1,0,1,1,1,30
0.5,1,0,0,0,0,0,0,1,0,1,0,0,1,1,1,1,1,0,0,0,0,1,1,0,0,0,0,1,0,1,1,1,1,1,1,1,0,0,0,0,1,0,0.7,0.7,0.076923,0,0.083333,0,0.2,0.2,0,0.052632,0,0,0.25,0.126761,1,1,0.559633,1,0,1,1,1,0
0.5,1,0,0,0,0,0,1,0,0,0,1,0,1,1,1,1,1,0,0,0,1,1,1,0,0,0,0,1,0,1,0,0,1,1,1,1,1,0,0,0,0,0,0.6,0.6,0.076923,0,0.166667,0,0.2,0.2,0,0.263158,0,0,0,0.014085,1,0,0.669725,1,0,1,0,0,0
0.5,1,0,0,0,0,0.5,1,0,0,1,0,0,1,1,1,1,1,1,1,1,1,1,1,0,0,0,0,1,0,1,1,1,1,1,1,1,0,0,0,0,1,0,0.7,0.7,0.076923,0,0.333333,0,0.2,0,0,0.105263,0,0,0.125,0.112676,1,1,0.93578,1,0,0,0,1,1
0.5,1,0,0,0,0,0,1,0,0,0,1,0,1,1,1,1,1,1,1,1,1,1,1,1,1,0,0,1,1,1,1,1,1,1,1,0,0,0,0,0,1,1,1,1,0,0,0.25,0,0.6,0.2,0.6,0.421053,0.25,0,0.125,1,1,1,1,1,0,1,1,1,14
0.5,1,0,0,0,0,0,1,0,0,1,0,0,1,1,1,1,1,0,1,0,0,1,1,0,0,0,0,1,0,0,0,1,0,0,1,0,1,0,0,0,0,0,0.5,0.5,0.153846,0,0.416667,1,0,0,0.2,0.052632,0.125,1,0.625,0.014085,1,1,0.541284,1,0,0,0,1,0
0.5,1,0,0,0,0,0,1,0,0,1,0,0,1,1,0,1,1,0,0,0,0,1,0,1,0,0,0,0,0,0,0,1,0,0,0,0,1,0,0,0,0,0,0.25,0.25,0.538462,0,0.75,0,0.4,0.6,0,0.210526,0.25,0,0.25,0.014085,1,1,0.431193,1,0,1,0,1,0
0.5,1,0,0,0,0,0,1,0,0,1,0,0,1,1,1,1,1,0,0,0,0,1,0,1,0,0,0,1,1,0,0,1,0,1,1,0,1,0,0,0,0,0,0.35,0.35,0.230769,0,0.25,0,0.2,0.2,0,0.105263,0.25,0,0.375,0.014085,1,1,0.229358,1,0,1,0,0,0
0.5,1,0,0,0,0,0,0,1,0,0,1,0,1,1,1,1,1,0,1,0,0,1,0,0,0,0,0,1,0,1,1,1,0,1,1,0,1,1,0,0,0,1,0.4,0.4,0.076923,0.125,0.166667,1,0.2,0.2,0,0.105263,0,1,0.125,0.014085,1,1,0.486239,1,0,1,0,0,1
0.5,1,0,0,0,0,0,1,0,0,0,1,0,1,1,1,1,0,0,0,0,0,1,1,0,0,0,0,1,0,0,0,0,1,1,0,0,0,0,0,0,0,0,0.25,0.25,0.230769,0,0.083333,0,0.2,0,0,0.052632,0,0,0.125,0.267606,1,1,0.431193,1,0,1,0,1,1
0.5,1,0,0,0,0,0,1,0,0,0,1,0,1,1,0,1,1,0,0,0,0,1,1,0,0,0,0,1,0,1,0,1,0,1,1,0,1,1,0,0,0,0,0.3,0.3,0.076923,0,0.25,0,0.2,0.2,0.6,0.105263,0.125,0,0.375,0.014085,1,1,0.275229,1,0,0,0,1,0
0.5,1,0,0,0,0,0,1,0,0,1,0,0,1,1,0,0,1,0,0,0,0,1,0,0,0,0,0,1,0,1,0,1,0,0,1,0,0,0,0,0,0,0,0.25,0.25,0,0,0.083333,0,0,0.2,0.2,0,0,0,0,0.042254,1,1,0.275229,1,0,0,0,1,0
0.5,1,0,0,0,0,1,1,0,0,0,1,0,1,1,1,0,1,0,0,0,0,1,0,1,0,0,0,1,0,0,1,1,1,1,1,0,0,0,0,0,0,0,0.25,0.25,0.076923,0,0.166667,0,0.2,0,0,0.052632,0,0,0.125,0.140845,1,1,0.293578,1,0,0,0,1,1
0.5,1,0,0,0,0,0,1,0,1,1,0,0,1,1,1,1,1,0,0,0,0,0,1,0,0,0,0,1,0,1,0,1,0,1,1,0,0,0,0,0,0,0,0.45,0.45,0.076923,0,0.166667,0,0,0,0.2,0.263158,0.25,0,0,0.056338,1,1,0.412844,1,0,1,0,0,8
0.5,1,0,0,0,0,0,0,1,0,0,1,0,0,1,1,1,0,1,1,1,1,1,1,0,0,0,0,1,0,1,0,0,1,0,1,0,0,0,0,0,0,0,0.7,0.7,0,0,0.166667,0,0.2,0,0,0.105263,0.125,0,0.125,0.112676,1,1,0.752294,1,0,1,0,1,4
0.5,1,0,0,0,0,0,1,1,0,1,0,0,1,1,1,1,1,0,0,0,0,1,1,0,0,0,0,1,0,1,0,1,1,0,1,0,0,1,0,0,0,0,0.5,0.5,0.384615,0,0.416667,0,0.2,0,0.2,0.263158,0.125,1,0.625,0.014085,1,1,0.614679,1,0,1,0,0,2
0.5,1,0,0,0,0,0,1,0,0,0,1,0,1,0,0,1,1,0,0,1,1,1,0,0,0,0,0,1,1,1,1,1,1,1,1,0,1,0,0,0,0,0,0.3,0.3,0.153846,0,0.166667,0,0,0.2,0,0.052632,0,1,0.125,0.014085,1,1,0.201835,1,0,0,0,1,1
0.5,1,0,0,0,0,0,1,0,0,0,1,0,1,1,0,1,1,0,0,0,0,1,0,0,0,0,0,1,0,0,0,1,0,0,1,0,0,1,0,0,0,0,0.25,0.25,0.307692,0,0.25,0,0.2,0.4,0.4,0.105263,0.25,0,0.25,0.014085,1,1,0.266055,1,0,0,0,0,0
0.5,1,0,0,0,0,0.5,1,0,1,0,1,0,1,1,1,0,0,0,0,0,0,1,0,0,0,0,0,1,0,0,0,0,1,1,0,0,0,0,0,0,0,0,0.4,0.4,0.076923,0,0.166667,0,0.2,0,0,0.052632,0,0,0.25,0.422535,1,1,0.513761,1,0,0,0,1,8
0.5,1,0,0,0,0,0,1,0,0,1,0,0,1,1,0,1,0,0,1,0,0,1,0,0,0,0,1,1,1,1,1,1,1,1,1,0,1,0,0,0,0,0,0.45,0.45,0.384615,0,0.166667,0,0.2,0.2,0.2,0.105263,0,1,0.125,0.014085,1,1,0.46789,1,0,1,0,0,2
0.5,1,0,0,0,0,0,1,0,0,1,0,0,1,0,1,1,1,0,0,0,0,1,1,0,0,0,1,0,0,0,0,0,0,0,1,0,1,0,0,0,0,0,0.6,0.6,0.538462,0.125,0.416667,0,0.4,0.2,0.2,0.157895,0.125,0,0.125,0.014085,1,1,0.495413,1,0,1,0,1,0
0.5,1,0,0,0,0,0,1,0,0,1,0,0,1,0,1,1,1,0,1,0,0,1,0,1,0,0,0,1,0,0,0,1,0,1,1,0,0,0,0,0,0,0,0.3,0.3,0.153846,0.125,0.083333,0,0.2,0.2,0,0,0,0,0,0.014085,0,0,0.266055,1,0,1,0,1,1
0.5,1,0,0,0,0,0,1,0,0,1,0,0,1,1,1,1,1,0,1,0,0,1,1,0,0,0,0,1,0,1,0,1,0,1,0,0,0,0,0,0,0,0,0.3,0.3,0.230769,0.125,0.083333,0,0.2,0.2,0.2,0.052632,0,0,0.125,0.211268,1,0,0.275229,1,0,0,1,0,1
0.5,1,0,0,0,0,1,1,0,0,1,0,0,1,0,1,1,1,0,0,0,0,0,1,0,0,0,0,1,0,1,0,0,1,0,1,0,1,0,0,0,0,0,0.55,0.55,0.076923,0,0.333333,0,0.2,0.2,0.4,0.473684,0,1,0.125,0.014085,1,1,0.284404,1,0,0,0,0,2
0.5,1,0,0,0,0,0,1,0,0,0,1,0,1,1,1,1,1,0,1,0,0,1,1,0,0,0,0,1,0,1,0,1,1,0,1,0,0,0,0,0,1,0,0.55,0.55,0.384615,0,0.5,0,0.4,0.2,0.8,0.421053,0.125,0,0.375,0.380282,1,1,0.66055,1,0,1,1,1,15
0.5,1,0,0,0,0,0,1,0,0,0,1,0,1,1,1,0,0,0,0,0,0,1,0,0,0,0,0,1,0,0,0,1,0,0,1,0,0,0,0,0,0,0,0.25,0.25,0.153846,0,0.416667,1,0.2,0.2,0.6,0.578947,0.125,1,0.375,0.450704,1,1,0.266055,1,0,0,0,0,1
0.5,1,0,0,0,0,0.5,1,0,0,0,1,0,1,1,1,1,1,0,0,0,0,1,1,0,0,0,0,1,1,0,0,0,1,0,1,0,0,0,0,0,0,0,0.2,0.2,0.384615,0.625,0.416667,0,0.4,0.4,0.2,0.263158,0.125,0,0.125,0.112676,1,1,0.293578,1,0,0,0,1,1
0.5,1,0,0,0,0,0,1,0,0,1,0,0,1,1,1,1,1,0,1,0,0,1,1,0,0,0,0,1,1,1,0,1,0,1,1,0,0,0,0,0,0,0,0.45,0.45,0.153846,0.125,0.166667,0,0.6,0.2,0.8,0.736842,0,0,0.25,0.309859,1,1,0.40367,1,0,1,0,0,10
0.5,0,0,0,0,1,0,1,0,0,0,1,0,1,1,0,0,0,0,0,0,0,1,0,1,0,0,0,1,0,0,0,0,0,0,0,0,0,0,0,0,0,0,0.15,0.15,0.076923,0,0,0,0,0,0.4,0.105263,0,0,0,0.014085,1,1,0.357798,1,0,1,0,0,20
0.5,1,0,0,0,0,0,1,0,0,0,1,0,1,1,1,1,1,0,0,0,0,0,0,1,0,0,0,1,0,1,0,1,1,1,1,0,0,0,0,0,0,0,0.35,0.35,0.769231,0,0.75,0,0.2,0,0.4,0.105263,0,0,0.25,0.253521,1,1,0.422018,1,0,0,0,0,2
0.5,1,0,0,0,0,0,1,0,0,1,0,0,1,1,1,1,1,0,1,0,1,1,1,0,1,0,0,1,0,0,0,0,1,0,1,0,0,0,0,0,0,0,0.65,0.65,0.153846,0,0.166667,0,0.2,0.2,0.2,0.052632,0.375,0,0,0.380282,1,1,0.394495,1,0,1,0,1,1
0.5,1,0,0,0,0,0,1,0,0,0,1,0,1,1,1,1,1,0,0,0,0,1,1,0,0,0,0,1,0,0,0,1,0,1,1,0,0,0,0,0,0,0,0.45,0.45,0.153846,0,0.166667,1,0.2,0,0,0.157895,0.125,1,0.125,0.323944,1,1,0.550459,1,0,1,1,1,3
0.5,1,0,0,0,0,0,1,0,0,0,1,0,1,1,1,1,1,0,1,0,0,1,0,0,0,0,1,1,0,1,0,0,0,0,1,0,1,0,0,0,0,0,0.25,0.25,0.076923,0,0.166667,0,0,0,0.2,0.368421,0.25,0,0.5,0.014085,1,0,0.422018,1,0,1,0,0,0
0.5,1,0,0,0,0,0,1,0,0,1,0,0,1,1,1,1,1,0,0,0,0,1,1,0,0,0,0,1,0,0,1,1,1,0,1,0,0,0,0,0,0,0,0.55,0.55,0.153846,0,0.166667,1,0.4,0,0.2,0.105263,0.125,1,0.25,0.211268,1,1,0.541284,1,0,1,0,1,1
0.5,1,0,0,0,0,0,1,0,0,1,0,0,1,1,0,1,1,0,0,0,0,1,1,0,0,0,0,1,0,1,0,0,1,1,0,0,0,0,0,0,1,0,0.4,0.4,0.230769,0,0.25,0,0.2,0,0,0.210526,0,0,0,0.323944,1,1,0.412844,1,0,1,0,1,2
0.5,1,0,0,0,0,0,1,0,0,1,0,0,1,1,1,1,1,0,1,0,0,1,0,0,0,0,0,1,0,1,1,1,0,1,1,0,0,0,0,0,0,0,0.2,0.2,0.384615,0,0.5,0,0.6,0.2,0.2,0.263158,0,0,0.125,0.070423,1,1,0.247706,1,0,0,1,1,1
0.5,1,0,0,0,0,0,1,0,0,0,1,0,1,0,0,1,0,0,1,0,0,1,0,0,0,0,0,1,0,1,0,1,0,1,1,1,0,0,0,0,0,0,0.25,0.25,0.076923,0,0.25,0,0.6,0,0.4,0.368421,0.125,0,0.375,0.183099,1,1,0.284404,1,0,0,0,0,2
0.5,1,0,0,0,0,0,1,0,0,1,0,0,1,1,1,1,1,0,0,0,0,1,1,0,0,0,0,1,0,1,1,1,0,1,1,0,1,0,0,0,0,0,0.3,0.3,0.384615,0,0.25,0,0.4,0,0.6,0.315789,0.125,1,0.125,0.014085,1,1,0.311927,1,0,1,1,1,2
0.5,1,0,0,0,0,0,0,0,1,1,0,0,1,0,0,1,0,0,0,0,0,1,1,0,0,0,0,1,0,0,0,1,0,1,1,0,0,0,0,0,0,0,0.3,0.3,0.076923,0,0.166667,0,0.2,0,0,0,0.125,0,0,0.028169,1,1,0.284404,1,0,1,0,1,13
0.5,1,0,0,0,0,0,1,0,0,1,0,0,1,1,1,1,1,0,0,0,0,1,1,0,0,0,0,1,0,0,0,0,0,0,1,0,0,0,0,0,0,0,0.25,0.25,0,0,0.083333,1,0.2,0,0,0.105263,0.125,0,0,0.169014,1,1,0.33945,1,0,1,0,1,35
0.5,1,0,0,0,0,0,1,0,0,0,1,0,1,0,0,1,0,0,0,0,0,1,0,0,0,0,0,1,0,0,0,1,0,0,0,0,0,0,0,0,0,0,0.15,0.15,0.307692,0,0.333333,1,0.4,0,0.2,0,0.125,0,0.25,0.169014,1,1,0.256881,1,0,1,1,0,9
0.5,1,0,0,0,0,1,1,0,0,1,0,0,1,1,0,0,0,0,0,0,0,1,0,0,0,0,0,1,0,0,0,0,0,1,0,0,0,0,0,0,0,0,0.15,0.15,0.230769,0,0.333333,0,0.4,0,0.2,0.157895,0.125,0,0.125,0.211268,1,1,0.201835,1,0,1,0,1,9
0.5,1,0,0,0,0,0,1,0,0,0,1,0,1,1,0,0,0,0,0,0,0,1,0,1,0,0,0,1,0,0,0,0,1,0,1,0,0,0,0,0,0,0,0.25,0.25,0.307692,0,0.166667,0,0.2,0,0.2,0,0.25,0,0.125,0.028169,1,1,0.183486,1,0,0,0,0,0
0.5,1,0,0,0,0,0,1,0,0,1,0,0,1,1,1,1,0,0,0,0,0,1,0,0,0,0,0,1,0,1,0,1,1,0,1,0,0,0,0,0,0,0,0.25,0.25,0,0,0.166667,0,0.4,0,0.2,0.263158,0,0,0.25,0.028169,1,1,0.284404,1,0,0,0,0,1
0.5,1,0,0,0,0,0,1,0,0,1,0,0,1,1,0,1,1,0,0,0,0,1,0,1,0,0,0,1,1,0,0,1,1,1,1,0,0,0,0,0,0,0,0.3,0.3,0.461538,0,0.333333,0,0.2,0,0,0.105263,0,0,0,0.028169,1,1,0.330275,1,0,0,0,0,5
0.5,1,0,0,0,0,0,1,0,0,1,0,0,1,1,1,1,1,0,1,0,1,1,1,0,1,0,0,1,1,1,1,1,1,1,1,0,1,1,0,0,1,0,0.55,0.55,0.153846,0,0.25,1,0.2,0,0.4,0.157895,0.25,0,0.25,0.014085,1,1,0.495413,1,0,1,0,1,0
0.5,1,0,0,0,0,0,1,0,0,1,0,0,1,1,1,1,1,1,0,1,1,1,1,0,0,0,0,1,0,1,0,1,1,1,1,1,0,0,0,0,1,0,0.95,0.95,0,0,0.083333,0,0.2,0.4,0,0,0.25,1,0.125,0.042254,1,1,0.504587,1,0,0,0,1,1
0.5,1,1,0,0,0,1,1,0,0,1,0,0,1,1,0,1,1,0,0,0,0,1,1,0,0,0,0,1,0,0,0,1,1,0,1,0,0,1,0,0,0,0,0.2,0.2,0.461538,0,0.416667,1,0.4,0,0.4,0.263158,0.125,0,1,0.014085,1,1,0.275229,1,0,1,0,0,0
0.5,1,0,0,0,0,0.5,1,0,0,0,1,0,1,0,1,1,0,0,0,0,0,1,0,0,0,0,0,1,0,0,0,1,1,0,1,0,0,0,0,0,0,0,0.15,0.15,0.230769,0,0.166667,0,0.2,0,0,0.210526,0,0,0.125,0.098592,1,1,0.174312,1,0,0,0,0,4
0.5,1,0,0,0,0,0,1,0,0,1,0,0,1,1,0,1,0,0,0,0,0,1,1,0,0,0,0,1,0,1,0,1,0,1,1,0,0,0,0,0,0,0,0.25,0.25,0.307692,0,0.333333,0,0.4,0,0.4,0.315789,0.125,0,0.25,0.126761,1,1,0.385321,1,0,1,0,1,4
0.5,1,0,0,0,0,0,1,0,0,1,0,0,1,1,1,1,0,0,0,0,0,1,0,0,0,0,0,1,0,0,0,1,0,0,0,0,0,0,0,0,0,0,0.55,0.55,0,0,0,0,0.2,0,0,0.105263,0,0,0,0.042254,1,1,0.247706,1,0,1,0,0,14
0.5,1,0,0,0,0,0,1,0,0,0,1,0,1,1,1,1,1,0,0,0,0,1,0,0,0,0,0,1,1,0,0,1,0,1,1,0,0,0,0,0,0,0,0.75,0.75,0.076923,0,0.166667,0,0.2,0,0.2,0.473684,0,0,0.125,0.028169,1,0,0.87156,1,0,0,0,0,1
0.5,1,0,0,0,0,0,1,0,0,1,0,0,1,1,1,1,1,0,0,1,1,1,0,1,0,0,0,1,1,0,0,1,0,1,1,0,0,0,0,0,0,0,0.35,0.35,0.076923,0,0.333333,0,0.4,0.2,0.2,0.157895,0.125,0,0.25,0.140845,1,1,0.422018,1,0,1,0,0,53
0.5,0,1,0,0,0,0,1,0,0,1,0,0,1,1,0,1,1,0,1,0,0,1,1,0,0,0,0,1,0,0,0,0,0,1,1,0,0,0,0,0,0,0,0.45,0.45,0.076923,0.25,0.166667,0,0.2,0,0.2,0.105263,0,0,0.25,0.169014,1,1,0.495413,1,0,1,0,1,9
0.5,1,0,0,0,0,0,1,0,0,1,0,0,1,0,0,1,1,0,1,0,0,1,1,0,0,0,0,1,0,1,1,0,1,1,0,0,0,0,0,0,0,0,0.15,0.15,0.230769,0,0.166667,0,0.2,0.2,0.2,0,0,0,0,0.112676,1,1,0.293578,1,0,1,0,1,0
0.5,1,0,0,0,0,0,1,0,0,1,0,0,1,1,0,1,0,0,1,0,0,1,1,0,0,0,0,1,0,1,1,1,0,1,1,0,0,0,0,0,0,1,0.4,0.4,0.307692,0,0.25,0,0.2,0.2,0,0.105263,0,0,0.125,0.169014,1,1,0.357798,1,0,1,0,1,12
0.5,1,0,0,0,0,0,1,0,0,0,1,0,1,0,0,0,1,0,0,0,0,1,0,0,0,0,0,1,0,0,0,0,0,0,0,0,0,0,0,0,0,0,0.5,0.5,0.153846,0,0.333333,0,0.2,0,0,0.105263,0.125,0,0.125,0.056338,1,1,0.477064,1,0,1,0,0,0
0.5,1,0,0,0,0,0,1,0,0,1,0,0,1,1,1,1,1,1,1,0,1,1,1,0,0,0,0,1,0,1,1,1,1,0,0,0,0,0,0,0,1,0,0.65,0.65,0.230769,0,0.25,0,0.2,0.2,0,0.210526,0,0,0.125,0.112676,1,1,0.688073,1,0,0,1,1,6
0.5,1,0,0,0,0,0.5,1,0,0,0,1,0,1,0,0,1,1,0,0,0,0,1,0,0,0,0,1,0,0,1,1,1,0,0,0,0,0,0,0,0,0,0,0.2,0.2,0.153846,0,0.083333,0,0.2,0.2,0,0.210526,0,1,0.25,0.15493,1,1,0.247706,1,0,1,0,0,0
0.5,1,0,0,0,0,0,1,0,0,0,1,0,1,1,1,1,1,0,1,1,1,1,0,0,1,0,0,1,1,1,1,1,1,1,1,1,0,0,0,0,0,0,0.45,0.45,0.384615,0,0.333333,0,0.2,0.4,0,0.157895,0.125,0,0.125,0.704225,1,0,0.633028,1,1,1,0,1,0
0.5,1,0,0,0,0,1,1,0,0,1,0,0,1,0,1,1,0,0,0,0,0,1,0,0,0,0,0,1,0,0,0,0,0,0,1,0,0,0,0,0,0,0,0.35,0.35,0.384615,0,0.5,0,0.2,0.2,0,0.157895,0,0,0.25,0.014085,1,1,0.293578,1,0,1,0,1,1
0.5,1,0,0,0,0,0,1,0,0,1,0,0,1,1,0,1,0,0,0,0,0,1,1,0,0,0,0,1,0,1,1,1,0,1,1,0,0,0,0,0,0,0,0.2,0.2,0.076923,0,0.166667,0,0.2,0.2,0,0.052632,0.125,0,0.25,0.112676,1,1,0.211009,1,0,1,0,0,0
0.5,1,0,0,0,0,0,1,0,1,0,1,0,1,1,1,1,1,0,0,0,0,1,1,0,0,0,0,1,0,1,0,1,0,0,1,0,1,0,0,0,0,0,0.4,0.4,0.230769,0,0.166667,0,0.4,0.2,0,0.105263,0.125,0,0.375,0.014085,1,1,0.366972,1,0,0,0,1,0
0.5,1,0,0,0,0,0.5,1,0,0,1,0,0,1,1,0,0,0,0,0,1,1,1,0,0,0,0,0,1,0,0,0,1,0,0,1,0,0,0,0,0,0,0,0.3,0.3,0.538462,0,0.666667,0,0.4,0.2,0,0.210526,0.125,0,0.25,0.450704,1,1,0.284404,1,0,0,0,0,1
0.5,1,0,0,0,0,1,1,0,0,1,0,0,1,1,1,1,1,0,1,0,0,1,1,0,0,0,0,1,0,1,0,0,1,0,1,0,0,0,0,0,0,0,0.3,0.3,0.153846,0,0.166667,0,0.4,0,0,0.105263,0.125,0,0,0.014085,1,1,0.311927,1,0,0,0,0,1
0.5,1,0,0,0,0,0.5,1,0,0,1,0,0,1,1,0,0,0,0,0,0,0,1,1,0,0,0,0,1,0,0,0,1,0,1,1,0,0,0,0,0,0,0,0.15,0.15,0.307692,0,0.25,0,0.2,0,0,0.052632,0,0,0.25,0.408451,1,1,0.229358,1,0,0,0,0,3
0.5,1,0,0,0,0,0,1,0,0,0,1,0,1,0,1,0,1,0,0,0,0,1,1,0,0,0,0,1,0,1,0,1,1,0,1,0,1,0,0,0,0,0,0.25,0.25,0.076923,0,0.166667,0,0.2,0.2,0,0,0.125,0,0.125,0.014085,1,1,0.275229,1,0,1,0,0,0
0.5,1,0,0,0,0,0.5,1,0,0,0,1,0,1,0,1,1,0,0,0,0,0,1,0,1,0,0,1,1,0,0,0,0,0,0,0,0,0,0,0,0,0,0,0.25,0.25,0.076923,0,0.166667,0,0.2,0,0,0.157895,0,0,0.25,0.112676,1,1,0.321101,1,0,1,0,1,7
0.5,1,0,0,0,0,0,1,0,0,0,1,0,1,1,1,0,0,0,1,0,0,1,1,0,0,0,0,1,1,1,1,0,0,1,1,0,0,0,0,0,0,0,0.35,0.35,0.153846,0,0.083333,0,0.6,0.2,0.4,0.210526,0,0,0.25,0.169014,1,1,0.275229,1,0,0,0,0,0
0.5,1,0,0,0,0,0,1,0,0,0,1,0,1,1,1,1,0,0,1,0,0,1,1,0,0,0,0,1,0,1,0,1,0,0,1,0,0,0,0,0,0,0,0.75,0.75,1,0,0.166667,0,0.2,0.2,0.2,0.157895,0.125,0,0,0.408451,1,1,0.486239,1,0,0,1,0,0
0.5,1,0,0,0,0,1,1,0,0,1,0,0,1,1,1,1,0,0,1,0,0,1,0,1,0,0,0,1,1,1,0,1,1,0,1,0,0,0,0,0,1,0,0.4,0.4,0.153846,0,0.333333,0,0.2,0.2,0.4,0.157895,0,0,0.125,0.084507,1,1,0.440367,1,0,0,0,1,1
0.5,1,0,0,0,0,1,1,0,0,1,0,0,1,1,1,1,1,0,1,0,0,1,1,1,0,0,0,1,0,1,1,1,1,1,1,0,1,0,0,0,0,0,0.45,0.45,0.076923,0.125,0.083333,0,0.2,0,0,0,0.25,0,0.125,0.014085,1,1,0.504587,1,0,1,0,1,0
0.5,1,0,0,0,0,0,1,0,0,1,0,0,1,1,0,0,1,0,0,0,0,1,0,0,0,0,0,1,0,0,0,0,0,0,0,0,0,0,0,0,0,0,0.2,0.2,0.230769,0,0.333333,0,0.2,0,0.2,0.210526,0,1,0.25,0.014085,1,1,0.266055,1,0,1,1,1,0
0.5,1,0,0,0,0,0,1,0,0,1,0,0,1,1,0,1,1,0,0,0,0,1,1,0,0,0,0,1,0,1,0,1,1,1,1,0,1,0,0,0,0,0,0.35,0.35,0.076923,0,0.25,0,0.2,0.2,0.2,1,0,0,0.375,0.014085,1,1,0.321101,1,0,1,1,1,0
1,1,0,0,0,0,0.5,1,0,0,1,0,0,1,0,0,1,0,0,0,0,0,1,1,0,0,0,1,1,1,0,0,1,0,1,0,0,0,0,0,0,0,0,0.15,0.15,0.153846,0,0.166667,0,0.6,0.4,0.4,0.052632,0.125,0,0.125,0.028169,1,1,0.183486,1,0,1,0,0,8
0.5,1,0,0,0,0,0,1,0,0,0,1,0,1,1,1,1,1,0,1,0,0,1,0,0,0,0,0,1,0,0,0,0,0,1,1,0,1,1,0,0,0,0,0.5,0.5,0.076923,0,0.416667,0,0.2,0.4,0,0.210526,0,0,0.25,0.014085,1,1,0.550459,1,0,1,1,0,0
0.5,1,0,0,0,0,0,1,0,0,1,0,0,1,1,0,1,1,0,0,0,0,1,0,1,0,0,0,1,0,1,0,1,0,1,1,0,0,0,0,0,0,0,0.6,0.6,0.076923,0.5,0.166667,0,0.2,0.2,0,0.263158,0,0,0.125,0.183099,1,1,0.33945,1,0,0,0,1,0
0.5,1,0,0,0,0,0.5,1,0,0,1,0,0,1,1,1,1,1,0,0,0,1,1,1,0,1,0,0,1,0,1,1,1,0,1,1,1,0,0,0,0,0,0,0.3,0.3,0,0.125,0,0,0.2,0.4,0,0.105263,0,0,0.125,0.112676,1,1,0.33945,1,0,1,0,0,3
0.5,1,0,0,0,0,0,1,0,0,0,1,0,1,1,0,0,1,0,0,0,0,1,0,1,0,0,0,1,1,1,0,0,0,1,1,0,0,0,0,0,0,0,0.5,0.5,0,0,0.083333,0,0.2,0,0,0.052632,0,0,0.125,0.028169,1,1,0.394495,1,0,1,0,1,8
0.5,1,0,0,0,0,0,1,0,0,1,0,0,1,1,1,1,1,0,1,0,0,1,1,0,0,0,0,1,0,1,1,0,1,0,1,0,0,0,0,0,0,0,0.55,0.55,0.076923,0.125,0.25,0,0.4,0.2,0.2,0.368421,0.125,1,0.25,0.211268,1,1,0.743119,1,0,1,0,1,24
0.5,1,0,0,0,0,0,1,0,1,1,0,0,1,1,1,1,1,0,0,0,0,1,1,0,0,0,0,1,1,0,0,0,1,1,1,0,0,0,0,0,1,0,0.3,0.3,0.692308,0,0.75,0,0.4,0.2,0.2,0.263158,0,0,0.125,0.014085,1,1,0.302752,1,0,1,0,0,3
0.5,1,0,0,0,0,0,1,0,0,1,0,0,1,1,1,1,1,0,1,0,1,1,1,0,1,0,0,1,1,1,0,0,1,1,1,0,1,1,0,0,1,0,0.35,0.35,0.615385,1,0.666667,1,0.2,0.4,0.2,0.368421,0.125,0,0.125,0.014085,1,1,0.541284,1,0,1,0,1,0
0.5,1,0,0,0,0,1,1,0,0,1,0,0,1,1,1,1,0,0,0,0,0,1,0,1,0,0,1,0,0,0,0,0,1,1,1,0,0,0,0,0,0,0,0.65,0.65,0.076923,0,0.083333,0,0,0,0.2,0.157895,0,0,0.375,0.042254,1,1,0.284404,1,0,1,0,0,6
0.5,1,0,0,0,0,0,1,0,0,1,0,0,1,1,0,0,1,0,0,0,0,1,0,1,0,0,0,1,0,1,0,0,0,0,0,0,0,0,0,0,0,0,0.45,0.45,0.076923,0,0.166667,0,0.2,0.2,0,0.157895,0.125,0,0.125,0.056338,1,1,0.348624,1,0,0,0,1,7
0.5,1,0,0,0,0,0,1,0,0,1,0,0,1,1,0,1,0,0,0,0,0,1,0,0,0,0,0,1,1,0,1,1,1,1,1,0,0,0,0,0,0,0,0.3,0.3,0.384615,0,0.5,0,0,0,0.2,0.210526,0,0,0.375,0.408451,1,1,0.321101,1,0,1,0,0,24
0.5,1,0,0,0,0,0.5,1,0,0,0,1,0,1,0,0,1,1,0,0,0,0,1,0,0,0,0,0,1,0,0,0,1,0,0,1,0,1,0,0,0,0,0,0.3,0.3,0.230769,0,0.166667,0,0.4,0,0,0.052632,0.125,0,0.125,0.014085,1,1,0.256881,1,0,1,0,1,1
0.5,1,0,0,0,0,0,1,0,0,1,0,0,1,1,1,1,1,0,1,0,0,1,1,0,0,0,0,1,1,1,1,1,1,0,0,0,0,0,0,0,0,0,0.6,0.6,0.153846,0,0.166667,1,0.2,0.2,0.4,0.105263,0,1,0.375,0.225352,1,1,0.431193,1,0,1,0,1,0
0,1,0,0,0,0,0,1,0,0,1,0,0,1,1,1,1,1,0,0,0,0,1,1,0,0,0,0,1,0,1,1,1,0,1,1,0,0,0,0,0,1,0,0.4,0.4,0.230769,0,0.333333,0,0.2,0,0.4,0.157895,0.125,0,0.25,0.28169,1,1,0.376147,1,0,1,0,0,1
0.5,1,0,0,0,0,0,1,0,0,0,1,0,1,1,1,1,1,0,1,1,1,1,1,0,1,0,1,1,0,1,1,1,1,1,1,0,1,1,0,0,0,0,0.5,0.5,0.461538,0,0.666667,0,0.2,0.2,0.8,0.105263,0.125,0,0.625,0.014085,1,1,0.550459,1,0,1,0,1,0
0.5,1,0,0,0,0,0,0,0,1,0,1,0,1,1,1,1,0,0,0,0,0,1,1,0,0,0,0,1,0,0,0,1,1,1,1,0,0,0,0,0,0,0,0.4,0.4,0.230769,0,0.333333,0,0.2,0.4,0,0.157895,0,0,0.125,0.225352,1,1,0.302752,1,0,0,0,0,3
0.5,1,0,0,0,0,1,1,0,0,1,0,0,1,0,1,1,1,0,0,0,0,1,1,0,0,0,0,1,1,1,0,1,1,0,1,0,0,0,0,0,0,0,0.45,0.45,0,0,0,0,0.2,0.2,0.2,0.105263,0,0,0.25,0.267606,1,1,0.431193,1,0,0,0,1,0
0.5,1,0,0,0,0,0,1,0,0,0,1,0,1,1,1,1,1,0,1,0,0,1,1,0,0,0,0,1,0,0,0,0,0,1,0,0,0,0,0,0,0,0,0.45,0.45,0.846154,0,0.916667,0,0.2,0.2,0.4,0.578947,0,0,0.375,0.070423,1,1,0.385321,1,0,0,0,0,5
0.5,1,0,0,0,0,0,1,0,0,1,0,0,1,1,0,1,1,0,0,0,0,1,1,0,0,0,0,1,1,1,0,1,1,0,1,0,0,0,0,0,0,0,0.3,0.3,0.153846,0,0.166667,0,0.2,0.2,0,0.263158,0,0,0.125,0.112676,1,1,0.229358,1,0,1,0,0,0
0.5,1,0,0,0,0,0,1,0,0,0,1,0,1,1,1,1,1,0,0,0,0,1,1,0,0,0,0,1,0,0,0,1,0,1,1,0,0,0,0,0,0,0,0.2,0.2,0.076923,0.125,0.333333,1,0.6,0.2,0.4,0.263158,0,0,0.25,0.267606,1,1,0.229358,1,0,0,0,0,0
0.5,1,0,0,0,0,0,1,0,0,1,1,0,1,1,1,1,1,0,1,1,1,0,1,0,0,0,0,1,0,0,0,1,1,0,1,0,0,0,0,0,0,0,0.55,0.55,0,0.25,0.166667,0,0.2,0,0.2,0.157895,0.125,1,0.25,0.239437,1,1,0.770642,1,0,1,0,1,8
0.5,1,0,0,0,0,0.5,1,0,0,1,0,0,1,1,0,0,1,0,1,0,0,1,0,1,0,0,0,1,0,1,0,1,0,0,1,0,1,0,0,0,0,0,0.4,0.4,0.692308,0,0.833333,0,0.2,0.2,0,0.736842,0,0,0.25,0.014085,1,1,0.293578,1,0,1,0,1,0
0.5,1,0,0,0,0,0,1,0,0,0,1,0,1,1,0,1,0,0,1,0,0,1,0,0,0,0,0,0,0,0,0,0,0,0,0,0,0,0,0,0,0,0,0.35,0.35,0,0.125,0.166667,0,0.2,0.2,0.4,0.105263,0.125,0,0.125,0.028169,1,1,0.247706,1,0,1,0,1,7
0.5,1,0,0,0,0,0,1,0,0,1,0,0,1,1,1,1,1,0,1,1,1,1,1,0,1,0,1,1,1,0,1,1,1,1,1,0,1,1,1,1,1,1,0.6,0.6,0.153846,0,0.166667,0,0.2,0.4,0,0.105263,0,0,0.125,0.014085,1,1,0.724771,1,0,1,0,1,2
0.5,1,0,0,0,0,0.5,1,0,0,0,1,0,1,1,0,1,0,0,0,0,0,1,0,1,0,0,0,1,0,0,0,0,0,1,0,0,1,0,0,0,0,0,0.25,0.25,0.307692,0,0.333333,0,0.2,0,0,0.052632,0.125,0,0.375,0,0,0,0.302752,1,0,0,0,1,0
0.5,1,0,0,0,0,0.5,1,0,0,1,0,0,1,1,0,1,1,0,0,0,0,1,1,0,0,0,0,1,1,0,0,1,1,1,1,0,0,0,0,0,0,0,0.65,0.65,0.076923,0,0.166667,0,0.2,0,0,0,0,0,0.125,0.140845,1,1,0.954128,1,0,1,0,1,3
0.5,1,0,0,0,0,0,1,0,0,0,1,0,1,1,1,0,0,0,0,0,0,1,0,0,1,0,1,1,1,0,0,1,0,1,0,0,1,1,0,0,0,0,0.2,0.2,0.153846,0,0.166667,0,0.2,0.2,0,0.157895,0,0,0.125,0.014085,1,1,0.201835,1,0,0,0,0,0
0.5,1,0,0,0,0,0,1,0,0,1,0,0,1,0,1,1,0,0,0,0,0,1,0,1,0,0,0,1,0,1,1,1,1,1,1,0,0,0,0,0,0,0,0.25,0.25,0.076923,0,0.166667,0,0.2,0,0.2,0.210526,0.125,0,0.25,0.211268,1,1,0.220183,1,0,0,0,0,3
0.5,1,0,0,0,0,0.5,1,0,0,1,0,0,1,0,0,1,1,0,0,0,0,1,0,0,0,0,0,1,1,0,0,1,1,0,1,0,0,0,0,0,0,0,0.15,0.15,0,0,0.25,0,0.2,0,0.2,0.157895,0,0,0.125,0.211268,1,0,0.183486,1,0,0,0,0,4
0.5,1,0,0,0,0,0,1,0,0,1,0,0,1,1,1,1,1,0,0,0,0,1,1,0,1,0,0,1,0,1,1,1,1,1,0,0,0,0,0,0,1,0,0.9,0.9,0.384615,0,0,0,0.4,0.2,0.2,0.105263,0.125,1,0.125,0.211268,1,1,0.880734,1,0,1,0,0,18
0.5,1,0,0,0,0,1,1,0,0,0,1,0,1,1,0,0,0,0,0,0,0,1,0,0,0,0,0,1,0,0,0,1,0,0,1,0,0,0,0,0,0,0,0.3,0.3,0.076923,0,0.083333,0,0.8,0.2,0.6,0.157895,0,0,0.125,0.239437,1,1,0.330275,1,0,1,0,0,13
0.5,0,0,0,0,1,0,1,0,0,1,0,0,1,1,0,0,1,0,0,0,1,1,0,0,0,0,0,1,1,0,0,1,1,0,1,0,0,0,0,0,0,0,0.3,0.3,0.230769,0,0.083333,0,0.2,0.2,0,0.210526,0,0,0.125,0.126761,1,1,0.302752,1,0,0,0,0,0
0.5,1,0,0,0,0,0.5,1,0,0,1,0,0,1,1,0,0,1,0,0,0,0,1,0,1,0,0,0,1,0,0,0,1,0,0,1,0,0,0,0,0,0,0,0.25,0.25,0,0,0.083333,0,0.2,0,0.2,0.052632,0,0,0,0.112676,1,1,0.394495,1,0,1,0,0,15
0.5,0,1,0,0,0,0,1,0,0,0,1,0,1,1,0,1,1,0,0,0,0,1,0,0,0,0,0,1,0,0,0,1,0,0,1,0,0,0,0,0,0,0,0.1,0.1,0.076923,0,0.25,0,0.2,0.2,0.2,0.157895,0,0,0.125,0.084507,1,1,0.220183,1,0,0,0,0,1
0.5,1,0,0,0,0,0,1,0,0,0,1,0,1,1,1,1,0,0,1,0,0,1,0,1,0,0,0,1,1,1,1,1,1,1,1,0,1,0,0,0,0,0,0.45,0.45,0.153846,0,0.166667,0,0,0,0,0.105263,0.125,0,0,0.014085,1,1,0.449541,1,0,1,0,0,1
0.5,1,0,0,0,0,1,1,0,0,0,1,0,1,0,0,1,1,0,0,0,0,1,0,1,0,0,0,1,0,1,0,0,0,0,1,0,0,0,0,0,0,0,0.3,0.3,0.153846,0,0.083333,0,0.2,0.2,0.2,0,0,0,0,0.309859,1,1,0.376147,1,0,1,0,1,5
0.5,1,0,0,0,0,1,1,0,0,0,1,0,1,1,0,1,1,0,0,0,1,1,1,0,0,0,0,1,0,1,0,1,1,1,1,0,1,0,0,0,0,0,0.25,0.25,0.076923,0.25,0.166667,1,0.6,0.2,0.2,0.105263,0,0,0,0.014085,1,1,0.348624,1,0,1,0,1,0
0.5,1,0,0,0,0,1,1,0,0,0,1,0,1,1,0,1,0,0,0,0,0,1,0,1,0,0,0,1,0,0,0,1,0,0,1,0,0,0,0,0,0,0,0.25,0.25,0.153846,0,0.25,0,0.2,0,0.2,0,0,0,0.25,0.211268,1,1,0.357798,1,0,1,0,0,2
1,1,0,0,0,0,0,1,0,0,1,0,0,1,0,0,1,0,0,0,0,0,1,0,0,0,0,0,1,1,0,0,1,0,1,0,0,1,0,0,0,0,0,0.35,0.35,0.153846,0,0.25,0,0.2,0,0.2,0.052632,0.125,1,0.625,0.014085,1,1,0.348624,1,0,1,0,1,0
0.5,1,0,0,0,0,0,1,0,0,1,0,0,1,1,1,1,1,0,0,0,0,1,1,0,0,0,0,1,0,1,0,1,1,1,1,0,0,0,0,0,0,0,0.4,0.4,0.076923,0,0,0,0.2,0,0,0,0,1,0.125,0.211268,1,1,0.431193,1,0,1,0,1,1
0.5,1,0,0,0,0,0,1,1,0,0,1,0,1,0,0,0,0,0,0,0,0,1,0,0,0,0,0,1,0,0,0,0,0,0,0,0,0,0,0,0,0,0,0.75,0.75,0.076923,0,0,0,0,0,0.2,0.105263,0,0,0,0.014085,1,1,0.743119,1,0,1,0,0,22
0.5,1,0,0,0,0,0,1,0,0,1,0,0,1,1,0,1,0,0,0,0,0,1,0,0,0,0,0,1,0,0,0,0,0,0,1,0,0,0,0,0,0,0,0.25,0.25,0.384615,0,0.333333,0,0.2,0,0,0.315789,0,0,0.125,0.014085,1,1,0.33945,1,0,1,0,0,0
0.5,1,0,0,0,0,0,1,0,0,0,1,0,1,1,1,0,0,0,1,0,1,1,1,0,0,0,0,1,1,1,1,1,1,1,1,0,0,0,0,0,0,0,0.6,0.6,0.153846,0,0.166667,0,0.2,0.2,0.6,0.210526,0.125,0,0.125,0.28169,1,1,0.605505,1,0,1,0,0,1
0.5,0,0,1,0,0,0,1,0,0,0,0,1,1,0,0,0,0,0,0,0,0,0,0,0,0,0,0,1,0,0,0,0,0,0,0,0,0,0,0,0,0,0,0,0,0.076923,0,0,0,0,0,0,0.105263,0,0,0,0,0,0,0,0,0,1,0,0,0
1,0,0,0,0,1,0,0,1,0,0,1,0,1,0,0,0,0,0,0,0,0,0,0,0,0,0,0,1,1,0,0,0,0,0,0,0,0,0,0,0,0,0,0.1,0.1,0.076923,0,0,0,0,0,0,0.105263,0,0,0,0,0,0,0.082569,1,0,0,0,0,0
0.5,1,0,0,0,0,0,1,0,0,1,0,0,1,1,1,0,1,0,0,0,0,1,0,0,0,0,0,1,1,0,0,1,1,1,1,0,0,0,0,0,0,0,0.45,0.45,0.384615,0.625,0.333333,0,0.4,0.4,0.2,0.263158,0,0,0.125,0.28169,1,1,0.53211,1,0,1,0,1,85
0.5,1,0,0,0,0,0,1,0,0,0,1,0,1,1,1,1,0,0,1,0,0,0,1,0,0,0,0,1,1,0,0,0,0,1,1,0,0,0,0,0,0,0,0.55,0.55,0,0.125,0.083333,0,0.2,0.2,0.2,0.105263,0,0,0.125,0.239437,1,1,0.46789,1,0,1,0,0,21
0.5,1,0,0,0,0,0,1,0,0,0,1,0,1,1,1,1,0,0,1,0,0,1,1,0,0,0,0,1,0,1,0,1,0,1,1,0,0,0,0,0,0,0,0.55,0.55,0.384615,0.875,0.583333,0,0.2,0.2,0.2,0.368421,0.125,0,0.125,0.056338,1,1,0.614679,1,0,1,0,1,16
1,0,0,0,1,0,0,1,0,0,0,1,0,1,0,1,0,0,0,0,0,0,1,1,0,0,0,0,1,1,0,0,0,0,0,0,0,0,0,0,0,0,0,0,0,0,0,0.166667,0,0.2,0,0,0,0,0,0.125,0.014085,1,0,0,1,0,0,0,0,0
1,1,0,0,0,0,0,1,0,0,0,1,0,1,1,1,1,1,0,0,1,1,1,1,0,0,0,0,1,0,0,0,0,0,0,1,0,1,0,0,0,0,0,0.45,0.45,0.076923,0,0.083333,0,0.4,0,0,0,0.125,0,0,0.014085,1,1,0.522936,1,0,1,0,0,0
0.5,1,0,0,0,0,0.5,1,0,0,1,0,0,1,0,0,0,1,0,0,0,0,1,0,0,0,0,0,1,1,0,0,0,1,0,0,0,1,0,0,0,0,0,0.2,0.2,0.076923,0,0.083333,0,0.2,0,0.6,0.052632,0,0,0.25,0.014085,1,1,0.486239,1,0,1,0,0,0
0.5,1,0,0,0,0,0,1,0,0,0,1,0,1,1,1,1,0,0,0,0,0,0,0,1,0,0,0,1,1,0,0,1,1,0,1,0,0,1,0,0,0,0,0.35,0.35,0,0,0.166667,1,0.2,0.2,0,0.210526,0.125,0,0.125,0.014085,1,1,0.311927,1,0,1,0,0,0
0.5,1,0,0,0,0,0,1,0,0,0,1,0,1,0,0,1,1,0,1,0,0,1,0,0,0,0,0,1,0,1,0,1,1,0,1,0,0,0,0,0,0,0,0.1,0.1,0.076923,0,0.166667,0,0.2,0,0,0,0.125,0,0,0.028169,1,1,0.211009,1,0,0,0,0,0
0.5,0,0,0,0,1,0,1,0,0,0,1,0,1,1,0,1,1,0,0,0,0,1,0,0,0,0,0,1,0,0,0,1,0,1,1,0,0,0,0,0,0,0,0.25,0.25,0,0.125,0.083333,0,0.2,0,0,0.105263,0,0,0.125,0.028169,1,1,0.302752,1,0,1,0,0,5
0.5,1,0,0,0,0,0,1,0,0,0,1,0,1,1,0,0,1,0,0,0,0,1,0,0,0,0,0,1,0,1,0,0,0,1,1,0,1,0,0,0,0,0,0.2,0.2,0.153846,0,0.166667,0,0.2,0.2,0,0.105263,0.125,0,0.25,0.014085,1,1,0.174312,1,0,0,0,1,0
1,1,0,0,0,0,1,1,0,0,1,0,0,1,1,1,1,1,0,0,1,1,1,1,0,1,0,1,1,1,0,1,1,1,1,1,0,0,1,1,1,1,1,0.1,0.1,0.076923,0,0,0,0,0,0,0.105263,0,0,0,0.014085,0,0,0.165138,1,0,0,0,0,0
0.5,1,0,0,0,0,0,1,0,0,0,1,0,1,0,1,1,0,0,0,0,1,1,0,0,0,0,0,1,1,1,0,1,0,1,1,0,0,0,0,0,0,0,0.8,0.8,0.230769,0,0.25,0,0.2,0.2,0,0.315789,0,0,0,0.225352,1,0,0.779817,1,0,1,1,1,0
0.5,1,0,0,0,1,0,1,0,0,1,0,0,1,1,1,1,1,1,1,0,0,1,1,1,0,0,0,1,1,0,0,1,1,1,1,0,0,0,0,0,0,0,0.65,0.65,0.153846,0,0.166667,1,0.2,0,0.8,0.473684,0.125,0,0.125,0.323944,1,1,0.706422,1,0,0,0,0,6
0.5,1,0,0,0,0,1,1,0,0,1,0,0,1,1,1,1,1,0,0,1,1,1,1,0,0,0,0,1,0,0,0,0,1,1,1,1,0,1,0,0,1,0,0.8,0.8,0.153846,0.25,0.166667,0,0.2,0.2,0.4,0.421053,0.125,0,0.25,0.014085,1,1,0.348624,1,0,0,0,0,1
1,1,0,0,0,0,0,1,0,0,0,1,0,1,0,0,1,0,0,0,0,0,0,1,0,0,0,0,1,0,0,0,0,0,1,0,0,0,0,0,0,0,0,0.1,0.1,0.076923,0,0.083333,0,0.2,0,0.2,0.157895,0.125,1,0.25,0.183099,1,1,0.183486,1,0,0,0,0,1
0.5,0,0,0,0,1,0,1,0,0,1,0,0,1,0,1,0,0,0,0,0,0,1,0,0,0,0,0,1,1,0,0,1,0,0,0,0,0,1,0,0,0,0,0.15,0.15,0,0,0.083333,0,0,0,0,0,0,0,0,0.014085,0,0,0.137615,1,0,0,0,0,0
0.5,1,0,0,0,0,0,1,0,0,0,1,0,1,1,1,1,1,0,0,0,0,1,1,0,0,0,0,1,0,1,0,1,0,1,1,0,0,1,0,0,0,0,0.35,0.35,0.230769,0.25,0.333333,0,0.2,0,0.2,0.210526,0.125,0,0.25,0.014085,1,1,0.348624,1,0,0,1,1,2
0.5,1,0,0,0,0,0.5,1,0,0,0,1,0,1,0,0,1,1,0,0,0,0,1,0,1,0,0,0,1,0,0,0,1,0,0,1,0,0,0,0,0,0,0,0.2,0.2,0.461538,0,0.333333,0,0.2,0,0.2,0.157895,0.125,0,0.375,0.014085,1,1,0.220183,1,0,0,0,0,1
0.5,1,0,0,0,0,0,1,0,0,1,0,0,1,1,1,1,1,0,0,0,0,1,1,1,1,0,0,1,1,1,0,1,1,1,1,0,0,0,0,0,1,1,0.2,0.2,0,0,0.083333,0,0,0,0.4,0,0,0,0,0.394366,1,1,0.12844,1,0,0,0,0,0
1,1,0,0,0,0,1,1,0,0,0,1,0,1,0,0,0,1,0,0,0,0,1,0,0,0,0,0,1,0,0,0,0,0,0,0,0,0,0,0,0,0,0,0.15,0.15,0.076923,0,0.25,0,0.2,0,0,0.052632,0.125,0,0.125,0.028169,0,0,0.12844,1,0,0,0,0,0
0.5,1,0,0,0,0,1,1,0,0,1,0,0,1,1,1,1,0,0,0,0,0,1,0,1,0,0,0,1,0,1,0,1,0,0,1,0,0,0,0,0,0,0,0.3,0.3,0.692308,0,0.416667,1,0.2,0,0.2,0.052632,0,0,0.125,0.169014,1,1,0.376147,1,0,1,1,0,0
0.5,1,0,0,0,0,0.5,1,0,0,1,0,0,1,1,0,0,1,0,0,0,0,1,0,0,0,0,0,1,1,0,0,1,0,0,0,0,1,0,0,0,0,0,0.1,0.1,0.153846,0,0.333333,1,0.2,0,0.4,0.157895,0,0,0.125,0.014085,1,1,0.266055,1,0,0,0,0,0
0.5,1,0,0,0,0,0,1,0,0,0,1,0,1,1,1,1,0,0,0,0,0,1,0,0,0,0,0,1,1,0,0,1,0,0,0,0,0,0,0,0,0,0,0.2,0.2,0.076923,0,0.083333,0,0.2,0,0,0.052632,0,0,0.25,0.169014,1,1,0.220183,1,0,0,0,0,0
0.5,1,0,0,0,0,1,1,0,0,1,0,0,1,1,0,1,0,0,0,0,0,0,0,1,0,0,0,1,0,0,0,0,1,0,1,0,0,0,0,0,0,0,0.25,0.25,0.076923,0,0.166667,0,0.2,0.2,0,0.052632,0.125,0,0.125,0.042254,1,1,0.311927,1,0,0,0,0,0
0.5,1,0,0,0,0,0.5,1,0,0,1,0,0,1,1,0,0,1,0,0,0,0,1,0,0,0,0,0,1,0,0,0,1,0,1,0,0,0,0,0,0,0,0,0.35,0.35,0.076923,0,0.166667,0,0.2,0,0,0.157895,0,1,0.125,0.014085,1,1,0.256881,1,0,0,0,0,0
0.5,1,0,0,0,0,0,1,0,0,1,0,0,1,1,0,0,1,0,0,0,1,1,1,0,0,0,0,1,1,1,1,0,0,0,0,0,0,0,0,0,0,0,0.3,0.3,0.153846,0,0.25,0,0.6,0,0.2,0.105263,0.125,0,0.25,0.169014,1,1,0.504587,1,0,1,0,1,1
0.5,1,0,0,0,0,0,1,0,0,1,0,0,1,1,1,1,0,0,1,1,1,1,1,0,0,0,0,1,0,1,0,1,1,0,1,0,0,0,0,0,0,0,0.4,0.4,0.076923,0,0.166667,0,0.2,0.2,0,0.105263,0,0,0.125,0.070423,1,0,0.431193,1,0,1,0,1,0
0.5,1,0,0,0,0,1,1,0,0,1,0,0,1,1,1,0,1,0,0,0,0,1,0,1,0,0,0,1,1,1,0,1,1,1,1,0,0,0,0,0,0,0,0.25,0.25,0,0,0.083333,0,0.2,0,0,0.157895,0,0,0.125,0.140845,1,1,0.357798,1,0,1,0,0,14
0.5,1,0,0,0,0,0,1,0,0,1,0,0,1,1,1,1,1,0,1,1,1,1,1,0,1,0,0,1,0,1,0,1,1,1,1,0,0,0,0,0,0,0,0.6,0.6,0.230769,0,0.166667,0,0.4,0,0.2,0.210526,0.125,0,0.375,0.676056,1,1,0.40367,1,0,1,0,1,0
1,0,0,0,0,1,0,1,0,0,1,0,0,1,1,0,1,1,0,0,0,1,1,0,0,0,0,0,1,0,0,0,0,0,1,0,0,0,0,0,0,0,0,0.3,0.3,0,0,0,0,0.4,0.2,0,0.052632,0,0,0.25,0.183099,1,1,0.33945,1,0,1,0,1,7
0.5,1,0,0,0,0,0.5,1,0,0,1,0,0,1,1,0,0,1,0,1,0,0,1,1,0,0,0,0,1,1,1,0,0,1,0,0,0,1,0,0,0,0,0,0.2,0.2,0.076923,0,0.25,0,0.2,0,0,0.210526,0,1,0.25,0.014085,1,0,0.385321,1,0,1,0,0,0
0.5,1,0,0,0,0,0,1,0,0,0,1,0,1,1,1,0,1,0,1,0,0,1,1,0,1,0,0,1,0,1,1,1,0,1,1,0,0,0,0,0,0,0,0.25,0.25,0.153846,0,0.166667,0,0.2,0.4,0.2,0.210526,0.125,0,0.625,0.239437,1,1,0.366972,1,0,1,1,1,0
1,1,0,0,0,0,0,1,0,0,0,1,0,1,1,0,0,1,0,0,0,0,1,1,0,0,0,0,1,0,0,0,1,1,1,0,0,0,1,0,0,0,0,0.25,0.25,0.307692,0.125,0.666667,1,0.2,0,0.2,0.210526,0,0,0.125,0.014085,1,1,0.220183,1,0,0,0,0,0
0.5,1,0,0,0,0,0.5,1,0,0,1,0,0,1,0,0,0,1,0,0,0,0,0,0,0,0,0,0,1,0,0,0,0,0,0,0,0,0,0,0,0,0,0,0.1,0.1,0.076923,0,0.083333,0,0,0,0,0.105263,0,0,0,0.084507,0,0,0.119266,1,0,0,0,0,0
0.5,1,0,0,0,0,0,1,0,0,0,1,0,1,1,1,1,0,0,1,0,1,1,1,0,1,0,0,1,1,1,1,1,1,0,1,1,0,0,0,0,0,0,0.35,0.35,0.153846,0,0.25,0,0.2,0,0,0.473684,0.125,0,0.125,0.042254,1,1,0.33945,1,0,1,0,1,12
1,1,0,0,0,0,0,1,0,0,0,1,0,1,0,1,0,0,0,0,0,0,1,0,0,0,0,0,1,1,0,0,1,0,1,0,0,0,0,0,0,0,0,0.15,0.15,0,0,0.083333,0,0,0,0,0,0,0,0,0.084507,0,0,0.440367,1,0,0,0,0,2
0.5,0,0,0,0,1,0,1,0,0,0,1,0,1,0,0,0,1,0,0,0,0,1,0,0,0,0,0,1,0,0,0,1,0,0,1,0,0,0,0,0,0,0,0.15,0.15,0.230769,0,0.166667,0,0,0,0,0.052632,0,0,0,0.014085,0,0,0.110092,1,0,0,0,0,1
1,1,0,0,0,0,0,0,1,0,0,1,0,1,1,0,1,0,0,0,1,1,1,1,0,0,0,0,1,1,0,0,1,0,0,1,0,0,0,0,0,0,0,0.45,0.45,0.692308,0,0.833333,0,0.2,0,0.2,0.105263,0,0,0.125,0.014085,1,1,0.458716,1,0,1,0,1,1
1,1,0,0,0,0,1,1,0,0,1,0,0,1,1,1,0,0,0,0,0,1,1,1,0,0,0,0,1,0,0,0,0,1,0,0,0,0,0,0,0,0,0,0.55,0.55,0.076923,0,0.416667,0,0.4,0,0.2,0.157895,0,0,0.125,0.028169,1,1,0.33945,1,0,0,0,1,1
1,1,0,0,0,0,0,0,0,1,1,0,0,1,1,1,1,1,0,0,0,0,1,1,0,0,0,0,1,0,1,1,1,0,0,1,0,1,0,0,0,0,0,0.55,0.55,0.076923,0,0.166667,0,0,0,0,0.105263,0,0,0.125,0.014085,1,1,0.541284,1,0,1,0,0,0
0.5,1,0,0,0,0,0,1,0,0,1,0,0,1,1,1,1,1,0,1,0,1,1,1,0,0,0,0,1,0,0,0,1,0,1,1,0,1,0,0,0,1,0,0.3,0.3,0.230769,0,0.166667,0,0.2,0.2,0.2,0.157895,0,0,0.25,0.014085,1,1,0.495413,1,0,1,1,0,0
0.5,1,0,0,0,0,0,1,0,0,1,0,0,1,1,1,1,0,0,1,0,0,1,0,1,0,0,0,1,0,1,1,1,0,0,1,0,0,0,0,0,0,0,0.4,0.4,0.076923,0,0.25,0,0.4,0.2,0,0.157895,0,1,0.625,0.295775,1,1,0.40367,1,0,0,0,1,13
0.5,1,0,0,0,0,0,1,0,0,1,0,0,1,1,1,0,1,0,1,0,0,1,1,0,0,0,0,1,0,1,1,0,0,0,0,0,0,0,0,0,0,0,0.6,0.6,0.076923,0,0,0,0,0,0.2,0.105263,0,0,0,0.014085,1,1,0.66055,1,0,1,0,0,42
0.5,1,0,0,0,0,0,1,0,0,1,0,0,1,1,1,1,1,0,0,1,1,1,1,0,0,0,0,1,0,1,1,1,0,0,1,0,1,0,0,0,1,0,0.55,0.55,0.307692,0,0.25,0,0.4,0.4,0.4,0.157895,0.125,0,0.5,0.014085,1,1,0.46789,1,0,1,0,1,0
0.5,1,0,0,0,0,0,1,0,0,0,1,0,1,1,1,1,1,0,1,0,0,1,1,0,0,0,0,1,0,0,0,1,0,0,0,0,0,0,0,0,0,0,0.45,0.45,0,0,0.166667,0,0,0.2,0,0.473684,0,0,0,0.014085,1,1,0.40367,1,0,1,0,1,0
0.5,1,0,0,0,0,0,1,0,0,1,0,0,1,1,1,1,1,0,1,0,0,1,1,0,1,0,0,1,0,0,0,1,0,1,1,0,1,1,0,0,1,0,0.35,0.35,0.076923,0,0.166667,0,0.2,0.4,0,0,0.125,0,0,0.014085,1,1,0.247706,1,0,1,0,0,0
0.5,1,0,0,0,0,0,1,0,0,1,0,0,1,1,1,1,1,0,1,1,1,1,1,0,0,0,0,1,0,1,1,0,1,0,1,1,0,0,0,0,0,0,0.7,0.7,0.153846,0.375,0,0,0.4,0,0.4,0.157895,0,0,0.125,0.28169,1,1,0.715596,1,0,1,1,1,39
0.5,1,0,0,0,0,0,1,0,0,0,1,0,1,1,1,1,1,0,1,1,1,1,1,0,0,0,0,1,0,0,1,0,0,0,1,0,1,0,0,0,0,0,0.45,0.45,0.230769,0,0.416667,0,0.2,0.2,0.4,0.210526,0,0,0,0.014085,1,1,0.293578,1,0,1,0,1,0
1,1,0,0,0,0,0,1,0,0,1,0,0,1,0,0,1,0,0,0,0,0,1,0,0,0,0,0,1,0,0,0,1,0,0,1,0,0,0,0,0,0,0,0.1,0.1,0.153846,0,0.25,0,0.6,0,0,0.105263,0.125,0,0.125,0.028169,0,0,0.146789,1,0,1,1,1,5
0.5,1,0,0,0,0,0,1,0,0,1,0,0,1,1,1,1,1,0,1,0,0,1,1,0,0,0,0,1,0,1,1,1,0,1,1,0,1,0,0,1,0,0,0.65,0.65,0.153846,0,0.25,0,0.4,0.4,0.2,0.210526,0.125,0,0.125,0.014085,1,0,0.431193,1,0,0,0,1,0
0.5,1,0,0,0,0,0,1,0,0,1,0,0,1,1,1,1,1,0,0,0,0,1,1,0,0,0,1,1,0,1,1,1,0,1,1,0,1,0,0,0,0,0,0.55,0.55,0.076923,0,0.333333,0,0.4,0.4,0.2,0.105263,0.125,0,0.25,0.014085,1,1,0.440367,1,0,1,0,1,0
0.5,1,0,0,0,0,0,1,0,0,0,1,0,1,1,1,1,1,0,0,0,0,1,1,1,0,0,0,1,0,1,0,1,1,1,1,0,0,0,0,0,0,0,0.25,0.25,0.076923,0.125,0.083333,0,0.2,0.2,0.4,0.052632,0,0,0.25,0.211268,1,1,0.348624,1,0,1,0,0,18
1,1,0,0,0,0,1,1,0,0,1,0,0,1,1,0,1,0,0,1,0,0,1,0,0,0,0,1,1,1,0,1,1,1,1,1,0,0,0,0,0,0,0,0.5,0.5,0,0,0.083333,0,0.2,0,0,0.210526,0,0,0,0.028169,1,1,0.366972,1,0,0,0,0,4
1,1,0,0,0,0,0.5,1,0,0,0,1,0,1,0,0,1,1,0,0,0,0,1,0,0,0,0,0,1,0,0,0,1,0,0,1,0,1,0,0,0,0,0,0.3,0.3,0.307692,0,0.25,0,0.4,0,0.2,0.210526,0.125,0,0.25,0.014085,1,1,0.211009,1,0,0,0,0,0
1,1,0,0,0,0,0.5,1,0,0,0,1,0,1,0,1,0,1,0,0,0,0,1,0,1,0,0,0,1,0,0,0,1,0,1,1,0,0,0,0,0,0,0,0.85,0.85,0.230769,0,0.333333,0,0.2,0.4,0,0.052632,0,0,0.125,0.014085,1,0,0.53211,1,0,0,0,0,0
0.5,1,0,0,0,0,0,1,0,0,1,0,0,1,1,1,1,0,0,1,0,0,1,1,0,0,0,0,1,0,1,0,1,0,0,1,0,0,0,0,0,0,0,0.25,0.25,0.230769,0,0.083333,0,0,0,0.4,0,0,0,0.125,0.042254,1,1,0.431193,1,0,1,0,0,0
0.5,1,0,0,0,0,0,1,0,0,1,0,0,1,1,1,1,1,0,0,0,0,1,0,1,0,0,0,1,0,0,0,1,1,0,1,0,0,0,0,0,0,0,0.35,0.35,0.230769,0,0.083333,0,0.4,0,0,0.263158,0.125,0,0.125,0.084507,0,0,0.376147,1,0,1,0,1,4
1,1,0,0,0,0,0,1,0,0,1,0,0,1,1,1,1,1,0,1,0,0,1,1,0,0,0,1,1,0,1,1,0,1,1,1,0,1,0,0,0,1,0,0.55,0.55,0.153846,0,0.166667,0,0,0.2,0.4,0.052632,0.25,0,0.25,0.014085,1,1,0.568807,1,1,1,0,1,0
1,1,0,0,0,0,0,1,0,0,0,1,0,1,0,1,1,1,0,1,0,0,1,1,0,0,0,0,1,1,1,0,1,1,0,1,0,0,0,0,0,0,0,0.2,0.2,0.153846,0,0.166667,0,0,0.2,1,0.052632,0.25,0,0.125,0.183099,1,1,0.385321,1,0,1,0,1,14
1,1,0,0,0,0,0,1,0,0,0,1,0,1,1,0,1,1,0,0,0,0,1,0,0,0,0,0,1,0,0,0,0,0,1,1,0,0,0,0,0,0,0,0.25,0.25,0.230769,0,0.25,0,0.2,0,0,0.157895,0,0,0.25,0.014085,1,1,0.247706,1,0,0,0,0,0
1,1,0,0,0,0,0,1,0,0,0,1,0,1,1,0,1,1,0,0,0,0,1,1,0,0,0,0,1,0,0,0,1,0,1,1,0,1,0,0,0,0,0,0.35,0.35,0.076923,0,0.083333,0,0.2,0.2,0,0.210526,0,0,0.25,0.014085,1,1,0.238532,1,0,1,0,0,0
1,1,0,0,0,0,1,1,0,0,0,1,0,1,1,1,1,0,0,0,0,0,1,0,0,1,0,0,1,0,0,0,1,0,1,1,0,0,0,0,0,0,1,0.15,0.15,0.153846,0,0.083333,0,0.2,0,0,0,0,0,0,0.014085,1,1,0.293578,1,0,0,0,0,12
1,1,0,0,0,0,0.5,1,0,0,0,1,0,1,0,0,1,0,0,0,0,0,1,0,0,0,0,0,1,0,0,0,1,0,0,0,0,0,0,0,0,0,0,0.1,0.1,0,0,0.083333,0,0.2,0.2,0,0.105263,0,0,0,0.28169,1,1,0.201835,1,0,0,0,0,1
1,1,0,0,0,0,0,1,0,0,1,0,0,1,1,0,1,1,0,0,0,0,1,0,1,0,0,0,1,1,0,0,1,0,0,1,0,0,1,0,0,0,0,0.15,0.15,0,0.125,0.083333,0,0.2,0.2,0.2,0.052632,0,0,0,0.014085,1,1,0.155963,1,0,0,0,0,0
1,1,0,0,0,0,0,1,0,0,1,0,0,1,1,1,1,1,0,0,0,0,1,1,0,0,0,0,1,0,0,1,1,0,1,1,0,0,0,0,0,0,0,0.25,0.25,0,0,0,0,0.2,0.2,0,0.578947,0,0,0.25,0.183099,1,1,0.275229,1,0,0,0,0,0
1,1,0,0,0,0,0,1,0,0,1,0,0,1,1,1,0,0,0,0,0,1,1,0,0,1,0,0,1,1,0,0,1,0,0,1,0,0,0,0,0,1,0,0.65,0.65,0,0,0.083333,0,0.2,0.2,0,0.052632,0,0,0,0.126761,1,1,0.201835,1,0,0,0,0,3
1,1,0,0,0,0,0.5,1,0,0,1,1,0,1,0,0,0,0,0,0,0,0,0,0,0,0,0,0,1,0,0,0,0,0,0,0,0,0,0,0,0,0,0,0.1,0.1,0.076923,0,0,0,0,0,0,0.105263,0,0,0,0,0,0,0.155963,1,0,0,0,0,1
1,1,0,0,0,0,0.5,1,0,0,1,0,0,1,1,1,0,1,0,0,0,0,1,1,0,1,0,0,1,1,0,0,0,0,0,1,0,0,0,0,0,0,0,0.15,0.15,0.230769,0.375,0,0,0.2,0,0,0,0,0,0,0.084507,1,1,0.247706,1,0,0,0,0,0
0.5,0,0,0,0,1,0,1,0,0,1,0,0,1,0,0,0,0,0,0,0,0,1,0,1,0,0,0,1,0,0,0,0,0,0,0,0,0,0,0,0,0,0,0.15,0.15,0,0.125,0.083333,0,0,0,0,0.052632,0,0,0,0.084507,0,0,0.110092,1,0,0,0,1,4
0.5,1,0,0,0,0,1,1,0,0,1,0,0,1,1,0,0,0,0,0,0,0,1,0,0,1,0,0,1,1,0,0,1,0,1,1,0,0,1,1,0,0,1,0.05,0.05,0,0,0.083333,0,0.2,0,0,0.052632,0,0,0.125,0.014085,0,0,0.256881,1,0,0,0,0,3
0.5,1,0,0,0,0,0,1,0,0,0,1,0,1,1,1,1,1,0,0,1,1,1,0,0,1,0,0,1,0,1,1,1,1,1,1,1,0,0,0,0,0,0,0.15,0.15,0.076923,0,0.166667,0,1,0,0.8,0.263158,0,0,0.375,0.211268,1,1,0.229358,0,1,1,0,0,0
0.5,1,0,0,0,0,0.5,1,0,0,1,0,0,1,1,0,1,1,0,0,0,0,1,1,0,0,0,0,1,1,0,0,1,1,1,1,0,0,0,0,0,0,0,0.15,0.15,0.076923,0,0.166667,0,0.2,0,0,0,0,0,0.125,0.112676,1,1,0.495413,1,0,0,0,1,2
0.5,1,0,0,0,0,0.5,1,0,0,1,0,0,1,0,0,0,0,0,0,0,0,1,0,1,0,0,0,1,0,0,0,1,0,1,1,0,0,0,0,0,0,0,0.15,0.15,0,0,0.083333,0,0,0,0,0.105263,0,0,0,0,0,0,0.110092,1,0,0,0,0,0
1,1,0,0,0,0,0,1,0,0,0,1,0,1,1,1,1,1,0,0,0,0,1,0,1,1,1,0,1,1,0,0,1,1,1,0,0,0,0,0,0,1,1,0.2,0.2,0.076923,0,0.083333,0,0.2,0,0,0.105263,0,0,0.125,0.014085,0,0,0.53211,1,0,0,0,0,1
1,1,0,0,0,0,0.5,1,0,0,1,0,0,1,1,1,0,1,0,1,0,0,1,0,1,0,0,0,1,0,1,1,1,0,1,1,0,0,0,0,0,0,0,0.15,0.15,0,0,0.083333,0,0.2,0,0.2,0.157895,0,0,0.25,0.338028,1,1,0.302752,1,0,0,0,0,0
1,1,0,0,0,0,0,1,0,0,1,0,0,1,1,0,1,1,0,1,0,0,1,1,0,0,0,1,1,0,1,0,1,0,1,1,0,1,1,0,0,0,0,0.3,0.3,0,0,0.083333,0,0.2,0,0,0.105263,0,0,0,0.014085,1,1,0.46789,1,0,1,0,0,5
1,1,0,0,0,0,0,1,0,0,0,1,0,1,1,1,0,0,0,0,0,0,1,0,1,1,0,0,1,1,1,1,1,1,1,0,0,0,0,0,0,1,1,0.15,0.15,0.076923,0,0.166667,0,0.2,0,0,0.052632,0,0,0.125,0.140845,1,1,0.385321,1,0,0,0,0,17
0.5,1,0,0,0,0,0.5,1,0,0,1,0,0,1,0,0,0,0,0,0,0,0,1,0,0,0,0,0,1,0,0,0,0,0,0,0,0,0,0,0,0,0,0,0.05,0.05,0,0,0.083333,0,0,0,0,0,0,0,0,0,0,0,0.348624,1,0,0,0,1,0
1,0,1,0,0,0,0,1,0,0,1,0,0,1,0,0,0,1,0,0,0,0,1,1,0,1,0,0,1,0,0,0,1,1,1,0,0,0,0,0,0,1,0,0.25,0.25,0.076923,0,0,0,0,0,0,0.105263,0,0,0,0.140845,0,0,0.229358,1,0,0,0,0,5
0.5,1,0,0,0,0,0,0,0,0,0,1,0,1,0,0,0,0,0,0,0,0,0,0,0,0,0,0,1,0,0,0,0,0,0,0,0,0,0,0,0,0,0,0.05,0.05,0,0,0,0,0,0,0,0.105263,0,0,0,0.084507,0,0,0.073394,1,0,0,0,0,0
0.5,0,0,0,0,1,0,1,0,0,1,0,0,1,0,1,0,0,0,0,0,1,1,0,0,0,0,0,1,0,0,0,1,0,0,0,0,0,0,0,0,0,0,0.1,0.1,0,0,0.083333,0,0,0,0,0,0,0,0,0.014085,0,0,0.137615,1,0,0,0,0,0
1,1,0,0,0,0,0,1,0,0,1,0,0,1,0,0,0,0,0,0,0,0,1,0,0,0,0,0,1,0,0,0,0,0,0,0,0,0,0,0,0,0,0,0.05,0.05,0.076923,0,0,0,0,0,0,0.105263,0,0,0,0,0,0,0.045872,1,0,0,0,0,0
1,1,0,0,0,0,1,1,0,0,1,0,0,1,0,1,1,0,0,1,0,0,1,0,1,1,0,0,1,1,1,1,1,0,0,1,0,0,0,0,0,1,1,0.35,0.35,0,0,0,0,0.2,0,0,0.105263,0,0,0,0.028169,1,1,0.697248,1,0,0,0,0,1
0.5,1,0,0,0,0,0,1,0,0,1,0,0,1,1,1,1,0,0,0,0,0,1,1,0,0,0,0,1,1,1,0,0,1,1,1,0,0,0,0,0,0,0,0.4,0.4,0.076923,0,0,0,0.2,0,0,0.105263,0,0,0,0.014085,1,0,0.633028,1,0,0,0,0,11
1,0,0,0,0,1,0,1,0,0,1,0,0,1,0,0,0,0,0,1,0,0,1,0,0,0,0,0,1,1,0,0,0,1,1,1,0,0,0,0,0,0,0,0.15,0.15,0,0,0.083333,0,0,0,0,0.052632,0,0,0,0.084507,0,0,0.110092,1,0,0,0,0,0
1,1,0,0,0,0,0.5,1,0,0,1,0,0,1,1,1,0,1,0,0,0,0,1,0,1,0,0,0,1,1,0,0,1,0,1,1,0,0,0,0,0,0,0,0.15,0.15,0,0,0.166667,0,0.2,0,0,0.157895,0,0,0.125,0.211268,1,1,0.201835,1,0,0,0,0,3
0.5,1,0,0,0,0,0,1,0,0,1,0,0,1,1,0,1,0,0,0,0,0,1,0,0,0,1,0,1,1,0,0,1,1,1,1,0,0,0,0,0,0,1,0.15,0.15,0.076923,0,0,0,0.2,0,0,0.105263,0,0,0,0.028169,0,0,0.40367,1,0,0,0,0,20
1,1,0,0,0,0,1,0,1,0,1,0,0,1,1,1,0,1,0,1,0,1,1,1,0,0,0,0,1,1,1,1,0,0,0,0,0,0,0,0,0,0,0,0.55,0.55,0.076923,0,0,0,0,0,0,0.105263,0,0,0,0.014085,1,1,0.33945,0,1,1,0,0,3
0.5,1,0,0,0,0,0,1,0,0,1,0,0,1,1,1,0,0,0,0,0,0,1,1,0,0,0,0,1,1,1,0,1,1,0,1,0,0,0,0,0,0,0,0.25,0.25,0.076923,0,0.166667,0,0,0,0,0.105263,0,0,0,0.15493,1,1,0.284404,1,0,0,0,0,2
0.5,1,0,0,0,0,1,1,0,0,1,0,0,1,1,1,1,1,0,0,0,0,1,0,0,0,1,0,1,1,0,0,1,0,0,0,0,0,0,0,0,0,0,0.35,0.35,0.153846,0,0.25,0,0.2,0,0,0.052632,0,0,0,0.084507,1,1,0.688073,1,0,0,0,0,14
0.5,1,0,0,0,0,0.5,1,0,0,1,0,0,1,1,0,0,0,0,0,0,0,1,1,0,0,0,0,1,1,0,0,1,1,1,0,0,0,0,0,0,0,1,0.2,0.2,0.230769,0.375,0.166667,0,0,0,0,0.052632,0,0,0,0.098592,1,1,0.40367,1,0,0,0,0,3
1,1,0,0,0,0,0,1,0,0,1,0,0,1,1,0,0,1,0,0,0,0,1,0,1,1,0,0,1,1,0,0,1,0,0,1,0,0,0,0,0,1,0,0.35,0.35,0.076923,0,0.166667,0,0,0.2,0.4,0.105263,0,0,0,0.267606,1,1,0.275229,1,0,1,0,0,0
1,1,0,0,0,0,0,1,0,0,0,0,1,1,0,0,1,0,0,0,0,0,1,0,0,0,1,0,1,1,0,0,1,0,1,0,0,0,1,0,0,0,1,0.15,0.15,0,0,0.083333,0,0,0,0,0.105263,0,0,0,0.014085,1,1,0.431193,1,0,0,0,0,0
1,0,0,0,0,1,0,1,0,0,0,1,0,1,0,0,0,1,0,0,0,0,1,0,0,0,0,0,1,0,0,0,1,0,1,1,0,0,0,0,0,0,0,0.25,0.25,0,0,0.083333,0,0,0,0,0,0,0,0,0.014085,0,0,0.192661,1,0,0,0,0,0
0.5,1,0,0,0,0,0,1,0,0,1,0,0,1,0,0,1,0,0,0,0,0,1,0,0,0,0,0,1,1,0,0,0,0,0,0,0,0,0,0,0,0,1,0.1,0.1,0,0,0.083333,0,0,0,0,0,0,0,0,0.014085,0,0,0.220183,1,0,0,0,0,0
0.5,1,0,0,0,0,1,1,0,0,1,0,0,1,0,0,1,0,0,0,0,0,1,0,0,1,0,0,1,1,0,0,1,1,1,1,0,1,1,0,0,0,1,0.05,0.05,0,0,0.083333,0,0,0,0,0.105263,0,0,0,0.014085,0,0,0.220183,1,0,0,0,0,0
1,1,0,0,0,0,0,1,0,0,1,0,0,1,1,1,1,1,0,0,0,1,1,1,0,1,0,0,1,1,1,1,1,0,1,1,0,0,0,0,0,1,0,0.25,0.25,0.153846,0.25,0.083333,0,0.2,0,0.2,0.052632,0.25,0,0,0.070423,1,1,0.266055,1,0,0,0,0,50
1,1,0,0,0,0,0.5,1,0,0,0,1,0,1,1,0,1,0,0,0,0,0,1,1,0,0,0,0,1,1,1,1,1,0,0,1,0,0,0,0,0,0,0,0.2,0.2,0.076923,0,0,0,0,0,0.2,0.105263,0,0,0,0.056338,1,0,0.238532,1,0,0,0,0,10
0.5,1,0,0,0,0,0,1,0,0,1,0,0,1,1,0,0,0,0,0,0,0,1,0,0,0,1,1,1,1,0,0,1,1,1,1,0,0,0,0,0,0,0,0.15,0.15,0.153846,0,0.083333,0,0,0,0,0.105263,0,0,0,0.028169,1,1,0.302752,1,0,0,0,0,6
0.5,1,0,0,0,0,0,1,0,1,0,1,0,1,1,1,1,1,0,0,0,0,1,1,1,0,1,0,1,1,1,0,1,1,1,1,0,0,0,0,0,1,1,0.35,0.35,0.076923,0,0,0,0.2,0,0,0,0,0,0,0.042254,1,1,0.724771,1,0,0,0,0,9
0.5,0,1,0,0,0,0,1,0,0,1,0,0,1,1,1,1,0,0,1,0,0,1,0,0,1,0,0,1,0,0,0,1,0,0,1,0,0,0,0,0,0,0,0.35,0.35,0.076923,0,0.166667,0,0,0,0,0.052632,0,0,0.125,0.211268,1,0,0.266055,1,0,0,0,0,9
0.5,1,0,0,0,0,0.5,1,0,0,1,0,0,1,0,1,1,1,0,0,0,0,1,1,0,0,0,0,1,0,1,0,1,0,0,1,0,0,0,0,0,0,0,0.2,0.2,0,0,0,0,0,0,0.2,0.052632,0.375,0,0,0.028169,1,1,0.201835,1,0,0,0,0,0
0.5,1,0,0,0,0,0,1,0,0,1,0,0,1,1,0,1,1,0,0,0,0,1,1,0,0,0,0,1,0,1,0,1,0,0,1,0,0,0,0,0,0,0,0.2,0.2,0.153846,0,0.416667,0,0.2,0.2,0,0.052632,0.625,0,0.375,0.183099,1,1,0.119266,1,0,0,0,0,0
0.5,1,0,0,0,0,1,1,0,0,1,0,0,1,1,1,1,0,0,0,0,0,1,0,0,0,0,0,1,0,0,0,1,1,0,1,1,0,0,0,0,0,0,0.1,0.1,0.153846,0,0,0,0.2,0.2,0.2,0.052632,0.125,0,0,0.014085,1,1,0.146789,1,0,0,0,0,0
1,1,0,0,0,0,0.5,1,0,0,1,0,0,1,1,1,1,0,0,0,1,1,1,1,0,0,0,0,1,0,0,0,0,1,0,1,0,0,0,0,0,0,0,0.2,0.2,0,0,0.083333,1,0.2,0.2,0,0.105263,0.5,0,0,0.028169,1,1,0.220183,1,0,0,0,0,14
0.5,1,0,0,0,0,0.5,1,0,0,1,0,0,1,0,0,1,0,0,1,0,0,0,0,1,0,0,0,1,0,0,0,1,0,0,1,0,0,0,0,0,0,0,0.3,0.3,0.307692,0,0.416667,0,0.4,1,0.4,0.210526,1,0,0.125,0.014085,1,1,0.284404,1,0,0,0,0,0
0.5,1,0,0,0,0,0.5,1,0,0,1,0,0,1,1,1,1,0,0,0,0,0,1,0,0,0,0,0,1,0,0,0,0,1,0,0,0,0,1,0,0,1,0,0.2,0.2,0.538462,0.375,0.166667,0,0.2,0.6,0.2,0.052632,0.25,0,0.125,0.014085,1,1,0.229358,1,0,0,0,0,0
0.5,1,0,0,0,0,0,1,0,0,0,1,0,1,1,0,1,1,0,0,0,0,1,1,0,0,0,0,1,0,0,0,1,1,1,1,0,0,0,0,0,1,1,0.15,0.15,0,0,0.083333,0,0.4,0,0.8,0.210526,0.875,1,0.125,0.323944,1,0,0.174312,1,0,0,0,0,0
1,1,0,0,0,0,0,1,0,0,0,1,0,1,1,1,0,0,0,0,0,0,1,1,0,0,0,0,1,0,0,0,0,0,1,1,0,0,0,0,0,0,0,0.15,0.15,0.384615,0,0.333333,0,0,0,0,0.052632,0.625,0,0,0.197183,1,0,0.256881,1,0,1,0,0,3
0.5,1,0,0,0,0,0,1,0,0,0,1,0,1,1,1,1,0,0,0,1,1,1,0,1,1,1,0,1,1,1,0,1,0,1,0,0,0,0,0,0,1,1,0.2,0.2,0,0,0,0,0,0,0,0.105263,0,0,0,0.098592,1,1,0.59633,1,0,0,0,0,49
1,1,0,0,0,0,0,1,0,0,1,0,0,1,1,1,1,0,0,0,0,0,1,1,0,0,1,0,1,1,1,0,1,1,1,1,0,1,1,0,0,1,1,0.15,0.15,0.076923,0,0,0,0,0,0,0.105263,0,0,0,0.014085,1,1,0.256881,1,0,0,0,0,0
1,1,0,0,0,0,0,1,0,0,1,0,0,0,1,1,1,1,0,0,0,0,1,0,0,1,0,1,1,1,0,1,1,1,1,1,0,0,0,0,0,1,1,0.45,0.45,0,0,0.083333,0,0,0,0,0.105263,0,0,0,0.112676,1,1,0.376147,1,0,0,0,0,18
1,1,0,0,0,0,1,1,0,0,1,0,0,1,1,1,1,1,0,0,0,0,1,0,0,1,0,0,1,1,1,1,1,1,1,1,0,0,0,0,0,1,1,0.15,0.15,0.076923,0,0,0,0,0,0.2,0.105263,0,0,0,0.15493,1,1,0.40367,1,0,0,0,0,0
1,1,0,0,0,0,0,1,0,0,1,0,0,1,1,1,1,1,0,0,0,0,1,0,1,0,1,0,1,1,1,1,1,1,1,1,0,0,0,0,0,0,1,0.2,0.2,0.076923,0,0,0,0,0,0,0.105263,0,0,0,0.098592,1,1,0.477064,1,0,0,0,0,13
0.5,1,0,0,0,0,0,1,0,1,0,1,0,1,1,1,1,0,0,0,0,0,1,0,0,1,1,0,1,1,1,1,1,1,1,1,0,0,0,0,0,1,1,0.2,0.2,0,0,0.166667,0,0.2,0,0,0.210526,0,0,0,0.028169,1,1,0.568807,1,0,0,0,0,9
0.5,1,0,0,0,0,0,1,0,0,1,0,0,1,0,0,1,0,0,0,0,0,1,0,0,1,1,0,1,1,0,0,1,1,1,1,1,1,1,0,0,0,0,0.2,0.2,0.153846,0,0.166667,0,0.2,0,0,0,0,0,0,0.014085,1,0,0.431193,1,0,0,0,0,0
0.5,1,0,0,0,0,1,1,0,0,1,0,0,1,0,0,1,0,0,0,0,0,1,0,0,0,0,0,1,1,0,0,1,0,0,1,0,0,0,0,0,0,0,0.05,0.05,0,0,0.083333,0,0.2,0,0,0,0,0,0,0.014085,1,1,0.247706,1,0,0,0,0,0
1,1,0,0,0,0,1,1,1,0,1,0,0,1,1,1,1,0,0,0,0,0,1,0,1,1,1,0,1,1,0,0,1,1,1,1,0,0,0,0,0,1,1,0.2,0.2,0.153846,0.125,0.083333,0,0,0,0,0.052632,0,0,0,0.014085,1,1,0.678899,1,0,0,0,0,0
0.5,1,0,0,0,0,0,1,0,0,0,1,0,1,0,0,1,0,0,0,0,0,1,0,0,1,1,0,1,1,0,0,1,0,1,1,0,1,1,0,0,0,1,0.2,0.2,0,0,0.083333,0,0,0,0,0,0,0,0,0.014085,1,1,0.440367,1,0,0,0,0,0
0.5,1,0,0,0,0,0,1,0,0,1,0,0,1,1,1,1,0,0,0,0,0,1,0,0,1,1,0,1,1,0,1,1,1,1,1,0,1,0,0,0,1,1,0.25,0.25,0,0,0.083333,0,0.2,0,0,0,0,0,0,0.014085,1,1,0.623853,1,0,0,0,0,0
0.5,1,0,0,0,0,0,1,0,0,1,1,0,1,1,0,1,0,0,0,0,0,1,0,0,1,0,0,1,1,0,0,1,1,1,0,0,0,0,0,0,0,1,0.05,0.05,0,0,0.083333,0,0,0,0,0,0,0,0,0.014085,1,1,0.229358,1,0,0,0,0,0
0.5,1,0,0,0,0,0.5,1,0,0,0,1,0,1,1,0,0,0,0,0,0,0,1,0,1,1,0,0,1,1,0,0,1,1,0,1,0,0,0,0,0,0,1,0.05,0.05,0.076923,0,0.083333,0,0.2,0,0,0,0,0,0,0.014085,1,1,0.247706,1,0,0,0,0,5
0.5,1,0,0,0,0,0.5,1,0,0,0,1,0,1,1,0,0,0,0,0,0,0,1,0,0,1,0,0,1,1,0,0,1,1,1,1,0,0,0,0,0,0,1,0.15,0.15,0.076923,0,0.083333,0,0.2,0,0,0,0,0,0,0.014085,1,1,0.348624,1,0,0,0,0,1
0.5,1,0,0,0,0,0.5,1,0,0,1,0,0,1,1,1,1,0,0,1,0,0,1,0,0,0,0,0,1,0,0,0,1,0,1,0,0,0,0,0,0,0,0,0.1,0.1,0.153846,0,0.083333,0,0.2,0,0.4,0.157895,0.25,0,0,0.056338,1,1,0.311927,1,0,0,0,0,0
0.5,1,0,0,0,0,0,1,0,0,1,0,0,1,1,1,0,0,0,0,0,0,1,0,0,1,1,0,1,1,0,0,1,1,1,1,0,0,0,0,0,0,1,0.2,0.2,0,0,0.083333,0,0.2,0,0,0.105263,0,0,0,0.056338,1,1,0.486239,1,0,0,0,0,14
0.5,1,0,0,0,0,0,1,0,0,1,0,0,1,1,1,0,0,0,0,0,0,1,0,1,1,1,0,1,1,0,0,0,0,0,0,0,0,0,0,0,0,0,0.2,0.2,0.076923,0,0.083333,0,0,0,0,0.105263,0,0,0,0.014085,1,1,0.504587,1,0,0,0,0,17
0.5,1,0,0,0,0,0,1,0,0,1,0,0,1,1,0,0,0,0,0,0,0,1,0,0,0,0,1,1,1,0,0,1,1,1,1,0,0,0,0,0,0,1,0.1,0.1,0,0,0,0,0,0,0,0,0,0,0,0.070423,1,1,0.302752,1,0,0,0,0,6
0.5,1,0,0,0,0,1,1,0,1,0,1,0,1,0,0,1,0,0,0,0,0,1,0,0,0,0,0,1,1,0,0,1,0,1,0,0,0,0,0,0,0,1,0.1,0.1,0,0,0.083333,0,0.2,0,0,0,0,0,0.125,0.014085,1,0,0.247706,1,0,0,0,0,0
0.5,1,0,0,0,0,0,1,0,0,0,1,0,1,1,0,0,0,0,0,0,0,1,0,0,0,0,0,1,1,0,0,1,1,1,1,0,0,0,0,0,0,1,0.15,0.15,0.153846,0,0.083333,0,0.2,0,0,0.052632,0,0,0,0.056338,1,1,0.366972,1,0,0,0,0,0
0.5,1,0,0,0,0,0.5,1,0,0,1,0,0,1,0,0,1,0,0,0,0,0,1,0,0,0,0,1,0,0,0,0,1,0,1,1,0,0,0,0,0,0,1,0.05,0.05,0.076923,0,0.083333,0,0.2,0,0,0,0,0,0,0.028169,1,0,0.201835,1,0,0,0,0,3
1,1,0,0,0,0,0,1,0,0,1,0,0,1,1,0,1,0,0,0,0,0,1,0,1,1,0,1,1,1,0,0,1,1,1,0,0,0,0,0,0,0,1,0.1,0.1,0.076923,0,0.166667,0,0.2,0,0,0.052632,0,0,0,0.014085,1,1,0.284404,1,0,0,0,0,11
0.5,1,0,0,0,0,1,0,0,1,1,0,0,1,1,0,0,0,0,0,0,0,1,0,0,1,0,0,1,1,0,0,0,1,1,1,0,0,1,0,0,1,1,0.25,0.25,0,0,0.083333,0,0.2,0,0,0,0,0,0,0.014085,1,1,0.651376,1,0,0,0,0,0
0.5,1,0,0,0,0,0,0,0,1,0,0,1,1,1,1,1,0,0,0,0,0,1,0,0,0,1,0,1,1,0,0,1,0,1,1,0,0,0,0,0,1,1,0.2,0.2,0,0,0,0,0.2,0,0,0,0,0,0,0.014085,1,1,0.559633,1,0,0,0,0,0
0.5,1,0,0,0,0,1,1,0,0,1,0,0,1,0,0,1,0,0,0,0,0,1,0,0,1,0,0,1,0,0,0,1,1,1,1,0,0,0,0,0,0,1,0.1,0.1,0.153846,0,0.083333,1,0,0,0,0,0,0,0,0.028169,1,1,0.284404,1,0,0,0,0,2
0.5,1,0,0,0,0,0,1,0,0,0,1,0,1,1,1,1,0,0,0,0,0,1,0,1,1,1,0,1,1,0,0,1,1,1,1,0,1,0,0,0,1,1,0.25,0.25,0.230769,0,0.166667,0,0.2,0,0,0,0,0,0,0.014085,1,1,0.587156,1,0,0,0,0,9
0.5,1,0,0,0,0,0,1,0,0,1,1,0,1,1,0,0,0,0,0,0,0,1,0,0,1,1,0,1,1,0,0,1,1,1,1,0,0,0,0,0,1,1,0.2,0.2,0.307692,0,0.333333,0,0.2,0,0,0.210526,0,0,0.125,0.112676,1,1,0.568807,1,0,0,0,0,15
0.5,1,0,0,0,0,0,1,0,1,1,0,0,1,0,1,1,0,0,0,0,0,1,0,0,1,0,0,1,1,0,0,1,1,1,1,0,0,0,0,0,0,1,0.15,0.15,0,0,0.083333,0,0,0,0,0,0,0,0,0.028169,1,1,0.256881,1,0,0,0,0,19
0.5,1,0,0,0,0,0,1,0,0,1,0,0,1,1,0,0,0,0,0,0,0,1,0,0,1,1,0,1,1,0,0,1,1,1,1,0,0,0,0,0,0,1,0.2,0.2,0,0,0.083333,0,0.2,0,0,0.052632,0,0,0,0.014085,1,1,0.504587,1,0,0,0,0,0
0.5,1,0,0,0,0,0,1,0,0,1,0,0,1,0,0,1,0,0,0,0,0,1,1,0,0,0,0,1,1,0,0,1,1,1,1,0,0,1,0,0,0,1,0.15,0.15,0.153846,0,0.083333,0,0.2,0,0,0,0,0,0.125,0.014085,1,1,0.46789,1,0,0,0,0,0
0.5,1,0,0,0,0,0,1,0,0,1,0,0,1,0,1,1,0,0,0,0,0,1,0,0,1,1,0,1,1,0,0,1,0,1,1,1,0,0,0,0,1,1,0.25,0.25,0.076923,0,0.083333,0,0.2,0,0,0,0,0,0,0.014085,1,1,0.568807,1,0,0,0,0,8
0.5,1,0,0,0,0,0.5,1,0,0,1,0,0,1,1,1,0,0,0,0,0,0,1,0,0,1,0,0,1,1,0,0,1,1,1,1,0,0,1,0,0,1,1,0.15,0.15,0,0,0.083333,0,0.2,0,0.2,0.210526,0,0,0.125,0.014085,1,1,0.422018,1,0,0,0,0,0
0.5,1,0,0,0,0,0,1,0,0,1,0,0,1,0,1,1,0,0,0,0,0,1,0,0,1,0,1,1,1,1,1,1,1,1,1,0,0,0,0,0,1,1,0.1,0.1,0,0,0.083333,0,0.2,0,0,0,0,0,0,0.028169,1,1,0.495413,1,0,0,0,0,3
0.5,1,0,0,0,0,1,1,0,0,1,0,0,1,0,0,1,0,0,0,0,0,1,0,0,0,0,0,1,1,0,0,1,1,1,0,0,0,0,0,0,0,1,0.05,0.05,0.153846,0,0.166667,0,0,0,0,0.052632,0,0,0,0.028169,1,1,0.256881,1,0,0,0,0,0
0.5,1,0,0,0,0,0,1,0,0,1,0,0,1,1,0,0,0,0,0,0,0,1,0,0,1,0,0,1,0,0,0,1,0,1,1,0,0,0,0,0,0,1,0.15,0.15,0,0,0.083333,0,0.2,0,0,0,0,0,0,0.028169,1,1,0.330275,1,0,0,0,0,6
0.5,1,0,0,0,0,0,1,0,0,0,1,0,1,1,1,1,0,0,0,0,0,1,0,0,1,1,1,1,1,0,0,1,1,1,1,0,0,0,0,0,0,1,0.25,0.25,0.076923,0,0.5,0,0.2,0,0,0,0,0,0.125,0.15493,1,1,0.495413,1,0,0,0,0,15
0.5,1,0,0,0,0,0,1,0,0,1,0,0,1,1,1,1,0,0,0,0,0,1,0,0,0,1,0,1,1,0,0,1,1,1,1,0,1,0,0,0,1,1,0.4,0.4,0,0,0.083333,0,0.2,0,0,0,0,0,0,0.014085,0,0,0.577982,1,0,0,0,0,0
0.5,1,0,0,0,0,0,1,0,0,0,1,0,1,0,1,0,0,0,0,0,0,1,0,0,1,0,0,1,1,0,0,1,1,1,1,0,0,0,0,0,0,1,0.15,0.15,0,0,0.083333,0,0,0,0,0,0,0,0,0.014085,1,1,0.357798,1,0,0,0,0,0
0.5,1,0,0,0,0,0,1,0,0,1,0,0,1,1,1,1,0,0,0,0,0,1,0,0,1,1,0,1,1,1,0,1,1,1,1,0,0,0,0,0,1,1,0.2,0.2,0,0,0.25,0,0.2,0,0,0.105263,0,0,0,0.084507,1,1,0.229358,1,0,0,0,0,33
0.5,1,0,0,0,0,0,1,0,0,1,0,0,1,1,0,1,0,0,0,0,0,1,0,0,1,1,1,1,1,0,0,1,1,1,1,0,0,0,0,0,1,1,0.2,0.2,0.384615,0,0,0,0.2,0,0,0.052632,0,0,0,0.098592,1,1,0.541284,1,0,0,0,0,12
0.5,1,0,0,0,0,0,1,0,0,1,0,0,1,1,1,0,0,0,0,0,0,1,0,0,1,0,0,1,1,0,0,1,1,1,1,0,0,0,0,0,0,1,0.25,0.25,0,0,0.083333,0,0.2,0,0,0.105263,0,0,0,0.098592,1,1,0.366972,1,0,0,0,0,10
0.5,1,0,0,0,0,0,1,0,0,1,0,0,1,0,0,1,0,0,0,0,0,1,0,0,1,1,0,1,1,0,0,1,1,1,1,0,0,0,0,0,0,1,0.2,0.2,0.076923,0,0,0,0.2,0,0,0.105263,0,0,0,0.028169,1,1,0.486239,1,0,0,0,0,31
0.5,1,0,0,0,0,0,1,0,0,0,1,0,1,0,1,0,0,0,0,0,0,1,0,1,1,1,0,1,1,0,0,1,1,1,1,0,0,0,0,0,0,1,0.2,0.2,0,0,0.083333,0,0.2,0,0,0,0,0,0,0.014085,1,1,0.46789,1,0,0,0,0,0
0.5,1,0,0,0,0,0,1,0,0,1,0,0,1,1,1,0,0,0,0,0,0,1,0,0,1,1,0,1,1,0,0,1,1,1,1,0,0,0,0,0,0,0,0.2,0.2,0,0.125,0.083333,0,0.2,0,0,0,0,0,0.125,0.098592,1,1,0.440367,1,0,0,0,0,4
0.5,1,0,0,0,0,0,1,0,0,0,1,0,1,0,0,1,0,0,0,0,0,1,0,0,0,0,0,1,1,0,0,1,1,1,0,0,1,0,0,0,0,1,0.1,0.1,0,0,0.083333,0,0,0,0,0,0,0,0,0.014085,1,1,0.33945,1,0,0,0,0,0
1,1,0,0,0,0,0.5,1,0,0,0,1,0,0,0,0,1,0,0,0,0,0,1,0,0,1,1,0,1,1,0,0,1,1,0,1,0,1,1,1,0,1,1,0.2,0.2,0.153846,0,0.083333,0,0.2,0,0,0.052632,0,0,0,0.014085,1,0,0.46789,1,0,0,0,0,0
1,1,0,0,0,0,0,1,0,0,1,0,0,1,1,1,0,0,0,0,0,0,1,1,0,0,0,0,0,0,0,0,0,1,0,1,0,0,0,0,0,0,0,0.6,0.6,0.153846,0,0.25,0,0.2,0,0.2,0.157895,0,0,0.125,0.084507,1,1,0.633028,1,0,1,0,1,22
1,1,0,0,0,0,0,1,0,0,0,1,0,1,1,1,1,0,0,0,0,1,1,0,1,0,0,0,1,1,1,1,1,1,1,1,0,0,0,0,0,1,0,0.3,0.3,0.769231,0,0.666667,0,0,0.2,0.2,0.157895,0,0,0.25,0.042254,1,1,0.40367,1,0,1,0,1,2
1,0,0,0,0,1,0,1,0,0,0,1,0,1,1,1,0,1,0,0,0,0,1,0,0,0,0,0,1,0,0,0,0,0,1,0,0,0,0,0,0,0,0,0.2,0.2,0.384615,0,0.416667,0,0.2,0.2,0,0,0,0,0.125,0.169014,1,1,0.220183,1,0,0,0,1,2
1,1,0,0,0,0,0,1,0,0,1,0,0,1,1,0,1,0,0,1,0,0,1,1,0,0,0,0,1,1,0,0,1,0,1,1,0,0,0,0,0,0,0,0.4,0.4,0.538462,0,0.25,0,0.4,0.2,0.2,0.157895,0,1,0,0.183099,1,1,0.40367,1,0,1,0,1,3
0.5,1,0,0,0,0,0.5,1,0,0,1,0,0,1,0,0,1,1,0,0,0,0,1,0,0,0,0,0,1,0,0,0,1,0,1,0,0,0,0,0,0,0,0,0.25,0.25,0,0.25,0.083333,0,0.2,0,0.2,0.157895,0.125,0,0.375,0.014085,1,1,0.293578,1,0,1,0,1,0
1,1,0,0,0,0,0.5,1,0,0,0,1,0,1,1,0,1,1,0,0,0,0,1,0,0,0,0,0,1,0,0,0,1,0,1,0,0,0,0,0,0,0,0,0.3,0.3,0.461538,0,0.333333,0,0.4,0.2,0,0.052632,0,1,0.125,0.098592,1,1,0.311927,1,0,1,0,1,0
1,1,0,0,0,0,0.5,0,1,0,0,1,0,1,0,0,0,1,0,0,0,0,1,1,0,1,0,1,1,0,0,0,0,0,0,0,0,0,0,0,0,0,0,0.7,0.7,0.076923,0,0.166667,0,0,0.2,0,0.105263,0,0,0,0.014085,1,1,0.59633,1,0,1,0,0,3
1,1,0,0,0,0,0,1,0,0,0,1,0,1,1,1,1,1,0,0,0,0,1,0,1,0,0,0,1,1,0,0,1,0,1,0,0,0,0,0,0,0,0,0.35,0.35,0,0,0.166667,0,0.2,0,0,0.052632,0,0,0.125,0.169014,1,1,0.311927,1,0,0,0,0,12
0.5,1,0,0,0,0,0.5,0,1,0,1,0,0,1,1,0,0,1,0,0,0,0,1,0,0,0,0,1,1,0,0,0,1,0,0,1,0,0,0,0,0,0,0,0.2,0.2,0.153846,0,0.25,0,0.2,0,0.2,0.263158,0,0,0.375,0.014085,1,1,0.275229,1,0,1,1,0,0
1,0,0,0,0,1,0,1,0,0,1,1,0,1,0,0,0,0,0,0,0,0,0,0,0,0,0,0,1,0,0,0,0,0,0,0,0,0,0,0,0,0,0,0.05,0.05,0.076923,0,0,0,0,0,0,0.105263,0,0,0,0,0,0,0.082569,1,0,0,0,0,0
1,1,0,0,0,0,0,1,0,0,1,1,0,1,1,0,0,0,0,0,0,0,1,0,1,0,0,0,1,1,0,0,1,0,1,0,0,1,0,0,0,0,0,0.3,0.3,0,0.25,0.166667,0,0.2,0,0,0,0,0,0,0.014085,1,1,0.247706,1,0,0,0,0,1
1,1,0,0,0,0,0,1,0,0,0,1,0,1,0,0,1,1,0,1,0,0,1,0,0,0,0,0,1,0,1,0,1,0,0,0,0,0,0,0,0,0,0,0.15,0.15,0,0,0,0,0.2,0,0,0,0.125,0,0,0.098592,1,1,0.302752,1,0,0,0,0,2
0.5,1,0,0,0,0,0,1,0,0,1,0,0,1,0,0,1,0,0,0,0,0,1,1,0,1,0,0,1,1,0,0,0,0,0,0,0,0,0,0,0,1,0,0.3,0.3,0,0.25,0.166667,0,0.4,0,0.4,0.105263,0,0,0,0.028169,1,1,0.376147,1,0,1,0,0,24
0.5,1,0,0,0,0,0.5,0,1,0,0,1,0,1,0,0,0,0,0,0,0,0,1,0,1,0,0,0,1,1,1,0,0,0,0,1,0,0,0,0,0,0,0,0.15,0.15,0,0,0,0,0,0,0,0.105263,0,0,0,0.084507,0,0,0.146789,1,0,0,0,1,0
1,0,1,0,0,0,0,1,0,0,0,1,0,1,0,0,0,0,0,0,0,0,1,0,0,0,0,1,1,0,0,0,0,1,0,0,0,0,0,0,0,0,0,0.05,0.05,0.076923,0,0,0,0,0,0,0.105263,0,0,0,0,0,0,0.045872,1,0,0,0,0,0
1,1,0,0,0,0,0,1,0,0,1,1,0,1,0,0,0,0,0,0,0,0,1,0,0,0,0,0,1,0,0,0,0,0,0,0,0,0,0,0,0,0,0,0.2,0.2,0.076923,0,0,0,0,0,0,0.105263,0,0,0,0,0,0,0.266055,1,0,0,0,0,3
0.5,1,0,0,0,0,0,1,0,0,0,1,0,1,0,0,1,0,0,0,0,0,1,0,0,0,0,0,1,0,0,0,0,0,0,1,0,0,0,0,0,0,0,0.2,0.2,0,0,0.083333,0,0.2,0,0,0.052632,0,0,0,0.239437,1,1,0.220183,1,0,0,0,1,1
1,1,0,0,0,0,0,1,0,0,1,0,0,1,0,0,1,1,0,0,0,0,1,0,0,0,0,0,1,0,1,0,1,0,1,1,0,0,0,0,0,0,0,0.25,0.25,0.384615,0,0.583333,0,0.2,0.2,0,0.421053,0,0,0.375,0.014085,1,1,0.201835,1,0,0,0,0,0
0.5,1,0,0,0,0,0,0,1,0,0,1,0,1,1,1,1,0,0,0,0,1,1,1,0,1,0,0,0,1,0,0,1,1,1,1,0,0,0,0,0,0,0,0.35,0.35,0.153846,0,0.333333,0,0.4,0.2,0.2,0.315789,0,1,0.375,0.211268,1,1,0.46789,1,0,1,0,1,0
1,1,0,0,0,0,0.5,0,1,0,1,0,0,1,0,0,0,0,0,0,0,0,0,0,0,0,0,0,1,0,0,0,0,0,0,0,0,0,0,0,0,0,0,0.1,0.1,0.230769,0,0.25,1,0,0,0,0.052632,0,0,0,0.084507,0,0,0.100917,1,0,0,0,1,2
1,1,0,0,0,0,0.5,1,0,0,0,1,0,1,1,0,1,1,0,0,0,0,1,0,1,0,0,0,1,1,0,0,1,0,0,1,0,0,1,0,0,0,0,0.15,0.15,0,0,0.083333,0,0.2,0,0,0,0,0,0,0.014085,1,1,0.146789,1,0,0,1,0,0
0.5,1,0,0,0,0,0.5,1,0,0,1,0,0,1,0,0,0,1,0,0,0,0,1,0,0,0,0,0,1,1,0,0,0,1,0,0,0,0,0,0,0,0,0,0.05,0.05,0,0,0.083333,0,0,0,0,0,0,0,0,0.140845,0,0,0.137615,1,0,1,0,0,0
0.5,0,0,0,0,1,0,1,0,0,1,0,0,1,0,0,0,0,0,0,0,0,1,0,0,0,0,0,1,0,0,0,0,0,0,0,0,0,0,0,0,0,0,0.1,0.1,0.076923,0,0,0,0,0,0,0.105263,0,0,0,0,0,0,0.091743,1,0,0,0,0,0
1,1,0,0,0,0,0,0,0,1,1,0,0,1,0,1,1,1,0,0,0,0,1,0,1,0,0,0,1,0,0,0,1,0,1,0,0,0,0,0,0,0,0,0.1,0.1,0,0,0.083333,0,0,0,0,0,0,0,0,0.15493,1,1,0.229358,1,0,0,0,0,0
0,1,0,0,0,0,0,1,0,0,1,1,0,1,1,1,1,0,0,0,0,0,1,1,0,0,0,0,1,0,1,1,1,1,1,1,0,1,1,0,0,0,1,0.5,0.5,0.153846,0,0.416667,0,0.4,0,0.2,0.368421,0,0,0.375,0.014085,1,1,0.504587,1,0,1,1,0,0
1,0,1,0,0,0,0,1,0,0,0,1,0,1,0,0,0,0,0,0,0,0,1,0,0,0,0,0,1,0,0,0,0,0,0,0,0,0,0,0,0,0,0,0.05,0.05,0,0,0,0,0,0,0,0.105263,0,0,0,0.084507,0,0,0.073394,1,0,0,0,0,0
1,0,0,0,0,1,0,1,0,1,0,1,0,1,0,0,1,1,0,0,0,0,1,0,0,0,0,0,1,0,0,0,1,0,1,1,0,0,0,0,0,0,0,0.3,0.3,0,0,0.083333,0,0.2,0,0.4,0.157895,0,0,0.25,0.239437,1,1,0.284404,1,0,0,0,1,0
1,1,0,0,0,0,1,1,0,0,0,1,0,1,0,0,1,0,0,0,0,0,1,0,1,0,0,0,1,0,0,0,0,0,0,1,0,0,0,0,0,0,0,0.4,0.4,0.153846,0,0.333333,0,0,0.2,0.2,0,0,0,0.125,0.098592,1,1,0.412844,1,0,1,0,1,4
1,1,0,0,0,0,0,1,0,0,1,0,0,1,1,0,1,1,0,0,0,0,1,0,0,0,0,0,1,0,0,0,0,0,0,0,0,1,0,0,0,0,0,0.4,0.4,0,0,0.083333,0,0,0.2,0.2,0,0,0,0,0.014085,1,1,0.724771,1,0,1,0,1,0
1,1,0,0,0,0,0,1,0,0,0,1,0,1,0,1,1,0,0,0,0,0,1,0,0,0,0,0,1,1,1,1,1,0,0,0,0,0,0,0,0,0,0,0.1,0.1,0,0,0.083333,0,0.2,0.2,0.2,0.157895,0,0,0.125,0.323944,1,1,0.137615,1,0,0,0,0,0
1,1,0,0,0,0,0.5,1,0,0,0,1,0,1,0,0,0,0,0,0,0,1,1,0,0,0,0,1,1,0,0,0,1,0,0,1,0,0,0,0,0,0,0,0.25,0.25,0.076923,0,0.083333,0,0.4,0,0,0.105263,0,0,0,0.126761,1,1,0.229358,1,0,0,0,0,1
1,1,0,0,0,0,0.5,1,0,0,1,0,0,1,1,0,1,1,0,0,0,0,1,0,1,0,0,0,1,1,1,0,0,0,1,1,0,0,0,0,0,0,0,0.3,0.3,0.307692,0,0.166667,0,0.2,0,0,0.263158,0.125,0,0.25,0.056338,1,1,0.385321,1,0,0,0,0,0
1,0,0,0,0,1,0,1,0,0,0,1,0,1,0,0,0,0,0,0,0,0,0,0,1,0,0,0,1,0,0,0,0,0,0,0,0,0,0,0,0,0,0,0.25,0.25,0.076923,0,0,0,0,0,0,0.105263,0,0,0,0.084507,0,0,0.146789,1,0,0,0,1,0
0.5,0,0,0,0,1,0,0,1,0,0,1,0,1,0,0,1,0,0,0,0,0,1,0,0,0,0,0,1,0,0,0,1,0,1,1,0,0,0,0,0,0,0,0.25,0.25,0.076923,0,0.083333,0,0.2,0.2,0,0.263158,0.125,0,0.125,0.014085,1,1,0.357798,1,0,0,0,0,1
0.5,1,0,0,0,0,0.5,1,0,0,1,0,0,1,0,0,1,0,0,0,0,0,1,0,0,0,1,0,1,0,0,0,1,1,0,0,0,0,1,0,0,0,1,0.5,0.5,0.076923,0,0.083333,0,0.2,0,0,0.105263,0,0,0,0.014085,1,1,0.550459,1,0,0,0,0,0
0.5,1,0,0,0,0,0,1,0,0,0,1,0,1,1,0,1,0,0,0,0,0,1,0,0,1,1,0,1,1,0,0,1,0,1,1,0,0,0,0,0,1,1,0.2,0.2,0,0,0.083333,0,0.2,0,0,0.052632,0,0,0,0.098592,1,1,0.431193,1,0,0,0,0,17
0.5,1,0,0,0,0,0,1,0,0,0,1,0,1,1,0,1,0,0,0,0,0,1,0,0,1,1,0,1,1,0,0,1,0,1,1,0,0,0,0,0,0,1,0.2,0.2,0.230769,0,0.083333,0,0.2,0,0,0,0,0,0,0.112676,1,1,0.541284,1,0,0,0,0,5
0.5,1,0,0,0,0,0,1,0,0,1,0,0,1,1,0,0,0,0,0,0,0,1,0,0,0,0,0,1,1,0,0,1,0,1,1,0,1,0,0,0,0,1,0.05,0.05,0.076923,0,0.166667,0,0,0,0,0.052632,0,0,0,0.014085,1,1,0.238532,1,0,0,0,0,0
0.5,1,0,0,0,0,0,1,0,0,1,0,0,1,0,0,1,0,0,0,0,0,1,0,0,1,1,0,1,0,0,0,1,0,1,1,0,0,0,0,0,0,1,0.55,0.55,0,0,0,0,0,0,0,0.105263,0,0,0,0.014085,1,1,0.568807,1,0,0,0,0,0
0.5,1,0,0,0,0,1,1,0,0,1,0,0,1,1,0,1,0,0,0,0,0,1,0,0,0,1,0,1,1,0,0,0,1,1,1,0,0,0,0,0,0,1,0.35,0.35,0.153846,0,0.083333,0,0.2,0,0,0,0,0,0,0.042254,1,1,0.87156,1,0,0,0,0,36
0.5,1,0,0,0,0,0.5,1,0,0,1,0,0,1,1,0,0,0,0,0,0,0,1,0,0,0,0,0,1,1,0,0,1,1,1,0,0,0,0,0,0,0,1,0.15,0.15,0,0.125,0.083333,0,0.2,0,0,0.105263,0,0,0,0.014085,1,1,0.449541,1,0,0,0,0,0
1,1,0,0,0,0,1,1,0,0,1,0,0,1,1,1,1,0,0,0,0,0,1,0,0,0,1,0,1,1,0,0,1,0,1,1,0,0,0,0,0,1,1,0.2,0.2,0.230769,0,0.25,0,0.2,0,0,0,0,0,0,0.042254,1,1,0.477064,1,0,0,0,0,17
0.5,1,0,0,0,0,1,1,0,0,1,0,0,1,0,0,1,0,0,1,0,0,1,0,0,1,1,0,1,1,0,0,1,0,1,1,0,0,0,0,0,1,1,0.2,0.2,0.076923,0,0,0,0,0.2,0,0,0,0,0,0.098592,1,1,0.284404,1,0,0,0,1,12
0.5,1,0,0,0,0,0,1,0,0,1,0,0,1,1,0,0,0,0,0,0,0,1,0,0,0,0,1,1,0,0,0,1,0,1,0,0,0,0,0,0,0,1,0.2,0.2,0.153846,0,0.083333,0,0.2,0,0,0,0,0,0,0.098592,1,1,0.394495,1,0,0,0,1,3
1,1,0,0,0,0,0,0,1,0,0,1,0,1,1,0,0,0,0,0,0,0,1,0,0,0,1,0,1,1,0,0,1,0,0,0,0,1,0,0,0,0,1,0.35,0.35,0,0,0.083333,0,0,0,0,0.105263,0,0,0,0.014085,1,1,0.678899,1,0,0,0,0,0
1,1,0,0,0,0,0,0,1,0,1,0,0,1,1,0,1,0,0,0,0,0,1,0,0,1,1,0,1,1,0,1,1,1,1,1,0,0,0,0,0,1,1,0.35,0.35,0.076923,0,0,0,0.2,0,0,0.105263,0,0,0,0.028169,1,1,0.697248,1,0,0,0,0,1
0.5,0,0,0,0,1,0,1,0,0,0,1,0,1,0,0,1,0,0,0,0,0,1,0,0,1,0,0,1,1,0,0,1,1,1,0,0,0,0,0,0,1,1,0.1,0.1,0,0,0,0,0.2,0,0,0,0,0,0,0.070423,1,1,0.293578,1,0,0,0,0,0
0.5,1,0,0,0,0,0,1,0,0,1,0,0,1,0,0,1,0,0,0,0,0,1,0,0,0,0,0,1,0,0,0,1,0,1,0,0,0,0,0,0,0,1,0.05,0.05,0.076923,0.25,0.166667,0,0.2,0,0,0,0,0,0,0.014085,1,1,0.201835,1,0,0,0,0,0
1,1,0,0,0,0,1,1,0,0,1,0,0,1,0,0,1,0,0,0,0,0,1,1,0,1,0,0,1,1,0,0,1,1,1,1,1,0,0,0,0,0,1,0.1,0.1,0.153846,0,0.25,0,0.2,0,0,0,0,0,0,0.028169,1,1,0.266055,1,0,0,0,0,9
0.5,1,0,0,0,0,0.5,0,1,0,1,0,0,1,0,0,0,0,0,0,0,0,1,0,0,1,0,0,1,0,0,0,0,0,1,1,0,0,0,0,0,0,0,0.1,0.1,0.230769,0,0.25,1,0.2,0.2,0,0.052632,0,0,0.25,0.014085,0,0,0.091743,1,0,0,0,0,6
1,1,0,0,0,0,0,1,0,0,0,1,0,1,0,1,1,1,0,0,0,0,1,1,0,0,0,0,1,1,1,0,0,1,1,1,0,0,0,0,0,0,0,0.5,0.5,0.307692,0,0.166667,0,0.2,0.2,0.4,0.157895,0.25,0,0.125,0.042254,1,1,0.431193,1,0,0,0,0,0
1,1,0,0,0,0,0,1,0,0,1,0,0,1,1,1,1,1,0,1,0,0,1,1,0,1,0,0,1,1,1,0,0,1,0,0,0,0,0,0,0,0,0,0.55,0.55,0.076923,0,0.166667,0,0.2,0,0,0.052632,0.125,0,0.125,0.183099,1,1,0.577982,1,0,1,0,0,6
1,0,0,0,0,1,0,1,0,0,0,1,0,1,0,0,0,0,0,0,0,0,1,0,0,0,0,0,1,0,0,0,0,0,0,0,0,0,0,0,0,0,0,0.15,0.15,0.076923,0,0,0,0,0,0,0.105263,0,0,0,0,0,0,0.100917,1,0,0,0,0,1
1,1,0,0,0,0,0,1,0,0,0,0,1,1,1,1,1,0,0,0,0,0,1,1,0,0,0,0,1,1,0,0,1,0,1,1,0,0,0,0,0,0,0,0.2,0.2,0.153846,0,0.166667,0,0.2,0.2,0,0,0,0,0.125,0.098592,1,1,0.119266,1,0,0,0,0,4
