inep_escola;codigo_escola;situacao;data_inicio;data_termino;nome;latitude;longitude;cep;endereco;endereco_numero;endereco_complemento;bairro_codigo;bairro;telefone;fax;email;orgao_regional;regulamentacao;unidade_vinculada;codigo_escola_sede;codigo_ies;funcionamento_predio_escolar;funcionamento_templo;funcionamento_empresa;funcionamento_casa_prof;funcionamento_outras_escolas;funcionamento_galpao;funcionamento_socioeducativa;funcionamento_unid_prisional;funcionamento_outros;forma_ocupacao;predio_compartilhado;esc_compartilha1;esc_compartilha2;esc_compartilha3;esc_compartilha4;esc_compartilha5;esc_compartilha6;agua_consumida;agua_rede_publica;agua_poco_artesiano;agua_cacimba;agua_fonte;agua_inexistente;energia_rede_publica;energia_gerador;energia_outros;energia_inexistente;esgoto_rede_publica;esgoto_fossa;esgoto_inexistente;lixo_coleta_periodica;lixo_queima;lixo_outra_area;lixo_recicla;lixo_enterra;lixo_outros;dependencia_diretoria;dependencia_professores;dependencia_secretaria;dependencia_laboratorio_informatica;dependencia_laboratorio_ciencias;dependencia_aee;dependencia_quadra_coberta;dependencia_quadra_descoberta;dependencia_cozinha;dependencia_biblioteca;dependencia_leitura;dependencia_parque_infantil;dependencia_bercario;dependencia_banheiro_fora;dependencia_banheiro_dentro;dependencia_banheiro_infantil;dependencia_banheiro_deficiencia;dependencia_vias_adequadas_deficiencia;dependencia_banheiro_chuveiro;dependencia_refeitorio;dependencia_despensa;dependencia_almoxarifado;dependencia_auditorio;dependencia_patio_coberto;dependencia_patio_descoberto;dependencia_alojamento_aluno;dependencia_alojamento_professor;dependencia_area_verde;dependencia_lavanderia;dependencia_outras;quantidade_salas_existentes;quantidade_salas_utilizadas_fora_e_dentro;equipamentos_televisao;equipamentos_videocassete;equipamentos_dvd;equipamentos_antena_parabolica;equipamentos_copiadora;equipamentos_retroprojetor;equipamentos_impressora;equipamentos_aparelho_som;equipamentos_projetor_multimidia;equipamentos_fax;equipamentos_maquina_fotografica;equipamentos_computadores;equipamentos_multifuncional;equipamentos_comp_administrativo;equipamentos_comp_alunos;acesso_internet;banda_larga;total_funcionarios;alimentacao_escolar;atendimento_educ_especializado;atividade_complementar;modalidade_regular;modalidade_especial;modalidade_eja;modalidade_profissional;fundamental_em_ciclos;brasil_alfabetizado;abre_finais_semana;formacao_por_alternancia;qtdDesistentes 
26127377;041;1;05/02/2015;23/12/2015;ESCOLA MUNICIPAL ENGENHO DO MEIO;;;50670260;BOM PASTOR;1406;;710;ENGENHO DO MEIO;33553450;34531293;EM.ENGENHODOMEIO@EDUCARECIFE.COM.BR;00002;1;0;;;1;0;0;0;0;0;0;0;0;1;0;;;;;;;2;1;0;0;0;0;1;0;0;0;0;1;0;1;0;0;0;0;0;1;1;1;1;0;1;0;0;1;1;0;0;0;0;1;0;1;0;1;1;0;1;0;;;;;1;0;0;12;12;6;;6;;2;1;5;9;2;;3;27;;8;19;1;1;73;1;1;1;1;0;1;0;1;1;1;0;0
26166623;924;1;05/02/2015;23/12/2015;ESCOLA MUNICIPAL CAMPINA DO BARRETO;;;52221280;VIRGILIO DE MELO FRANCO;28;;353;CAJUEIRO;33554212;34495161;ESCOLACAMPINA@YAHOO.COM.BR;00001;2;0;;;1;0;0;0;0;0;0;0;0;1;0;;;;;;;2;1;0;0;0;0;1;0;0;0;1;0;0;1;0;0;0;0;0;1;0;1;0;0;1;0;0;1;1;0;0;0;0;1;1;0;0;1;0;1;1;0;;;;;0;0;0;9;9;8;;3;;2;1;2;4;1;1;;13;;4;9;1;1;45;1;1;1;1;0;1;0;1;0;1;0;0
26167859;524;1;05/02/2015;29/12/2015;CRECHE MUNICIPAL CHICO MENDES-;;;50875010;SINDICATO DOS VIGILANTES;633;;850;AREIAS;33554822;32537829;CRM.CHICOMENDES@EDUCARECIFE.COM.BR;00002;1;0;;;1;0;0;0;0;0;0;0;0;3;0;;;;;;;2;1;0;0;0;0;1;0;0;0;1;0;0;1;0;0;0;0;0;0;0;1;0;0;0;0;0;1;0;0;1;0;0;1;0;0;0;1;1;1;1;0;;;;;0;1;0;3;3;3;;1;1;;;1;1;;;;2;;;2;1;1;32;1;1;1;1;0;0;0;;0;0;0;0
26175878;377;1;05/02/2015;31/12/2015;CMEI CELESTE VIDAL;;;52291655;JARDIM ELDORADO;275;A;418;GUABIRABA;33550212;33550213;CRM.CELESTEVIDAL@EDUCARECIFE.COM.BR;00001;2;0;;;1;0;0;0;0;0;0;0;0;3;0;;;;;;;2;1;0;0;0;0;1;0;0;0;0;1;0;1;0;0;0;0;0;1;1;1;0;0;0;0;0;1;0;0;1;0;0;1;0;0;0;1;0;1;1;0;;;;;0;1;0;4;4;3;;1;;1;;1;1;;;;1;;;1;1;1;33;1;0;0;1;0;0;0;;0;0;0;0
26127458;441;1;05/02/2015;23/12/2015;ESCOLA MUNICIPAL PAPA JOAO XXIII;;;50730540;GIRUA;S/N;V REDENCAO;710;ENGENHO DO MEIO;33554402;31813045;ESCMPAPAJOAO23@GMAIL.COM;00001;1;0;;;1;0;0;0;0;0;0;0;0;1;0;;;;;;;2;1;0;0;0;0;1;0;0;0;1;0;0;1;0;0;0;0;0;1;0;1;1;0;0;0;0;1;1;0;0;0;0;1;0;1;0;1;0;0;1;0;;;;;0;0;0;5;5;3;;5;;1;1;1;2;6;;3;13;;4;9;1;1;14;1;0;1;1;0;0;0;1;0;0;0;0
26181835;437;1;05/02/2015;23/12/2015;CMEI ALCIDES RESTELLI TEDESCO;;;50720380;FAUSTO CARDOSO;653;;647;MADALENA;33554305;;CEMEIALCIDESTEDESCO@OUTLOOK.COM;00002;1;0;;;1;0;0;0;0;0;0;0;0;1;0;;;;;;;2;1;0;1;0;0;1;0;0;0;0;1;0;1;0;0;0;0;0;1;1;1;1;0;0;0;0;1;1;1;0;1;0;1;1;1;0;1;1;1;1;0;;;;;1;1;0;8;8;2;;;;1;;1;1;;;;3;;;3;1;1;80;1;0;0;1;0;0;0;;0;0;0;0
26177978;137;1;05/02/2015;29/12/2015;ESCOLA MUNICIPAL NOVA MORADA;;;50980685;ELIANE FRAGOSO DO NASCIMENTO;24;;736;VARZEA;33553546;32731495;EM_NOVAMORADA@YAHOO.COM.BR;00002;1;0;;;1;0;0;0;0;0;0;0;0;2;0;;;;;;;2;1;0;0;0;0;1;0;0;0;1;0;0;1;0;0;0;0;0;1;0;1;1;0;0;0;0;1;1;0;0;0;0;1;1;0;0;1;1;1;1;0;;;;;0;0;0;14;14;2;;2;;1;;1;1;;;1;10;;3;7;1;1;105;1;0;1;1;0;1;0;1;0;1;1;0
26153394;537;1;05/02/2015;29/12/2015;CRECHE MUNICIPAL NOVO HORIZONTE-;;;50760370;JOSE BEZERRA CAVALCANTI;244;;787;MUSTARDINHA;33556282;;CRECHENOVOHORIZONTE@HOTMAIL.COM;00002;1;0;;;1;0;0;0;0;0;0;0;0;1;0;;;;;;;2;1;0;0;0;0;1;0;0;0;1;0;0;1;0;0;0;0;0;1;0;0;0;0;0;0;0;1;0;0;1;0;0;1;0;0;0;1;0;1;1;0;;;;;0;1;0;4;4;1;;1;;1;;1;1;;;;2;;;2;1;1;37;1;1;0;1;0;0;0;;0;0;1;0
26419734;420;1;05/02/2015;23/12/2015;ESCOLA MUNICIPAL CHICO SCIENCE;;;52081110;CATIGUA;112;;558;VASCO DA GAMA;33556863;33556864;EM.CHICOSCIENCE@EDUCARECIFE.COM.BR;00001;2;0;;;1;0;0;0;0;0;0;0;0;2;0;;;;;;;2;1;0;0;0;0;1;0;0;0;1;0;0;1;0;0;0;0;0;1;1;0;1;0;0;0;0;1;0;1;0;0;0;1;1;0;0;1;0;1;1;0;;;;;0;0;0;4;4;1;;2;;1;;;4;1;;1;15;;4;11;1;1;23;1;0;0;1;0;0;0;;0;0;0;0
26182815;449;1;05/02/2015;23/12/2015;CRECHE MUNICIPAL DARCY RIBEIRO -;;;50711440;ODETE MONTEIRO;450;;680;CORDEIRO;33554679;;;00002;1;0;;;1;0;0;0;0;0;0;0;0;1;0;;;;;;;2;1;0;0;0;0;1;0;0;0;0;1;0;1;0;0;0;0;0;1;1;1;0;0;0;1;1;1;0;1;1;1;0;1;1;1;0;1;0;1;0;0;;;;;1;1;0;5;5;1;;;;;;1;;;;;7;;2;5;1;1;66;1;1;0;1;0;0;0;;0;0;0;0
26127644;292;1;05/02/2015;23/12/2015;ESCOLA MUNICIPAL DOUTOR EBENEZER GUEIROS;;;50680160;DOUTOR ALUISIO BALTAR;69;;698;IPUTINGA;33556912;;EM.EBENEZERGUEIROS@EDUCARECIFE.COM.BR;00002;1;0;;;1;0;0;0;0;0;0;0;0;1;0;;;;;;;2;1;0;0;0;0;1;0;0;0;1;0;0;1;0;0;0;0;0;1;1;1;0;0;1;1;1;1;1;0;0;0;0;1;0;1;0;1;1;0;1;0;;;;;0;0;0;9;9;2;;2;;1;1;1;3;1;;1;5;;1;4;1;0;48;1;1;1;1;0;1;0;1;0;1;0;0
26413779;422;1;05/02/2015;29/12/2015;CRECHE MUNICIPAL LUA LUAR;;;50711445;MAURICIO DE NASSAU;42;;698;IPUTINGA;33554850;;CRM.LUALUAR@EDUCARECIFE.COM.BR;00002;1;0;;;1;0;0;0;0;0;0;0;0;1;0;;;;;;;2;1;0;0;0;0;1;0;0;0;1;0;0;1;0;0;0;0;0;1;0;1;0;0;0;0;0;1;0;0;0;1;0;1;1;0;0;1;1;1;1;0;;;;;0;1;0;4;4;2;;;;1;;1;3;;;;2;;;2;0;;45;1;0;0;1;0;0;0;;0;0;0;0
26128110;111;1;05/02/2015;23/12/2015;ESCOLA MUNICIPAL ALDA ROMEU;;;52211250;CORREGO DO DEODATO;685;;337;AGUA FRIA;33554460;94272621;EM.ALDAROMEU@EDUCARECIFE.COM.BR;00001;0;0;;;1;0;0;0;0;0;0;0;0;1;0;;;;;;;2;1;0;0;0;0;1;0;0;0;1;0;0;1;0;0;0;0;0;1;1;1;1;0;0;0;0;1;1;0;0;0;0;1;0;1;1;1;0;1;1;0;;;;;1;0;0;9;9;4;;4;;1;;3;4;2;;2;20;;6;14;1;1;42;1;1;1;1;0;1;0;1;0;0;0;0
26118734;006;1;05/02/2015;23/12/2015;ESCOLA MUNICIPAL MONTEIRO LOBATO;;;52040365;JARDIM BRASILIA;S/N;LADO IMPAR;280;CAMPO GRANDE;33553990;34274349;EM.MONTEIROLOBATO@EDUCARECIFE.COM.BR;00001;1;0;;;1;0;0;0;0;0;0;0;0;1;0;;;;;;;2;1;0;0;0;0;1;0;0;0;0;1;0;1;0;0;0;0;0;0;1;1;0;0;1;0;0;1;1;0;0;0;1;1;0;0;0;1;1;1;1;0;;;;;0;0;0;14;14;2;;1;;1;;1;3;1;;3;4;;1;3;1;1;53;1;1;0;1;0;1;0;1;0;1;0;0
26148161;298;1;05/02/2015;23/12/2015;ESCOLA MUNICIPAL EDUCADOR PAULO FREIRE;;;51350450;GENERAL BENTO DA GAMA;301;;213;IPSEP;33553952;33553953;EM.PAULOFREIRE@EDUCARECIFE.COM.BR;00002;1;0;;;1;0;0;0;0;0;0;0;0;1;0;;;;;;;2;1;0;0;0;0;1;0;0;0;1;0;0;1;0;0;0;0;0;1;1;1;1;0;1;1;1;1;1;0;1;0;0;1;0;1;0;1;1;1;1;0;;;;;0;0;0;13;13;4;;2;;2;;2;5;2;;3;48;;15;33;1;1;45;1;1;1;1;0;1;0;1;0;1;0;0
26126818;077;1;05/02/2015;29/12/2015;ESCOLA MUNICIPAL DOM JOSE LAMARTINE SOARES;;;52081070;ALTO DO EUCALIPTO;S/N;;558;VASCO DA GAMA;33556302;;EM.LAMARTINESDARES@EDUCARECIFE.COM.BR;00001;1;0;;;1;0;0;0;0;0;0;0;0;1;0;;;;;;;2;1;0;0;0;0;1;0;0;0;0;1;0;1;0;0;0;0;0;0;0;0;1;0;0;0;0;1;0;0;0;0;0;1;0;0;0;0;0;0;0;0;;;;;0;0;0;11;11;3;;4;;1;;;3;2;;1;4;;1;3;1;1;53;1;0;0;1;0;1;0;1;0;0;0;0
26181940;435;1;05/02/2015;23/12/2015;ESCOLA MUNICIPAL DONA LUCI SILVA LIMA;;;51180180;MONACO;1138;;264;IMBIRIBEIRA;33381395;33554307;EM.DONALUCISILVALIMA@EDUCARECIFE.COM.BR;00002;2;0;;;1;0;0;0;0;0;0;0;0;2;0;;;;;;;2;1;0;0;0;0;1;0;0;0;0;1;0;1;0;0;0;0;0;1;0;1;0;0;0;0;0;1;1;0;0;0;0;1;1;1;1;1;0;0;1;0;;;;;0;0;0;5;5;2;;;;;;2;;1;;;4;;1;3;1;0;27;1;0;0;1;0;0;0;;0;0;0;0
26125510;121;1;05/02/2015;23/12/2015;ESCOLA MUNICIPAL OSWALDO LIMA FILHO;;;51011060;ENGENHEIRO DOMINGOS FERREIRA;1040;;248;PINA;33553928;33553928;OSWALDOLIMAFILHO@HOTMAIL.COM;00002;1;0;;;1;0;0;0;0;0;0;0;0;1;0;;;;;;;2;1;0;0;0;0;1;0;0;0;1;1;0;1;0;0;0;0;0;1;1;1;1;0;1;1;1;0;1;0;0;0;0;1;0;0;0;1;1;0;1;0;;;;;0;0;0;12;12;1;2;2;;1;;2;4;2;1;2;17;;5;12;1;1;85;1;1;1;1;0;1;0;1;0;1;0;0
26168227;926;1;05/02/2015;23/12/2015;ESCOLA MUNICIPAL IBURA DE BAIXO;;;51230050;RIO NOVO DO SUL;498;;230;IBURA;33554950;;ESC_MVN_IB_BAIXO@HOTMAIL.COM;00002;2;0;;;1;0;0;0;0;0;0;0;0;2;0;;;;;;;2;1;0;0;0;0;1;0;0;0;0;1;0;1;0;0;0;0;0;1;0;1;1;0;0;0;0;1;0;0;0;0;0;1;0;0;0;1;0;1;0;0;;;;;0;0;0;7;7;7;;4;;2;1;1;2;1;1;1;7;;2;5;1;1;35;1;1;1;1;0;1;0;1;0;1;0;0
26126427;131;1;05/02/2015;23/12/2015;ESCOLA MUNICIPAL PASTOR PAULO LEIVAS MACALAO;;;52131410;ALTEROSA;27;;388;LINHA DO TIRO;33553418;32698333;EPLEMACALAO@GMAIL.COM;00001;1;0;;;1;0;0;0;0;0;0;0;0;1;0;;;;;;;2;1;0;0;0;0;1;0;0;0;0;1;0;1;0;0;0;0;0;1;0;1;0;0;1;0;0;1;0;0;0;0;0;0;0;0;0;0;0;0;0;0;;;;;0;0;0;8;8;1;1;2;;1;1;3;3;2;;1;2;;;2;1;1;28;1;1;1;1;0;1;0;1;0;1;0;0
26124700;026;1;05/02/2015;22/12/2015;ESCOLA MUNICIPAL MARGARIDA SERPA COSSART;;;51340610;MECEJANA;09;UR 2;230;IBURA;33553649;34752759;EM.MARGARIDASERPA@EDUCARECIFE.COM.BR;00002;1;0;;;1;0;0;0;0;0;0;0;0;1;0;;;;;;;2;1;0;0;0;0;1;0;0;0;1;0;0;1;0;0;0;0;0;1;0;0;1;0;0;0;0;1;0;0;0;0;0;1;0;1;0;1;0;0;1;0;;;;;0;0;0;6;6;1;;1;;;1;2;1;1;;;3;;;3;1;1;31;1;0;1;1;0;0;0;1;0;1;0;0
26168111;952;1;06/02/2015;23/12/2015;ESCOLA MUNICIPAL DO PANTANAL - ANEXO I;;;51345820;PADRE DIOGO;35;;876;BARRO;33554986;34754017;E.M.PANTANAL@HOTMAIL.COM;00002;2;0;;;1;0;0;0;0;0;0;0;0;2;0;;;;;;;2;0;1;0;0;0;1;0;0;0;1;0;0;1;0;0;0;0;0;0;0;0;0;0;0;0;0;0;0;0;0;0;0;1;0;0;0;0;0;0;0;0;;;;;0;0;0;3;3;4;;3;1;;;;2;;;;;;;;;;12;1;1;0;1;0;0;0;1;0;1;0;0
26171724;999;1;05/02/2015;23/12/2015;ESCOLA MUNICIPAL JOAO AMAZONAS;;;52140340;BELA VISTA;284;;396;DOIS UNIDOS;33554513;34495663;EM.JOAOAMAZONAS@EDUCARECIFE.COM.BR;00001;2;0;;;1;0;0;0;0;0;0;0;0;1;0;;;;;;;2;1;0;0;0;0;1;0;0;0;0;0;1;1;0;0;0;0;0;1;1;1;0;0;0;0;0;1;1;0;0;0;0;1;1;0;0;1;0;1;1;0;;;;;0;0;0;5;5;3;;2;;1;1;1;1;1;;1;7;;2;5;1;1;14;1;0;1;1;0;0;0;1;0;0;0;0
26132267;407;1;03/02/2015;29/12/2015;ESCOLA MUNICIPAL DEPUTADO FERNANDO SAMPAIO ANX II;;;52090245;RITA ANTONIO FELIX;110;;566;NOVA DESCOBERTA;33554882;33554930;EM.FERNANDOSAMPAIO@EDUCARECIFE.COM.BR;00001;1;0;;;0;0;0;0;0;0;0;0;1;;;;;;;;;2;1;0;0;0;0;1;0;0;0;1;0;0;1;0;0;0;0;0;0;1;0;0;0;0;0;1;1;0;0;0;0;0;1;0;0;0;1;0;0;0;0;;;;;0;0;0;3;3;1;;1;;;;;1;;;;1;;;1;0;;16;1;0;1;1;0;0;0;1;0;0;0;0
26155850;340;1;05/02/2015;23/12/2015;ESCOLA MUNICIPAL DINA DE OLIVEIRA;;;50731370;SAO MATEUS;S/N;;698;IPUTINGA;33554204;33554205;LENINAOLIVEIRA@GMAIL.COM;00002;1;0;;;1;0;0;0;0;0;0;0;0;1;0;;;;;;;2;1;0;0;0;0;1;0;0;0;1;0;0;1;0;0;0;0;0;1;1;1;1;0;1;1;1;1;1;0;0;0;0;1;0;1;1;0;1;0;1;1;;;;;0;0;0;15;15;3;3;;;2;;3;4;;;1;20;;6;14;1;1;79;1;1;1;1;0;1;0;1;1;1;0;0
26145227;313;1;05/02/2015;27/12/2015;ESCOLA MUNICIPAL HISTORIADOR FLAVIO GUERRA - ANEXO I;;;52390040;ALTO DA TELHA;320;;400;PASSARINHO;33554504;;PASTORAJUCIARA@BOL.COM.BR;00001;2;0;;;1;0;0;0;0;0;0;0;0;1;0;;;;;;;2;1;0;0;0;0;1;0;0;0;0;1;0;1;0;0;0;0;0;0;1;0;0;0;0;0;0;1;0;0;0;0;0;1;1;0;0;1;0;1;0;0;;;;;0;0;0;4;4;1;;1;;;;;1;;;;;;;;;;49;1;0;0;1;0;0;0;1;0;0;0;0
26149770;519;1;05/02/2015;23/12/2015;CRECHE MUNICIPAL FLOR DA COMUNIDADE;;;52280250;CARAVELA;32;;434;CASA AMARELA;33554838;32690232;CRM.FLORDACOMUNIDADE@EDUCARECIFE.COM.BR;00001;1;0;;;1;0;0;0;0;0;0;0;0;2;0;;;;;;;2;1;0;0;0;0;1;0;0;0;1;0;0;1;0;0;0;0;0;0;0;1;0;0;0;0;0;1;0;0;0;0;1;0;0;0;0;1;0;1;1;0;;;;;0;1;0;2;2;2;;1;;1;;;1;;;;2;;;2;1;0;23;1;0;0;1;0;0;0;;0;0;0;0
26177951;917;1;05/02/2015;23/12/2015;ESCOLA MUNICIPAL GOVERNADOR MIGUEL ARRAES DE ALENCAR;;;50860010;TAPAJOS;419;;833;ESTANCIA;33553683;33553686;ESCOLAMIGUELARRAES@GMAIL.COM;00002;2;0;;;1;0;0;0;0;0;0;0;0;1;0;;;;;;;2;1;0;0;0;0;1;0;0;0;1;0;0;1;0;0;0;0;0;1;1;0;0;0;0;0;0;1;1;0;0;0;0;0;0;0;0;0;1;0;1;0;;;;;0;0;0;13;13;3;;3;;1;;2;4;1;;1;6;;1;5;1;1;70;1;1;1;1;0;1;0;1;0;1;0;0
26170736;979;1;05/02/2015;23/12/2015;CRECHE MUNICIPAL ESPERANCA;;;50761200;LEILA FELIX KARAN;S/N;;817;SAN MARTIN;33556906;33553233;CMEI.ESPERANCA@EDUCARECIFE.COM.BR;00002;1;0;;;1;0;0;0;0;0;0;0;0;1;0;;;;;;;2;1;0;0;0;0;1;0;0;0;0;1;0;1;0;0;1;0;0;1;0;1;0;0;0;0;0;1;0;0;1;1;0;1;1;0;0;1;0;1;1;0;;;;;1;1;0;5;5;1;;1;;1;;1;2;;;;7;;2;5;1;1;48;1;0;1;1;0;0;0;;0;0;0;0
26171767;997;1;05/02/2015;29/12/2015;ESCOLA MUNICIPAL CARLUCIO DE SOUZA CASTANHA JUNIOR;;;51280000;PERNAMBUCO;S/N;UR-1;230;IBURA;33553744;34754023;EM.CARLUCIOCASTANHA@EDUCARECIFE.COM.BR;00002;2;0;;;1;0;0;0;0;0;0;0;0;1;0;;;;;;;2;1;0;0;0;0;1;0;0;0;1;0;0;1;0;0;0;0;0;1;1;1;1;0;1;0;0;1;1;0;1;0;0;1;1;1;0;0;1;0;0;0;;;;;0;0;0;12;12;2;;2;;1;;1;2;2;;1;13;;4;9;1;1;64;1;1;1;1;0;1;0;1;0;0;0;0
26171732;938;1;05/02/2015;23/12/2015;ESCOLA MUNICIPAL JADER FIGUEIREDO DE ANDRADE SILVA;;;50730670;MUCIO UCHOA CAVALCANTE;283;;710;ENGENHO DO MEIO;33553676;32719030;;00002;1;0;;;1;0;0;0;0;0;0;0;0;1;0;;;;;;;2;1;0;0;0;0;1;0;0;0;1;0;0;1;0;0;0;0;0;0;0;1;0;0;0;0;0;1;1;0;1;0;0;1;1;0;0;0;0;0;0;0;;;;;1;0;0;7;7;1;2;2;;2;;3;;1;;;2;;;2;1;1;42;1;1;1;1;0;1;0;1;0;0;0;0
26419726;424;1;05/02/2015;23/12/2015;ESCOLA MUNICIPAL MILTON ALMEIDA DOS SANTOS;;;51150370;ITAUBA;226;;264;IMBIRIBEIRA;33554978;33554979;EMMILTONALMEIDA227@EDUCARECIFE.COM;00002;1;0;;;1;0;0;0;0;0;0;0;0;1;0;;;;;;;2;1;0;0;0;0;1;0;0;0;1;0;0;1;0;0;0;0;0;1;1;0;0;0;0;0;0;1;1;0;0;0;0;1;1;1;0;1;1;0;1;0;;;;;0;0;0;6;6;2;;2;;;;1;3;;;;11;;3;8;1;1;32;1;0;0;1;0;0;0;;0;0;0;0
26136300;187;1;05/02/2015;23/12/2015;ESCOLA MUNICIPAL ALTO DO MARACANA;;;52150141;VILA FLOR;356;;396;DOIS UNIDOS;33554887;;EM.ALTODOMARACA@EDUCARECIFE.COM.BR;00001;1;0;;;1;0;0;0;0;0;0;0;0;1;0;;;;;;;2;1;0;0;0;0;1;0;0;0;1;0;0;1;0;0;0;0;0;1;1;1;1;0;0;0;0;1;1;0;0;0;0;1;0;1;0;1;1;1;1;0;;;;;0;0;0;9;9;2;;;;1;;1;1;1;1;1;15;;4;11;1;1;48;1;0;0;1;0;1;0;1;0;1;0;0
26127024;039;1;05/02/2015;29/12/2015;ESCOLA MUNICIPAL CELIA ARRAES;;;50810360;JOSE NOYA;131;;736;VARZEA;33554918;;ESCOLACELIAARRAES@BOL.COM.BR;00002;1;0;;;1;0;0;0;0;0;0;0;0;1;0;;;;;;;1;1;0;0;0;0;1;0;0;0;1;0;0;1;0;0;0;0;0;1;1;1;1;0;1;0;0;1;1;0;0;0;0;1;0;1;0;1;0;1;0;0;;;;;0;0;0;7;7;4;1;1;;1;1;2;2;1;;1;15;;4;11;1;0;31;1;1;1;1;0;0;0;1;1;0;0;0
26125480;148;1;05/02/2015;29/12/2015;ESCOLA MUNICIPAL JARDIM MAURICEIA;;;51180130;NICOLAU COPERNICO;1107;;264;IMBIRIBEIRA;33553684;33553689;EM.JARDIMMAURICEIA@EDUCARECIFE.COM.BR;00002;1;0;;;0;0;0;0;0;0;0;0;1;;;;;;;;;2;1;0;0;0;0;1;0;0;0;1;0;0;1;0;0;0;0;0;1;0;0;1;0;0;0;1;1;0;0;0;0;0;1;1;0;0;1;1;0;1;0;;;;;0;0;0;7;7;4;;1;;1;1;1;5;1;;1;9;;2;7;1;1;34;1;1;1;1;0;0;0;1;0;0;1;0
26168138;928;1;05/02/2015;29/12/2015;ESCOLA MUNICIPAL POETA JOAO CABRAL DE MELO NETO;;;51011080;ENCANTA MOCA;377;;248;PINA;33556306;34659600;EM.JOAOCABRAL@EDUCARECIFE.COM.BR;00002;2;0;;;1;0;0;0;0;0;0;0;0;1;0;;;;;;;2;1;0;0;0;0;1;0;0;0;0;1;0;1;0;0;0;0;0;1;1;1;1;0;0;0;0;1;0;1;0;0;0;1;1;0;0;1;0;1;0;0;;;;;0;0;0;8;8;1;;2;;1;;1;2;1;;1;12;;3;9;1;1;35;1;0;0;1;0;0;0;1;0;0;0;0
26168120;950;1;05/02/2015;23/12/2015;ESCOLA MUNICIPAL DO SANCHO;;;50920650;JOAO FERREIRA;427;;906;SANCHO;33553604;32543581;MUNICIPALDOSANCHO@HOTMAIL.COM;00002;1;0;;;1;0;0;0;0;0;0;0;0;1;0;;;;;;;2;0;1;0;0;0;1;0;0;0;0;1;0;1;0;0;0;0;0;1;1;1;0;0;0;0;1;1;1;0;1;0;0;0;1;0;0;1;1;1;1;0;;;;;0;0;0;8;8;3;;4;;2;1;2;7;1;1;3;15;;4;11;1;1;52;1;1;1;1;0;1;0;1;0;1;0;0
26134002;110;1;05/02/2015;29/12/2015;ESCOLA MUNICIPAL KARLA PATRICIA;;;51020170;PROFESSOR EDUARDO WANDERLEY FILHO;700;;205;BOA VIAGEM;33554040;33554041;ESCOLAMKARLAPATRICIA@YAHOO.COM;00002;1;0;;;1;0;0;0;0;0;0;0;0;1;0;;;;;;;2;1;0;0;0;0;1;0;0;0;1;0;0;1;0;0;0;0;0;1;1;1;1;0;1;0;0;1;1;0;0;0;0;1;1;1;1;1;1;0;0;0;;;;;0;0;0;13;13;3;;2;1;1;1;3;3;1;1;3;16;;5;11;1;1;48;1;1;1;1;0;1;0;1;0;1;0;0
26120704;033;1;05/02/2015;23/12/2015;ESCOLA MUNICIPAL DO JORDAO;;;51250100;SILVA JARDIM;175;;221;JORDAO;33556901;34625117;MARIAEDI_S@YHAOO.COM.BR;00002;1;0;;;1;0;0;0;0;0;0;0;0;2;0;;;;;;;2;1;0;1;0;0;1;0;0;0;0;1;0;1;0;0;0;0;0;1;1;0;0;0;0;0;0;1;0;0;0;0;0;1;0;0;0;0;1;1;0;0;;;;;0;0;0;9;9;2;;2;;1;;1;2;;;2;30;;9;21;1;1;57;1;0;1;1;0;0;0;1;0;1;0;0
26181932;436;1;06/02/2015;22/12/2015;CRECHE MUNICIPAL IRMA DULCE;;;52021110;ADALGISA;07;;124;ESPINHEIRO;33554295;;;00001;1;0;;;1;0;0;0;0;0;0;0;0;1;0;;;;;;;2;1;0;0;0;0;1;0;0;0;1;0;0;1;0;0;0;0;0;1;0;0;0;0;0;0;0;1;0;0;0;1;1;1;1;0;0;1;1;1;1;0;;;;;0;0;0;4;4;3;;1;;;;1;;;;;2;;;2;1;1;34;1;0;0;1;0;0;0;;0;0;0;0
26170663;969;1;05/02/2015;23/12/2015;ESCOLA MUNICIPAL JARDIM MONTE VERDE - ANEXO I;;;51340255;CHAPADA DO ARARIPE;65;;884;COHAB;33554959;33554958;EJARDIMMONTEVERDE@YAHOO.COM.BR;00002;2;0;;;0;0;0;0;0;0;0;0;1;;;;;;;;;2;1;0;0;0;0;1;0;0;0;0;1;0;1;0;0;0;0;0;0;0;0;0;0;0;0;0;0;0;1;0;0;0;1;0;0;0;0;0;0;0;0;;;;;0;0;0;6;6;;;;;;;;;;;;;;;;;;17;1;1;1;1;0;0;0;1;0;1;0;0
26119617;076;1;05/02/2015;23/12/2015;ESCOLA MUNICIPAL GENERAL SAN MARTIN;;;50761000;GENERAL SAN MARTIN;1864;;817;SAN MARTIN;33553956;33553957;EM.SANMARTIN@EDUCARECIFE.COM.BR;00002;1;0;;;1;0;0;0;0;0;0;0;0;1;0;;;;;;;2;1;0;0;0;0;1;0;0;0;1;0;0;1;0;0;0;0;0;1;0;1;0;0;1;0;0;1;1;0;0;0;0;1;0;1;1;1;0;1;1;0;;;;;0;1;0;9;9;5;;3;;1;1;1;3;1;;1;12;;3;9;1;1;40;1;1;1;1;0;1;0;1;0;1;0;0
26170647;968;1;02/02/2015;23/12/2015;ESCOLA MUNICIPAL DIACONO ABEL GUEIROS;;;52090260;NORTE MIGUEL ARRAES DE ALENCAR;7696;;582;MACAXEIRA;33553705;;EMABELGUEIROS@YAHOO.COMM.BR;00001;2;0;;;1;0;0;0;0;0;0;0;0;2;0;;;;;;;2;1;0;0;0;0;1;0;0;0;1;0;0;1;0;0;0;0;0;1;0;1;1;0;0;0;0;1;0;1;0;0;0;1;1;1;0;0;0;1;1;0;;;;;0;0;0;7;7;5;;2;;1;;;6;2;;2;4;;1;3;1;1;43;1;1;1;1;0;0;0;1;0;0;0;0
26128233;052;1;05/02/2015;23/12/2015;ESCOLA MUNICIPAL DA MANGABEIRA;;;52110260;NICEAS ARCOVERDE GUSMAO;S/N;;515;MANGABEIRA;33553897;34518926;ESCOLAMANGABEIRA@GMAIL.COM;00001;1;0;;;1;0;0;0;0;0;0;0;0;1;0;;;;;;;2;1;0;0;0;0;1;0;0;0;1;0;0;1;0;0;0;0;0;1;0;1;1;0;0;0;0;1;1;0;0;0;0;1;0;1;0;0;1;1;0;0;;;;;1;0;0;9;9;4;;3;;1;;1;5;1;;;23;;7;16;1;1;46;1;1;1;1;0;1;0;1;0;1;0;0
26149761;509;1;05/02/2015;23/12/2015;CRECHE MUNICIPAL CAJUEIRO;;;52221310;ALICE TIBIRICA;453;CAJUEIRO;353;CAJUEIRO;33556266;;TANIA.SILVA@EDUCARECIFE.COM.BR;00001;1;0;;;1;0;0;0;0;0;0;0;0;2;0;;;;;;;2;1;0;0;0;0;1;0;0;0;0;1;0;1;0;0;0;0;0;1;0;0;0;0;0;0;0;1;0;1;1;0;0;1;1;0;0;1;1;0;1;0;;;;;0;1;0;2;2;2;;1;;1;;1;1;;;;1;;;1;1;1;28;1;0;0;1;0;0;0;;0;0;0;0
26126818;277;1;05/02/2015;29/12/2015;ESCOLA MUNICIPAL DOM JOSE LAMARTINE SOARES - ANEXO I CVC;;;52081070;ALTO DO EUCALIPTO;S/N;;558;VASCO DA GAMA;33556302;34421742;EM.LAMARTINESOARES@EDUCARECIFE.COM.BR;00001;2;0;;;1;0;0;0;0;0;0;0;0;3;0;;;;;;;2;1;0;0;0;0;1;0;0;0;0;1;0;1;0;0;0;0;0;0;0;0;1;0;0;0;0;1;0;0;0;0;0;1;0;0;0;0;0;0;0;0;;;;;0;0;0;4;4;2;;3;;1;;;2;2;;1;2;;;2;0;;15;1;0;1;1;0;0;0;1;0;0;0;0
26125528;070;1;05/02/2015;23/12/2015;ESCOLA MUNICIPAL PAIS E FILHOS;;;51180340;DANCING DAYS;21;;264;IMBIRIBEIRA;33556498;;ESCOLAPAISEFILHOS@YAHOO.COM.BR;00002;1;0;;;1;0;0;0;0;0;0;0;0;1;0;;;;;;;2;1;0;0;0;0;1;0;0;0;1;0;0;1;0;0;0;0;0;1;1;1;0;0;0;0;0;1;0;0;0;0;0;1;0;0;0;1;0;0;0;0;;;;;0;0;0;12;12;1;;;;1;;1;;1;;;3;;;3;1;1;28;1;0;0;1;0;1;0;1;0;0;0;0
26120658;090;1;05/02/2015;29/12/2015;ESCOLA MUNICIPAL ALMIRANTE SOARES DUTRA;;;50090380;CAMUTANGA;180;;51;CABANGA;33553880;33553881;EMSOARESDUTRA@YAHOO.COM.BR;00002;1;0;;;1;0;0;0;0;0;0;0;0;1;0;;;;;;;2;1;0;0;0;0;1;0;0;0;0;1;0;1;0;0;0;0;0;1;1;0;0;0;1;0;0;1;1;0;0;0;0;1;1;1;1;0;0;1;1;0;;;;;0;0;0;8;8;3;;1;;3;1;3;5;1;;2;12;;3;9;1;1;31;1;1;1;1;0;0;0;1;0;0;0;0
26118670;091;1;05/02/2015;29/12/2015;ESCOLA MUNICIPAL DOS COELHOS;;;50070550;DOS COELHOS;591;BOA VISTA;60;COELHOS;33553486;32229877;ESCOLAMCOELHOS@HOTMAIL.COM;00001;1;0;;;1;0;0;0;0;0;0;0;0;1;0;;;;;;;2;1;0;0;0;0;1;0;0;0;0;1;0;1;0;0;0;0;0;1;1;1;0;0;1;0;0;1;1;0;0;0;0;1;0;1;0;1;0;0;1;0;;;;;0;0;0;16;16;14;;2;;1;1;2;4;2;;;29;;9;20;1;1;54;1;1;1;1;0;0;0;1;1;0;0;0
26170663;963;1;05/02/2015;23/12/2015;ESCOLA MUNICIPAL JARDIM MONTE VERDE;;;51340255;CHAPADA DO ARARIPE;92;MONTE VERD;884;COHAB;33554959;33554958;EJARDIMMONTEVERDE@YAHOO.COM.BR;00002;2;0;;;1;0;0;0;0;0;0;0;0;3;0;;;;;;;2;1;0;0;0;0;1;0;0;0;0;1;0;1;0;0;0;0;0;0;0;1;0;0;0;0;0;1;0;1;0;0;0;1;0;0;0;0;0;0;1;0;;;;;0;0;0;9;9;3;;4;;;1;2;1;;;1;7;;2;5;1;1;46;1;1;1;1;0;1;0;1;0;1;0;0
26156792;986;1;05/02/2015;23/12/2015;CRECHE MUNICIPAL DE AFOGADOS;;;50770765;CERRO NEGRO;215;;779;AFOGADOS;33554830;34285287;CRM.AFOGADOS@HOTMAIL.COM;00002;2;0;;;1;0;0;0;0;0;0;0;0;3;0;;;;;;;2;1;0;0;0;0;1;0;0;0;1;0;0;1;0;0;0;0;0;1;1;1;0;0;0;0;0;1;0;0;0;1;0;1;1;0;0;1;0;1;1;0;;;;;1;1;0;5;5;4;;3;;1;;1;1;;;;3;;;3;1;1;53;1;1;1;1;0;0;0;;0;0;0;0
26128764;054;1;05/02/2015;23/12/2015;ESCOLA MUNICIPAL ANA MAURICIA WANDERLEY;;;52111310;JOAO UZEDA LUNA;813;;337;AGUA FRIA;33554890;;A_MAURICIA@YAHOO.COM.BR;00001;1;0;;;1;0;0;0;0;0;0;0;0;1;0;;;;;;;2;1;0;0;0;0;1;0;0;0;1;0;0;1;0;0;0;0;0;1;1;1;1;0;1;0;0;1;0;0;0;0;0;1;0;1;1;1;0;1;1;0;;;;;0;0;0;5;5;6;;6;;3;1;2;6;1;;1;5;;1;4;1;1;28;1;0;0;1;0;0;0;1;1;1;0;0
26128640;007;1;05/02/2015;23/12/2015;ESCOLA MUNICIPAL ANTONIO HERACLIO DO REGO;;;52120520;MANOEL SILVA;134;;337;AGUA FRIA;33554229;;EM.ANTONIOHERACLIO@EDUCARECIFE.COM.BR;00001;1;0;;;1;0;0;0;0;0;0;0;0;1;0;;;;;;;2;1;0;0;0;0;1;0;0;0;0;1;0;1;0;0;0;0;0;1;1;1;1;1;1;1;1;1;1;0;0;0;0;1;0;1;0;1;1;0;1;0;;;;;1;0;0;13;13;3;;2;;2;1;2;3;3;;1;18;;5;13;1;1;58;1;0;1;1;0;1;0;1;0;1;0;0
26123266;443;1;05/02/2015;23/12/2015;ESCOLA MUNICIPAL PAROQUIAL CRISTO REI;;;50710380;DOM MANUEL DA COSTA;S/N;;655;TORRE;33553575;;ESCOLAPAROQUIALCRISTOREI@HOTMAIL.COM;00002;2;0;;;1;0;0;0;0;0;0;0;0;2;0;;;;;;;2;1;0;0;0;0;1;0;0;0;1;0;0;1;0;0;0;0;0;1;1;1;0;0;0;1;1;1;1;0;0;0;0;1;0;0;0;0;1;0;1;0;;;;;0;0;0;5;5;1;;1;1;1;1;1;3;5;;;2;;;2;1;1;25;1;0;0;1;0;0;0;1;0;0;0;0
26126087;048;1;05/02/2015;23/12/2015;ESCOLA MUNICIPAL OCTAVIO DE MEIRA LINS;;;52081520;JOSE REBOLCAS;141;;558;VASCO DA GAMA;33553616;85463320;FABIANA_BARBOZA@GLOBO.COM;00001;1;0;;;1;0;0;0;0;0;0;0;0;1;0;;;;;;;2;1;0;0;0;0;1;0;0;0;1;0;0;1;0;0;0;0;0;1;1;1;1;0;1;0;1;1;1;0;1;0;0;1;0;0;0;0;1;0;1;0;;;;;0;0;0;14;14;3;;2;;1;1;2;2;4;;;27;;8;19;1;1;44;1;1;1;1;0;1;0;1;0;1;0;0
26121832;163;1;05/02/2015;23/12/2015;ESCOLA MUNICIPAL CRISTINA TAVARES;;;51340600;PANELAS;09;UR 02;230;IBURA;33553736;34770207;EMCRISTINATAVARES@HOTMAIL.COM;00002;1;0;;;0;1;0;0;0;0;0;0;0;;;;;;;;;2;1;0;0;0;0;1;0;0;0;0;1;0;1;0;0;0;0;0;1;0;1;1;0;0;0;0;1;0;0;0;0;0;1;0;0;0;1;0;0;1;0;;;;;0;0;0;3;3;2;;3;;1;1;2;4;1;;1;6;;1;5;1;1;25;1;0;1;1;0;0;0;1;0;0;0;0
26128314;059;1;05/02/2015;23/12/2015;ESCOLA MUNICIPAL NOVA AURORA;;;52111620;ANTONIO MEIRA;169;;426;BOMBA DO HEMETERIO;33554534;;EM.NOVAAURORA@EDUCARECIFE.COM.BR;00001;1;0;;;1;0;0;0;0;0;0;0;0;1;0;;;;;;;2;1;0;0;0;0;1;0;0;0;0;1;0;1;0;0;0;0;0;0;0;1;0;0;0;0;0;1;0;0;0;0;0;1;0;0;0;1;0;0;0;0;;;;;0;0;0;4;4;5;;4;1;2;;2;1;2;;2;12;;3;9;1;1;29;1;0;1;1;0;1;0;1;1;0;0;0
26121972;289;1;05/02/2015;23/12/2015;ESCOLA MUNICIPAL CIDADAO HERBET DE SOUZA;;;50100130;ARNOBIO MARQUES;310;CAMPUS UPE;108;SANTO AMARO;33554080;33554081;EM.HERBERTDSOUZA@EDUCARECIFE.COM.BR;00001;1;0;;;1;0;0;0;0;0;0;0;0;3;0;;;;;;;2;1;0;0;0;0;1;0;0;0;1;0;0;1;0;0;0;0;0;1;0;1;0;0;0;0;0;0;0;1;0;0;0;1;0;0;0;0;1;0;1;0;;;;;0;0;0;6;6;2;;2;;1;1;1;2;2;;1;3;;;3;1;1;35;1;0;1;1;0;0;0;1;0;0;0;0
26133389;078;1;05/02/2015;23/12/2015;ESCOLA MUNICIPAL NADIR COLACO;;;52090270;NORTE DR MIGUEL ARRAES;7123;;582;MACAXEIRA;33553971;;NADIRCOLACOEM1984@GMAIL.COM;00001;1;0;;;1;0;0;0;0;0;0;0;0;1;0;;;;;;;2;1;0;0;0;0;1;0;0;0;1;0;0;1;0;0;1;0;0;1;1;1;1;1;1;0;1;1;1;0;0;0;0;1;0;1;1;1;1;0;0;0;;;;;1;0;0;14;14;4;;3;;1;1;1;5;1;;1;8;;2;6;1;1;76;1;1;1;1;0;0;0;1;1;1;0;0
26171660;991;1;05/02/2015;23/12/2015;CRECHE MUNICIPAL NOSSA SENHORA DE FATIMA;;;52091210;ALTO DO RESERVATORIO;720;BREJO GUA;418;GUABIRABA;33556882;34425691;CRM.NSADEFATIMA@EDUCARECIFE.COM.BR;00001;1;0;;;0;0;0;0;0;0;0;0;1;;;;;;;;;2;1;0;0;0;0;1;0;0;0;0;1;0;1;0;0;0;0;0;0;0;1;0;0;0;0;0;1;0;0;1;0;0;1;1;0;0;1;1;1;0;0;;;;;1;1;0;3;3;1;;;;1;;;1;;;;5;;1;4;1;1;33;1;0;1;1;0;0;0;;0;0;0;0
26157489;980;1;05/02/2015;29/12/2015;CRECHE MUNICIPAL CASINHA AZUL;;;50731370;SAO MATEUS;S/N;;698;IPUTINGA;33556913;33553231;CRM.CASINHAAZUL@EDUCARECIFE.COM.BR;00002;1;0;;;1;0;0;0;0;0;0;0;0;1;0;;;;;;;2;1;0;0;0;0;1;0;0;0;0;1;0;1;0;0;0;0;0;1;0;1;0;0;0;0;0;1;0;0;1;1;0;1;1;0;0;1;0;1;1;0;;;;;0;1;0;5;5;4;;1;;1;;;1;;;;8;;2;6;1;1;60;1;0;0;1;0;0;0;;0;0;0;0
26124483;107;1;05/02/2015;29/12/2015;ESCOLA MUNICIPAL CAPELA SANTO ANTONIO;;;51150192;SAO MARCOS;S/N;ILHA DEUS;264;IMBIRIBEIRA;33554907;;EMCAPELASANTOANTONIO@GMAIL.CO;00002;1;0;;;1;0;0;0;0;0;0;0;0;1;0;;;;;;;2;1;0;0;0;0;1;0;0;0;1;0;0;1;0;0;0;0;0;1;0;1;0;0;0;0;0;1;0;0;0;0;0;1;1;0;1;1;1;1;1;0;;;;;0;0;0;7;7;6;;6;;;;2;5;1;;3;29;;9;20;1;1;36;1;0;1;1;0;1;0;1;0;0;0;0
26123444;073;1;05/02/2015;23/12/2015;ESCOLA MUNICIPAL CASA DOS FERROVIARIOS;;;50791010;DR JOSE CORNELIO;84;;922;COQUEIRAL;33553556;32516567;CASADOSFERROVIARIOS@BOL.COM.BR;00002;1;0;;;0;1;0;0;0;0;0;0;0;;;;;;;;;2;1;0;0;0;0;1;0;0;0;1;0;0;1;0;0;0;0;0;1;0;1;1;0;1;0;0;1;1;0;0;0;0;1;0;0;0;0;0;1;1;0;;;;;0;0;0;10;10;2;2;2;;1;;2;;1;;2;12;;3;9;1;1;55;1;1;1;1;0;1;0;1;0;1;0;0
26156750;983;1;05/02/2015;23/12/2015;CRECHE MUNICIPAL DA TORRE;;;50711550;CANTORA CLARA NUNES;S/N;;655;TORRE;33553334;;CRM.DATORRE@EDUCARECIFE.COM.BR;00002;1;0;;;1;0;0;0;0;0;0;0;0;3;0;;;;;;;2;1;0;0;0;0;1;0;0;0;1;0;0;1;0;0;0;0;0;1;0;1;0;0;0;0;0;1;0;0;0;1;0;1;1;0;0;0;1;1;1;0;;;;;0;1;0;8;8;3;;1;;1;;1;1;;;;3;;;3;1;1;96;1;0;0;1;0;0;0;;0;0;0;0
26134057;941;1;05/02/2014;23/12/2014;ESCOLA MUNICIPAL MANOEL ROLIM - ANEXO I;;;50920120;PAJUSSARA;57;CASA;892;TEJIPIO;33554966;;EM.MANOELROLIM@EDUCARECIFE.COM;00002;1;0;;;1;0;0;0;0;0;0;0;0;2;0;;;;;;;2;0;1;0;0;0;1;0;0;0;0;1;0;1;0;0;0;0;0;0;0;0;0;0;0;0;0;1;0;1;0;0;0;1;1;1;0;0;0;0;1;0;;;;;0;0;0;4;4;1;;;;;;;;;;;;;;;;;17;1;1;1;1;0;0;0;1;0;1;0;0
26153467;546;1;06/02/2015;26/12/2015;CRECHE MUNICIPAL PADRE LOURENCO;;;51150310;CONDE PEREIRA CARNEIRO;172;;264;IMBIRIBEIRA;33553470;;CRM.PADRELOURENCO@EDUCARECIFE.COM.BR;00002;1;0;;;1;0;0;0;0;0;0;0;0;1;0;;;;;;;2;1;0;0;0;0;1;0;0;0;1;0;0;1;0;0;0;0;0;1;0;1;0;0;0;0;0;1;0;0;1;1;1;1;1;0;0;1;1;1;1;0;;;;;1;1;0;5;5;6;;;;1;;1;2;;;;7;;2;5;1;1;60;1;0;0;1;0;0;0;;0;0;0;0
26156776;987;1;03/02/2015;23/12/2015;CMEI DA MANGUEIRA;;;50820000;21 DE ABRIL;1555;;795;MANGUEIRA;33553832;34473405;CMEI.MANGUEIRA@EDUCARECIFE.COM.BR;00002;1;0;;;1;0;0;0;0;0;0;0;0;3;0;;;;;;;2;1;0;0;0;0;1;0;0;0;1;0;0;1;0;0;0;0;0;0;0;1;0;0;1;0;0;1;0;0;1;1;0;1;1;0;0;1;0;1;1;0;;;;;1;1;0;5;5;2;;;;;1;1;1;;;;7;;2;5;1;1;32;1;0;1;1;0;0;0;;0;1;1;0
26166640;923;1;05/02/2015;29/12/2015;ESCOLA MUNICIPAL DE AGUA FRIA;;;52121370;DOS CRAVEIROS;500;;310;CAMPINA DO BARRETO;33553498;;EM.AGUAFRIA@EDUCARECIFE.COM.BR;00001;2;0;;;0;0;0;0;0;0;0;0;1;;;;;;;;;2;1;0;0;0;0;1;0;0;0;0;1;0;1;0;0;0;0;0;1;1;0;1;0;0;0;0;1;0;0;0;0;0;1;0;0;0;0;0;1;0;0;;;;;0;0;0;5;5;6;;5;;1;1;1;1;1;;1;12;;3;9;1;1;25;1;1;0;1;0;0;0;1;0;1;1;0
26175371;378;1;05/02/2015;30/12/2015;ESCOLA MUNICIPAL ANEXA CASA AMARELA;;;52191050;SANHARO;10;;566;NOVA DESCOBERTA;33554910;;EM.ANEXOCASAAMARELA@EDUCARECIFE.COM.BR;00001;2;0;;;1;0;0;0;0;0;0;0;0;2;0;;;;;;;2;1;0;0;0;0;1;0;0;0;0;1;0;1;0;0;0;0;0;0;0;1;0;0;0;0;0;1;0;0;0;0;0;1;0;0;0;1;0;0;0;0;;;;;0;0;0;3;3;1;;1;;1;1;;;;;;20;;6;14;1;1;23;1;1;0;1;0;0;0;;0;0;0;0
26132267;255;1;03/02/2015;29/12/2015;ESCOLA MUNICIPAL DEPUTADO FERNANDO SAMPAIO;;;52090240;ALTO ANTONIO FELIX;105;;566;NOVA DESCOBERTA;33554930;33554931;EM.FERNADOSAMPAIO@EDUCARECIFE.COM.BR;00001;1;0;;;1;0;0;0;0;0;0;0;0;1;0;;;;;;;2;1;0;0;0;0;1;0;0;0;0;1;0;1;0;0;0;0;0;0;1;1;0;0;0;0;1;1;0;0;0;0;0;1;1;1;0;1;0;1;1;0;;;;;0;0;0;17;17;4;;3;;1;1;1;7;1;;;16;;5;11;1;0;86;1;0;1;1;0;1;0;1;1;1;0;0
26171716;144;1;05/02/2015;23/12/2015;ESCOLA MUNICIPAL ARTISTA PLASTICO CICERO DIAS;;;51320120;JOAO JOAQUIM DE MELO FILHO;26;UR 05;230;IBURA;33556294;;EM.CICERODIAS@EDUCARECIFE.COM.BR;00002;1;0;;;1;0;0;0;0;0;0;0;0;2;0;;;;;;;2;1;0;0;0;0;1;0;0;0;1;0;0;1;0;0;0;0;0;0;0;1;1;0;0;0;0;1;0;0;0;0;0;1;1;0;0;1;1;0;1;0;;;;;0;0;0;4;4;1;;3;;1;;2;4;1;;1;15;;4;11;1;0;21;1;0;0;1;0;0;0;;0;0;0;0
26122022;415;1;05/02/2015;23/12/2015;CMEI ANA ROSA FALCAO DE CARVALHO;;;50050550;JOAO LIRA;S/N;;108;SANTO AMARO;33556546;;CMEI.ANAROSA@EDUCARECIFE.COM.BR;00001;2;0;;;1;0;0;0;0;0;0;0;0;3;0;;;;;;;2;1;0;0;0;0;1;0;0;0;1;0;0;1;0;0;0;0;0;0;1;1;0;0;1;0;0;1;0;1;1;0;0;1;1;1;1;1;0;0;1;0;;;;;1;1;0;8;8;1;;;;1;;;;;;;2;;;2;1;1;77;1;1;0;1;0;0;0;;0;0;0;0
26170795;972;1;05/02/2015;23/12/2015;ESCOLA MUNICIPAL POETA CARLOS PENA FILHO;;;50790440;ITAMONTE;143;;752;CURADO;33554894;;POETACARLOSPENAFILHO@BOL.COM.BR;00002;1;0;;;0;0;0;0;0;0;0;0;1;;;;;;;;;2;0;1;0;0;0;1;0;0;0;0;1;0;1;0;0;0;0;0;0;0;1;0;0;0;0;0;1;0;0;0;0;0;1;0;0;0;1;0;1;1;0;;;;;0;0;0;6;6;2;;1;;1;1;1;6;2;;1;1;;;1;1;1;40;1;0;1;1;0;0;0;1;0;0;0;0
26121662;145;1;05/02/2015;29/12/2015;ESCOLA MUNICIPAL PADRE ANTONIO HENRIQUE;;;52010060;VISCONDESSA DO LIVRAMENTO;290;;94;PAISSANDU;33553836;33553837;EM.PADREHENRIQUE@EDUCARECIFE.COM.BR;00001;1;0;;;1;0;0;0;0;0;0;0;0;1;0;;;;;;;2;1;0;0;0;0;1;0;0;0;1;0;0;1;0;0;0;0;0;1;1;1;1;0;0;0;0;1;1;0;1;0;0;1;0;1;1;1;1;1;0;0;;;;;1;0;0;19;19;6;;;;2;1;2;;2;1;1;15;;4;11;1;1;97;1;1;1;1;0;1;0;1;0;0;0;0
26158400;922;1;05/02/2015;29/12/2015;ESCOLA MUNICIPAL NOVO MANGUE;;;50080705;AVENIDA CENTRAL;511;;43;ILHA JOANA BEZERRA;33554536;;ESCMUNNOVOMANGUE@GMAIL.COM;00002;2;0;;;1;0;0;0;0;0;0;0;0;1;0;;;;;;;2;1;0;0;0;0;1;0;0;0;0;1;0;1;0;0;0;0;0;1;1;1;0;0;0;0;1;1;0;1;0;0;0;1;1;1;1;1;1;1;1;0;;;;;1;0;0;7;7;11;;8;;;1;2;4;1;;2;3;;;3;1;1;45;1;0;1;1;0;1;0;1;0;1;0;0
26126869;063;1;05/02/2015;23/12/2015;ESCOLA MUNICIPAL BOA ESPERANCA;;;52280524;PEDRA BONITA;80;;558;VASCO DA GAMA;33556482;34418549;EM.BOAESPERANCA@EDUCARECIFE.COM.BR;00001;1;0;;;1;0;0;0;0;0;0;0;0;1;0;;;;;;;2;1;0;0;0;0;1;0;0;0;1;0;0;1;0;0;0;0;0;1;0;1;1;0;0;0;0;1;0;1;0;0;0;1;1;0;0;1;1;1;1;0;;;;;0;0;0;7;7;7;;4;;1;;;3;;;;2;;;2;1;1;37;1;0;1;1;0;0;0;1;0;0;0;0
26128268;055;1;05/02/2015;23/12/2015;ESCOLA MUNICIPAL LUIZ LUA GONZAGA;;;52111622;AURILANDIA;54;;426;BOMBA DO HEMETERIO;33553860;33553861;EM.LUIZGONZAGA@EDUCARECIFE.COM.BR;00001;1;0;;;1;0;0;0;0;0;0;0;0;1;0;;;;;;;2;1;0;0;0;0;1;0;0;0;0;1;0;1;0;0;0;0;0;0;0;1;0;0;1;0;0;1;0;0;0;0;0;1;0;1;0;1;0;1;1;1;;;;;0;0;0;6;6;2;;3;;3;;3;8;2;;3;13;;4;9;1;1;32;1;1;1;1;0;0;0;1;0;0;0;0
26164701;419;1;04/02/2015;23/12/2015;ESCOLA MUNICIPAL PARQUE DOS MILAGRES - ANEXO II;;;51275250;CANTOR TOM JOBIM;S/N;;230;IBURA;;;;00002;2;0;;;0;0;0;0;0;0;0;0;1;;;;;;;;;2;1;0;0;0;0;1;0;0;0;1;0;0;1;0;0;0;0;0;0;0;0;0;0;1;0;0;1;0;0;0;0;0;1;1;0;0;0;1;1;1;0;;;;;0;0;0;4;4;1;;1;;;;;2;;;;;;;;;;13;1;1;1;1;0;0;0;1;0;0;0;0
26120607;028;1;05/02/2015;23/12/2015;ESCOLA MUNICIPAL ENGENHEIRO GUILHERME DINIZ;;;54230432;TEREZA MARGARIDA;S/N;UR-6;230;IBURA;33553825;34753217;EM.GUILHERMEDINIZ@EDUCARECIFE.COM.BR;00002;1;0;;;1;0;0;0;0;0;0;0;0;1;0;;;;;;;2;1;0;1;0;0;1;0;0;0;1;0;0;1;0;0;0;0;0;1;1;1;1;0;0;0;0;0;1;0;0;0;0;1;0;1;0;1;0;1;1;0;;;;;0;0;0;10;10;2;;2;;;;2;6;3;;;4;;1;3;1;1;46;1;1;1;1;0;1;0;1;0;0;0;0
26128950;385;1;05/02/2015;29/12/2015;ESCOLA MUNICIPAL IRMA TEREZINHA BATISTA - ANEXO I;;;52121010;DOS CRAVEIROS;273;;310;CAMPINA DO BARRETO;33554954;;EM.TEREZINHABATISTA@EDUCARECIFE.COM.BR;00001;1;0;;;0;0;0;0;0;0;0;0;1;;;;;;;;;2;1;0;0;0;0;1;0;0;0;1;0;0;1;0;0;0;0;0;0;0;0;0;0;0;0;0;1;0;1;0;0;0;1;0;0;0;0;0;0;0;0;;;;;0;0;0;4;4;1;1;1;;;;;2;;;;;;;;;;13;1;0;0;1;0;0;0;1;0;1;0;0
26120810;024;1;05/02/2015;29/12/2015;ESCOLA MUNICIPAL HUGO GERDAU;;;50761190;CORONEL MIZAEL DE MENDONCA;S/N;;817;SAN MARTIN;33553893;34452106;ESCOLAHUGOGERDAU@GMAIL.COM;00002;1;0;;;1;0;0;0;0;0;0;0;0;1;0;;;;;;;2;1;0;0;0;0;1;0;0;0;0;1;0;1;0;0;0;0;0;1;1;1;0;0;0;0;0;1;1;0;0;0;0;1;0;0;0;0;1;1;0;0;;;;;0;0;0;6;6;4;;1;;1;;1;2;1;;1;19;;6;13;1;1;48;1;0;1;1;0;1;0;1;0;1;0;0
26158752;342;1;05/02/2015;29/12/2015;ESCOLA MUNICIPAL CORREGO DO EUCLIDES;;;52080000;CORREGO DO EUCLIDES;1231;;540;ALTO JOSE BONIFACIO;33553494;;EMCORREGODOEUCLIDES@YAHOO.COM.BR;00001;2;0;;;1;0;0;0;0;0;0;0;0;1;0;;;;;;;2;1;0;0;0;0;1;0;0;0;1;0;0;1;0;0;0;0;0;0;0;1;0;0;0;0;0;1;0;0;0;0;0;1;0;0;0;1;0;0;1;0;;;;;0;0;0;3;3;3;;3;;3;;;3;2;;1;2;;;2;0;;17;1;0;1;1;0;1;0;1;1;1;0;0
26119145;084;1;05/02/2015;23/12/2015;ESCOLA MUNICIPAL DOS REMEDIOS;;;50830260;DO BONGI;91;;663;PRADO;33553459;34282462;EM.DOSREMEDIOS@EDUCARECIFE.COM.BR;00002;1;0;;;1;0;0;0;0;0;0;0;0;2;0;;;;;;;2;1;0;0;0;0;1;0;0;0;1;0;0;1;0;0;0;0;0;1;0;0;0;0;0;1;1;1;0;0;0;0;0;1;0;0;0;1;0;0;1;0;;;;;0;0;0;7;7;8;;8;;2;1;;5;2;;2;32;;10;22;1;1;32;1;0;1;1;0;0;0;1;0;0;0;0
26166593;321;1;05/02/2015;29/12/2015;ESCOLA MUNICIPAL ALTO DO PASCOAL;;;52111430;LADEIRA DE PEDRA;1265;;337;AGUA FRIA;33556852;33554221;EMALTODOPASCOAL@HOTMAIL.COM;00001;2;0;;;1;0;0;0;0;0;0;0;0;3;0;;;;;;;2;1;0;0;0;0;1;0;0;0;1;0;0;1;0;0;0;0;0;1;1;0;0;0;0;0;1;1;1;0;0;0;0;1;0;0;0;0;1;0;0;0;;;;;0;0;0;12;12;2;;5;;2;;2;4;1;;1;2;;;2;1;1;38;1;0;1;1;0;0;0;1;0;1;0;0
26153122;542;1;05/02/2015;23/12/2015;CMEI BRASILIA TEIMOSA;;;51010010;DELFIM;55;;256;BRASILIA TEIMOSA;33554814;;CRM.BRASILIATEIMOSA@EDUCARECIFE.COM.BR;00002;1;0;;;1;0;0;0;0;0;0;0;0;1;0;;;;;;;2;1;0;0;0;0;1;0;0;0;0;1;0;1;0;0;0;0;0;1;1;1;0;0;0;0;0;1;0;0;1;1;1;1;1;0;0;1;1;1;1;0;;;;;0;1;0;6;6;2;;6;;1;;1;1;;;1;11;;3;8;1;1;55;1;0;0;1;0;0;0;;0;0;0;0
26170757;960;1;05/02/2015;23/12/2015;ESCOLA MUNICIPAL DEUS E AMOR - ANEXO I;;;52111410;MANOEL LOPES;46;;337;AGUA FRIA;33554216;;EM.DEUSEAMOR@EDUCARECIFE.COM.B;00001;2;0;;;0;1;0;0;0;0;0;0;0;;;;;;;;;2;1;0;0;0;0;1;0;0;0;0;1;0;1;0;0;0;0;0;0;0;0;0;0;0;0;0;1;0;0;0;0;0;1;0;0;0;0;0;0;0;0;;;;;0;0;0;2;2;1;;;;;;;;;;;;;;;;;9;1;0;0;1;0;0;0;1;0;0;0;0
26127016;190;1;05/02/2015;23/12/2015;ESCOLA MUNICIPAL CASARAO DO BARBALHO;;;50690000;DO BARBALHO;1595;;698;IPUTINGA;33553864;;CASARAOBARBALHO@YAHOO.COM.BR;00002;1;0;;;1;0;0;0;0;0;0;0;0;1;0;;;;;;;2;1;0;0;0;0;1;0;0;0;0;1;0;1;0;0;0;0;0;1;1;0;0;0;1;0;1;1;1;0;0;0;0;1;1;1;1;1;1;1;1;0;;;;;0;0;0;13;13;3;;2;;1;1;4;5;2;;1;20;;6;14;1;1;67;1;1;1;1;0;1;0;1;0;0;0;0
26171651;992;1;09/02/2015;23/12/2015;CRECHE MUNICIPAL MONTE DAS OLIVEIRAS;;;52091260;ALTO DA BRASILEIRA;07;;566;NOVA DESCOBERTA;33556278;;CRM.MONTEDASOLIVEIRAS@EDUCARECIFE.COM.BR;00001;1;0;;;1;0;0;0;0;0;0;0;0;1;0;;;;;;;2;1;0;0;0;0;1;0;0;0;1;0;0;1;0;0;0;0;0;0;0;1;0;0;0;0;0;1;0;0;0;0;0;1;0;0;0;1;0;1;0;0;;;;;0;1;0;2;2;2;2;2;;1;;1;1;;;;1;;;1;1;1;23;1;0;0;1;0;0;0;;0;0;0;0
26170744;966;1;05/02/2015;23/12/2015;ESCOLA MUNICIPAL LADJANE BANDEIRA;;;52211260;SEVERINO CARNEIRO;135;;337;AGUA FRIA;33556550;33556486;ESCOLALADJANEBANDEIRA@YAHOO.COM.BR;00001;2;0;;;1;0;0;0;0;0;0;0;0;1;0;;;;;;;2;1;0;0;0;0;1;0;0;0;0;1;0;1;0;0;0;0;0;0;1;1;0;0;0;0;0;1;0;0;0;0;0;1;1;1;1;1;0;0;0;0;;;;;0;0;0;3;3;1;;1;;1;1;2;4;1;;1;23;;7;16;1;1;16;1;0;0;1;0;0;0;;0;0;0;0
26128934;013;1;05/02/2015;23/12/2015;ESCOLA MUNICIPAL OLINDINA MONTEIRO DE OLIVEIRA FRANCA;;;52140390;BELA VISTA;315;;396;DOIS UNIDOS;33556330;34495672;OLINDINAMONTEIRO@HOTMAIL.COM;00001;1;0;;;1;0;0;0;0;0;0;0;0;1;0;;;;;;;2;1;0;0;0;0;1;0;0;0;0;1;0;1;0;0;0;0;0;1;1;1;1;0;1;0;1;1;1;0;0;0;0;1;0;1;0;1;1;1;1;0;;;;;0;0;0;10;10;12;;12;;1;1;2;1;2;1;;19;;6;13;1;1;28;1;1;1;1;0;0;0;1;0;1;0;0
26127369;003;1;05/02/2015;23/12/2015;ESCOLA MUNICIPAL ARRAIAL NOVO DO BOM JESUS;;;50640000;DO FORTE;1340;;701;TORROES;33554123;33554598;ESCOLAARRAIALNOVO@HOTMAIL.COM;00002;1;0;;;1;0;0;0;0;0;0;0;0;1;0;;;;;;;2;1;0;0;0;0;1;0;0;0;1;0;0;1;0;0;0;0;0;1;1;1;1;1;0;0;1;1;1;0;0;0;0;1;0;1;1;0;1;0;1;0;;;;;0;0;0;11;11;4;;;1;2;;2;3;3;;2;6;;1;5;1;1;84;1;0;1;1;0;1;0;1;1;1;0;0
26175380;097;1;02/02/2015;30/12/2015;ESCOLA MUNICIPAL PEDRO ALCANTARA;;;52190191;TRES MORROS;43;;620;CORREGO DO JENIPAPO;33556570;;E.M.PEDROALCANTARA@EDUCARECIFE.COM.BR;00001;2;0;;;1;0;0;0;0;0;0;0;0;2;0;;;;;;;2;1;0;0;0;0;1;0;0;0;1;0;0;1;0;0;0;0;0;0;0;1;0;0;0;0;0;1;1;0;0;0;1;1;1;0;0;1;0;1;0;0;;;;;0;0;0;4;4;3;;2;;3;2;3;2;2;;1;2;;;2;1;1;21;1;0;0;1;0;1;0;1;0;0;0;0
26122529;012;1;05/02/2015;23/12/2015;ESCOLA MUNICIPAL MARIO MELO;;;52040250;OLIVEIRA FONSECA;318;;280;CAMPO GRANDE;33553713;32421049;ESCOLAMARIOMELO@YAHOO.COM.BR;00001;1;0;;;1;0;0;0;0;0;0;0;0;1;0;;;;;;;2;1;0;0;0;0;1;0;0;0;1;0;0;1;0;0;0;0;0;1;1;1;1;1;1;0;1;1;1;1;1;0;0;1;0;1;1;0;1;1;1;1;;;;;0;0;0;14;14;2;;1;1;1;1;2;1;1;;1;8;;2;6;1;1;72;1;1;1;1;0;1;0;1;1;0;0;0
26158329;374;1;05/02/2015;23/12/2015;ESCOLA MUNICIPAL DEPUTADO EDSON CANTARELLI;;;51240320;RUBINEIA;49;;221;JORDAO;33553788;33427168;EM.EDSONCANTARELLI@EDUCARECIFE.COM.BR;00002;2;0;;;1;0;0;0;0;0;0;0;0;1;0;;;;;;;2;1;0;0;0;0;1;0;0;0;0;1;0;1;0;0;0;0;0;0;1;1;1;0;1;0;0;1;1;0;0;0;0;1;1;1;0;1;1;0;1;0;;;;;0;0;0;5;5;3;;2;;;1;6;2;3;;1;13;;4;9;1;1;43;1;1;1;1;0;1;0;1;0;1;0;0
26124467;183;1;05/02/2015;23/12/2015;ESCOLA MUNICIPAL BEATO EUGENIO MAZENOD;;;51180260;LUXEMBURGO;303;;264;IMBIRIBEIRA;33556937;34710514;EUGENIOMAZENOD@GMAIL.COM;00002;1;0;;;1;0;0;0;0;0;0;0;0;3;0;;;;;;;2;1;0;0;0;0;1;0;0;0;0;1;0;1;0;0;0;0;0;1;0;1;0;0;0;0;0;1;0;1;0;0;0;1;0;0;0;1;0;0;1;0;;;;;0;0;0;6;6;3;;3;;1;;2;1;1;;2;15;;4;11;1;1;40;1;1;1;1;0;1;0;1;0;0;0;0
26171643;994;1;05/02/2015;23/12/2015;CRECHE MUNICIPAL ARITANA;;;51160270;MANOEL CAVALCANTI BEZERRA;37;;264;IMBIRIBEIRA;33554332;;CRM.ARITANA@EDUCARECIFE.COM.BR;00002;2;0;;;1;0;0;0;0;0;0;0;0;3;0;;;;;;;2;1;0;0;0;0;1;0;0;0;1;0;0;1;0;0;0;0;0;0;0;1;0;0;0;0;0;1;1;0;1;0;0;1;1;0;0;1;1;1;1;1;;;;;0;1;0;3;3;3;;3;;1;;1;1;;;;2;;;2;1;1;30;1;0;0;1;0;0;0;;0;0;0;0
26128390;009;1;05/02/2015;23/12/2015;ESCOLA MUNICIPAL PAULO VI;;;52131210;GUAIRA;200;;388;LINHA DO TIRO;33553965;33553964;ESCOLAPAULOSEXTO@HOTMAIL.COM;00001;1;0;;;1;0;0;0;0;0;0;0;0;1;0;;;;;;;2;1;0;0;0;0;1;0;0;0;1;0;0;1;0;0;0;0;0;1;1;1;1;0;0;0;1;1;1;0;0;0;0;1;0;0;0;0;1;1;1;1;;;;;1;0;0;18;18;2;;3;;1;3;1;2;;;2;2;;;2;1;1;73;1;0;0;1;0;1;0;1;0;0;0;0
26156725;988;1;05/02/2015;30/12/2015;CRECHE MUNICIPAL DO BONGI;;;50751070;MAJOR MARIO PORTELA;S/N;;809;BONGI;33554806;34454644;CMEI.BONGI@EDUCARECIFE.COM.BR;00002;1;0;;;1;0;0;0;0;0;0;0;0;1;0;;;;;;;2;1;0;0;0;0;1;0;0;0;1;0;0;1;0;0;0;0;0;1;0;0;0;0;0;0;0;1;0;0;0;0;1;1;0;0;0;1;0;1;0;0;;;;;0;1;0;5;5;3;;1;;1;;;1;;;;7;;2;5;1;1;44;1;0;0;1;0;0;0;;0;1;0;0
26132635;954;1;05/02/2014;23/12/2014;ESCOLA MUNICIPAL JORDAO BAIXO - ANEXO I;;;51250340;GOVERNADOR ROBERTO DA SILVEIRA;51;JOR BAIXO;221;JORDAO;33556314;34626824;TECA.GOMES@YAHOO.COM.BR;00002;1;0;;;1;0;0;0;0;0;0;0;0;2;0;;;;;;;2;1;0;0;0;0;1;0;0;0;1;0;0;1;0;0;0;0;0;0;0;0;1;0;0;0;0;1;0;0;0;0;0;1;1;0;0;0;1;0;0;0;;;;;0;0;0;2;2;1;;1;;;;1;1;;;;10;;3;7;0;;16;1;1;1;1;0;1;0;1;0;0;0;0
26443716;425;1;05/02/2015;29/12/2015;CMEI DOUTOR ALBERICO DORNELAS CAMARA;;;50030230;CAIS DO APOLO;925;1ยบ ANDAR;19;RECIFE;33559216;33558527;CRM.ALBERICODORNELAS@EDUCARECIFE.COM.BR;00001;1;0;;;1;0;0;0;0;0;0;0;0;3;0;;;;;;;2;1;0;0;0;0;1;0;0;0;1;0;0;1;0;0;0;0;0;1;1;1;1;0;0;0;0;1;0;0;0;1;0;1;1;0;0;1;0;0;0;0;;;;;0;0;0;8;8;3;;3;;1;;;2;;;;6;;1;5;1;1;76;1;0;0;1;0;0;0;;0;0;1;0
26491710;427;1;05/02/2015;23/12/2015;ESCOLA MUNICIPAL BOLA NA REDE;;;52490220;DOUTOR ARTUR ORLANDO DE ANDRADE BEZERRA;100;;418;GUABIRABA;33550316;;EM.BOLANAREDE@EDUCARECIFE.COM.BR;00001;2;0;;;1;0;0;0;0;0;0;0;0;1;0;;;;;;;2;1;0;0;0;0;1;0;0;0;1;0;0;1;0;0;0;0;0;1;0;0;1;0;0;0;0;1;0;1;1;0;0;1;1;0;0;1;0;0;1;0;;;;;1;0;0;8;8;2;;2;;;1;3;3;1;;;19;;6;13;1;1;31;1;1;1;1;0;1;0;1;0;0;0;0
26149796;520;1;05/02/2015;23/12/2015;CRECHE MUNICIPAL NOSSA SENHORA DAS DORES;;;52071390;DOS CAETES;427;;507;APIPUCOS;33554352;34418570;CRM.NSADASDORES@EDUCARECIFE.COM.BR;00001;2;0;;;1;0;0;0;0;0;0;0;0;1;0;;;;;;;2;1;0;0;0;0;1;0;0;0;1;0;0;1;0;0;0;0;0;1;0;1;0;0;0;0;0;1;0;1;1;0;1;1;1;0;0;1;1;1;0;0;;;;;0;1;0;3;3;2;;2;;1;;1;2;;;;1;;;1;1;1;32;1;0;0;1;0;0;0;;0;0;0;0
26120712;105;1;05/02/2015;29/12/2015;ESCOLA MUNICIPAL DO LEAO;;;51021280;BRUNO VELOSO;300;;205;BOA VIAGEM;33553872;34657954;ESCOLAMUNICIPALLEAO@YAHOO.COM.BR;00002;1;0;;;1;0;0;0;0;0;0;0;0;3;0;;;;;;;2;1;0;0;0;0;1;0;0;0;1;0;0;1;0;0;0;0;0;1;1;1;0;0;0;0;0;1;0;1;0;0;1;0;0;0;0;0;1;1;1;0;;;;;0;0;0;14;14;2;;1;;;;2;4;1;;3;3;;;3;1;1;32;1;1;1;1;0;1;0;1;0;0;0;0
26168111;995;1;06/02/2015;23/12/2015;ESCOLA MUNICIPAL DO PANTANAL - ANEXO II;;;51345820;PRESIDENTE MEDICE;115;;876;BARRO;33554071;;EM.PANTANAL@HOTMAIL.COM;00002;1;0;;;1;0;0;0;0;0;0;0;0;2;0;;;;;;;2;0;1;0;0;0;1;0;0;0;1;0;0;1;0;0;0;0;0;0;0;0;0;0;0;0;0;1;0;0;1;0;0;1;0;0;0;0;0;1;1;0;;;;;0;0;0;3;3;4;;3;1;1;1;1;2;1;;2;1;;;1;0;;11;1;0;0;1;0;0;0;1;0;0;0;0
26212609;403;1;06/02/2015;29/12/2015;CMEI ESTRELA DA MANHA;;;51180340;DANCING DAYS;135;;264;IMBIRIBEIRA;33554818;;CMEI.ESTRELADAMANHA@EDUCARECIFE.COM.BR;00002;2;0;;;1;0;0;0;0;0;0;0;0;1;0;;;;;;;2;1;0;0;0;0;1;0;0;0;0;1;0;1;0;0;0;0;0;1;1;0;0;0;0;0;0;1;0;1;1;0;0;1;1;1;1;1;1;1;0;0;;;;;1;1;0;4;4;2;;2;;1;;1;2;;;1;10;;3;7;1;1;43;1;0;0;1;0;0;0;;0;0;0;0
26128659;086;1;05/02/2015;22/12/2015;ESCOLA MUNICIPAL ANTONIO LUIZ;;;52121080;SAO JOAO BATISTA;134;;345;FUNDAO;33553792;96311771;EM.ANTONIOLUIZ@EDUCARECIFE.COM.BR;00001;1;0;;;1;0;0;0;0;0;0;0;0;2;0;;;;;;;2;1;0;0;0;0;1;0;0;0;1;0;0;1;0;0;0;0;0;1;0;0;0;0;0;0;0;1;1;0;0;0;0;1;0;0;0;1;0;1;1;0;;;;;0;0;0;4;4;5;;3;;1;;1;2;1;;2;29;;9;20;1;1;26;1;0;0;1;0;0;0;1;0;0;0;0
26119218;273;1;05/02/2015;23/12/2015;ESCOLA MUNICIPAL DA IPUTINGA - ANEXO I - ACF;;;50710020;VERMELHA;68;;655;TORRE;33554096;33554097;;00002;1;0;;;1;0;0;0;0;0;0;0;0;1;0;;;;;;;2;1;0;0;0;0;1;0;0;0;1;0;0;1;0;0;0;0;0;1;1;1;1;0;0;0;0;1;1;1;1;0;0;1;1;1;0;1;1;1;1;0;;;;;1;1;0;5;5;1;;1;;;;3;1;1;;;28;;9;19;1;1;15;1;1;1;1;0;0;0;1;0;0;0;0
26120682;100;1;05/02/2015;23/12/2015;ESCOLA MUNICIPAL BALBINA MENELAU;;;50790070;JOAO DE ANDRADE;82;;868;JARDIM SAO PAULO;33553992;33553993;EM.BALBINANAMENELAU@EDUCARECIFE.COM.BR;00002;1;0;;;1;0;0;0;0;0;0;0;0;2;0;;;;;;;2;1;0;0;0;0;1;0;0;0;1;0;0;1;0;0;0;0;0;1;1;1;1;0;0;0;1;1;1;0;1;0;0;1;0;1;1;1;0;1;1;1;;;;;0;0;0;7;7;1;1;;;1;2;;3;1;;1;8;;2;6;1;1;38;1;1;1;1;0;1;0;1;0;0;0;0
26123541;102;1;05/02/2015;23/12/2015;ESCOLA MUNICIPAL ANDRE DE MELO;;;50865100;MORAES E SILVA;180;;833;ESTANCIA;33553784;33553780;ESCOLAMUNICIPALANDREDEMELO@BOL.COM.BR;00002;1;0;;;1;0;0;0;0;0;0;0;0;1;0;;;;;;;2;1;0;0;0;0;1;0;0;0;1;0;0;1;0;0;0;0;0;1;1;1;1;0;1;0;0;1;1;0;0;0;0;1;0;1;1;0;1;0;1;0;;;;;0;0;0;12;12;;1;3;;2;1;2;8;2;1;2;15;;4;11;1;1;82;1;1;1;1;0;1;0;1;0;1;0;0
26125706;027;1;05/02/2015;29/12/2015;ESCOLA MUNICIPAL MUNDO ESPERANCA;;;52171050;DOS PINTOS;900;;604;SITIO DOS PINTOS;33550066;33553574;EM.MUNDOESPERANCA@EDUCARECIFE.COM.BR;00001;1;0;;;1;0;0;0;0;0;0;0;0;3;0;;;;;;;2;1;0;0;0;0;1;0;0;0;0;1;0;1;0;0;0;0;0;1;1;0;1;0;0;0;0;1;0;1;0;0;0;1;0;0;1;1;1;1;1;0;;;;;0;0;0;6;6;2;;2;;1;;1;2;1;;1;10;;3;7;1;1;33;1;0;0;1;0;0;0;1;0;1;0;0
26158310;371;1;05/02/2015;23/12/2015;ESCOLA MUNICIPAL ISAAC PEREIRA DA SILVA;;;50870650;OITICICA LINS;S/N;;850;AREIAS;33554012;32516194;EMIPS2014@OUTLOOK.COM;00002;1;0;;;1;0;0;0;0;0;0;0;0;1;0;;;;;;;2;1;0;0;0;0;1;0;0;0;1;0;0;1;0;0;0;0;0;1;1;1;0;0;1;0;0;1;1;0;0;0;0;1;0;1;0;1;0;0;1;0;;;;;0;0;0;6;6;4;;1;;;;3;1;1;;1;3;;;3;1;1;48;1;1;1;1;0;1;0;1;0;0;0;0
26419742;426;1;05/02/2015;31/12/2015;CMEI COELHINHO PENSANTE;;;50110842;RUA FATIMA TEIXEIRA;41;A;108;SANTO AMARO;33554340;;;00001;1;0;;;1;0;0;0;0;0;0;0;0;2;0;;;;;;;2;1;0;0;0;0;1;0;0;0;1;0;0;1;0;0;0;0;0;1;0;0;0;0;0;0;0;1;1;0;0;0;0;1;1;0;0;1;1;1;0;0;;;;;0;1;0;5;5;4;3;2;;;;1;2;;;;7;;2;5;1;1;45;1;0;0;1;0;0;0;;0;0;0;0
26123550;002;1;05/02/2015;23/12/2015;ESCOLA MUNICIPAL DE TEJIPIO;;;50930100;TUTOIA;165;;892;TEJIPIO;33556897;32516769;EM.DETEJIPIO@EDUCARECIFE.COM.BR;00002;1;0;;;1;0;0;0;0;0;0;0;0;2;0;;;;;;;2;1;0;0;0;0;1;0;0;0;1;0;0;1;0;0;0;0;0;1;1;1;1;0;0;0;0;1;1;0;0;0;0;1;0;0;1;0;0;1;0;0;;;;;0;0;0;9;9;9;;6;;2;1;1;6;2;;3;13;;4;9;1;1;55;1;1;1;1;0;1;0;1;0;1;0;0
26119641;049;1;05/02/2015;22/12/2015;ESCOLA MUNICIPAL DOUTOR RODOLFO AURELIANO;;;50810220;JOSE AVELAR;211;;736;VARZEA;33553996;;EM.RODOLFOAURELIANO@EDUCARECIFE.COM.BR;00002;1;0;;;1;0;0;0;0;0;0;0;0;1;0;;;;;;;2;1;0;0;0;0;1;0;0;0;0;1;0;1;0;0;0;0;0;1;1;1;1;0;0;0;0;1;1;0;0;0;0;1;0;0;0;1;0;1;1;0;;;;;0;0;0;10;10;3;;2;1;1;;1;4;2;1;1;23;;7;16;1;1;61;1;1;1;1;0;1;0;1;1;1;0;0
26148145;548;1;05/02/2015;23/12/2015;CRECHE MUNICIPAL BIDO KRAUSE;;;50791480;ONZE DE AGOSTO;S/N;;914;TOTO;33550050;34550303;CRRM.BIDOKRAUSE@EDUCARECIFE.COM.BR;00002;1;0;;;1;0;0;0;0;0;0;0;0;1;0;;;;;;;2;1;0;0;0;0;1;0;0;0;1;0;0;1;0;0;0;0;0;0;0;1;0;0;0;0;0;1;0;0;1;1;0;1;1;0;0;1;1;1;1;0;;;;;0;1;0;5;5;2;;;;1;;1;3;;;;2;;;2;1;1;54;1;0;1;1;0;0;0;;0;0;0;0
26126389;057;1;05/02/2015;23/12/2015;ESCOLA MUNICIPAL DOUTOR CAETE;;;52190210;ALVARANS;222;;566;NOVA DESCOBERTA;33554496;32691091;EMDRC9@GMAIL.COM;00001;1;0;;;1;0;0;0;0;0;0;0;0;1;0;;;;;;;2;0;0;1;0;0;1;0;0;0;1;0;0;1;0;0;0;0;0;0;0;1;0;0;0;0;0;1;1;0;0;0;0;1;0;0;0;1;0;1;1;0;;;;;0;0;0;7;7;2;;2;;1;;1;1;2;;;2;;;2;1;1;32;1;1;1;1;0;1;0;1;0;1;0;0
26118955;080;1;05/02/2015;23/12/2015;ESCOLA MUNICIPAL JULIO VICENTE ALVES DE ARAUJO;;;52280255;DA CONCEICAO;468;;531;MORRO DA CONCEICAO;33556918;;EM.JULIOVICENTE@EDUCARECIFE.COM.BR;00001;1;0;;;1;0;0;0;0;0;0;0;0;1;0;;;;;;;2;1;0;0;0;0;1;0;0;0;0;1;0;1;0;0;0;0;0;1;1;1;1;0;1;1;1;1;0;0;1;0;0;1;1;1;1;1;1;1;1;1;;;;;0;0;0;10;10;6;;4;;1;2;1;4;2;;1;50;;16;34;1;0;70;1;1;1;1;1;1;0;1;0;1;0;0
26127520;018;1;05/02/2015;23/12/2015;ESCOLA MUNICIPAL DIVINO ESPIRITO SANTO;;;50800210;DA CAXANGA;127;;744;CAXANGA;33553885;33553884;EMDIVINOESPIRITOSANTO@YAHOO.COM.BR;00002;1;0;;;1;0;0;0;0;0;0;0;0;2;0;;;;;;;2;1;0;0;0;0;1;0;0;0;1;0;0;1;0;0;0;0;0;1;1;1;1;1;1;1;1;1;1;0;0;0;0;1;0;1;1;1;1;1;1;1;;;;;1;0;0;15;15;2;;4;;1;;;;1;;1;8;;2;6;1;1;103;1;1;1;1;0;0;0;1;0;1;0;0
26132643;249;1;05/02/2015;23/12/2015;ESCOLA MUNICIPAL FERNANDO SANTA CRUZ;;;51260000;BOANERGES PEREIRA;437;;221;JORDAO;33554500;34627722;EMFSCRUZ@HOTMAIL.COM;00002;1;0;;;1;0;0;0;0;0;0;0;0;1;0;;;;;;;2;1;0;0;0;0;1;0;0;0;0;1;0;1;0;0;0;0;0;0;0;1;1;0;1;0;0;1;0;0;0;0;0;1;0;1;0;1;1;0;1;0;;;;;0;0;0;3;3;2;;2;;1;;1;1;2;;;2;;;2;1;1;24;1;1;1;1;0;0;0;1;0;0;0;0
26124165;418;1;05/02/2015;23/12/2015;CMEI BERNARD VAN DER LEER;;;51010380;FRANCISCO VALPASSOS;SN;;256;BRASILIA TEIMOSA;33556554;;CMAIBERNARDVANLEER@EDUCARECIFE.COM.BR;00002;1;0;;;1;0;0;0;0;0;0;0;0;1;0;;;;;;;1;1;0;0;0;0;1;0;0;0;1;0;0;1;0;0;0;0;0;1;1;1;0;0;0;0;0;1;1;0;0;0;0;1;1;1;0;0;1;1;1;0;;;;;0;0;0;9;9;;;;;1;;1;;;;;1;;;1;1;0;70;1;1;1;1;0;0;0;;0;0;0;0
26133837;213;1;05/02/2015;23/12/2015;ESCOLA MUNICIPAL CRISTIANO CORDEIRO;;;51340210;SANTOS;S/N;COHAB UR2;230;IBURA;33553796;33553797;EM.CRISTIANOCORDEIRO@EDUCARECIFE.COM.BR;00002;1;0;;;1;0;0;0;0;0;0;0;0;1;0;;;;;;;2;1;0;0;0;0;1;0;0;0;0;1;0;1;0;0;0;0;0;1;1;1;0;0;1;0;0;0;1;0;0;0;0;1;1;0;0;0;0;1;1;0;;;;;0;0;0;12;12;1;1;1;;1;1;2;3;1;;1;17;;5;12;1;1;52;1;1;1;1;0;1;0;1;0;0;0;0
26118955;389;1;06/02/2015;27/12/2015;ESCOLA MUNICIPAL JULIO VICENTE ALVES DE ARAU ANX I CERVAC;;;52280255;DA CONCEICAO;468;;531;MORRO DA CONCEICAO;33556918;30779158;EM.JULIOVICENTE@EDUCARECIFE.GMAIL.COM;00001;1;0;;;1;0;0;0;0;0;0;0;0;1;0;;;;;;;2;1;0;0;0;0;1;0;0;0;0;1;0;1;0;0;0;0;0;1;1;1;1;0;0;1;1;1;0;0;1;0;0;1;0;1;1;1;1;1;1;1;;;;;0;0;0;4;4;2;;2;;5;;5;6;1;;3;15;;4;11;1;1;26;1;1;0;0;1;1;0;1;0;0;0;0
26124092;146;1;05/02/2015;23/12/2015;ESCOLA MUNICIPAL ABILIO GOMES;;;51021280;BRUNO VELOZO;S/N;;205;BOA VIAGEM;33553462;;EM.ABILIOGOMES@EDUCARECIFE.COM.BR;00002;1;0;;;1;0;0;0;0;0;0;0;0;3;0;;;;;;;2;1;0;0;0;0;1;0;0;0;0;1;0;1;0;0;0;0;0;1;0;0;0;0;0;0;0;1;0;0;0;0;0;1;0;0;0;1;0;0;1;0;;;;;0;0;0;7;7;2;;1;;4;1;4;4;1;;1;17;;5;12;1;1;37;1;1;1;1;0;1;0;1;0;0;0;0
26126672;079;1;05/02/2015;23/12/2015;ESCOLA MUNICIPAL MAURICIO DE NASSAU;;;52071250;DOUTOR EURICO CHAVES;677;;493;ALTO DO MANDU;33556322;;EM.MAURICIODENASSAU@EDUCARECIFE.COM;00001;1;0;;;1;0;0;0;0;0;0;0;0;2;0;;;;;;;2;1;0;0;0;0;1;0;0;0;0;1;0;1;0;0;0;0;0;0;0;1;1;0;0;0;0;1;0;0;0;0;1;0;0;1;1;1;0;0;0;0;;;;;0;0;0;5;5;3;;1;;1;1;1;5;1;1;2;11;;3;8;1;1;28;1;0;0;1;0;1;0;1;0;0;0;0
26124840;511;1;05/02/2015;23/12/2015;ESCOLA MUNICIPAL MENINO JESUS;;;51011080;DOMINGOS FERREIRA;S/N;;205;BOA VIAGEM;33553449;;ESCMENJESUS@YAHOO.COM.BR;00002;1;0;;;1;0;0;0;0;0;0;0;0;2;0;;;;;;;2;1;0;0;0;0;1;0;0;0;1;0;0;1;0;0;0;0;0;1;1;1;0;0;1;0;0;1;0;0;0;0;0;1;0;0;0;1;0;1;0;0;;;;;0;0;0;3;3;3;;1;;1;;3;4;3;;;4;;1;3;1;1;35;1;1;0;1;0;0;0;1;0;0;0;0
26153408;526;1;06/02/2015;29/12/2015;CRECHE MUNICIPAL E LUTANDO QUE SE CONQUISTA;;;50711480;SALVADOR ALLENDER;36;;680;CORDEIRO;33554834;32261528;CRM.ELUTANDO@EDUCARECIFE.COM.BR;00002;1;0;;;1;0;0;0;0;0;0;0;0;1;0;;;;;;;2;1;0;0;0;0;1;0;0;0;1;1;0;1;0;0;0;0;0;1;0;0;0;0;0;0;0;1;0;0;1;1;0;1;1;0;0;1;1;1;1;0;;;;;1;1;0;5;5;5;;4;;1;;1;5;;;1;8;;2;6;1;1;63;1;1;0;1;0;0;0;;0;0;0;0
26123487;029;1;05/02/2015;23/12/2015;ESCOLA MUNICIPAL DOM BOSCO;;;50790200;ALVENOPOLIS;600;;868;JARDIM SAO PAULO;33553848;33553849;EM.DOMBOSCO@EDUCARECIFE.COM.BR;00002;1;0;;;1;0;0;0;0;0;0;0;0;1;0;;;;;;;2;0;1;0;0;0;1;0;0;0;0;1;0;0;1;0;0;0;0;1;1;1;0;1;1;1;1;1;1;0;0;0;0;1;0;1;0;0;1;0;1;0;;;;;0;0;0;15;15;1;;2;;1;;;;2;;1;8;;2;6;1;1;83;1;1;1;1;0;1;0;1;0;1;0;0
26124556;010;1;05/02/2015;23/12/2015;ESCOLA MUNICIPAL MARIA DE SAMPAIO LUCENA;;;51280000;PERNAMBUCO;S/N;UR 01;230;IBURA;33556586;34755258;ESCOLA.MARIASAMPAIO68@GMAIL.COM;00002;1;0;;;1;0;0;0;0;0;0;0;0;1;0;;;;;;;2;1;0;0;0;0;1;0;0;0;0;1;0;1;0;0;0;0;0;1;1;1;1;0;1;1;1;1;1;1;1;0;1;0;0;1;1;1;1;0;1;0;;;;;0;0;0;12;12;4;;2;;1;1;1;2;1;1;1;29;;9;20;1;1;66;1;1;1;1;0;1;0;1;0;1;0;0
26149869;516;1;05/02/2015;29/12/2015;CRECHE MUNICIPAL AME AS CRIANCAS;;;52080100;ARLINDO CISNEIROS;53;;426;BOMBA DO HEMETERIO;33554328;32678390;CRM.AMEASCRIANCAS@EDUCARECIFE.COM;00001;1;0;;;1;0;0;0;0;0;0;0;0;1;0;;;;;;;2;1;0;0;0;0;1;0;0;0;1;0;0;1;0;0;0;0;0;1;0;0;0;0;0;0;0;1;0;0;0;0;1;1;1;0;0;1;1;1;1;0;;;;;0;1;0;3;3;1;;;;;;1;1;;;;5;;1;4;1;1;34;1;0;0;1;0;0;0;;0;0;0;0
26156610;990;1;02/03/2015;23/12/2015;CRECHE MUNICIPAL DO IBURA-;;;51310000;EXPEDICIONARIO FRANCISCO VITORIANO;S/N;UR 10;230;IBURA;33553076;34751288;CMEI.IBURA@EDUCARECIFE.COM.BR;00002;2;0;;;1;0;0;0;0;0;0;0;0;1;0;;;;;;;1;0;1;0;0;0;1;0;0;0;1;0;0;1;0;0;0;0;0;1;0;1;0;0;0;0;0;1;0;0;1;1;0;1;1;0;1;1;1;1;1;0;;;;;1;1;0;8;8;2;;;;1;;1;;;;;2;;;2;1;1;77;1;0;0;1;0;0;0;;0;0;0;0
26128705;047;1;05/02/2015;23/12/2015;ESCOLA MUNICIPAL MONSENHOR VIANA;;;52130260;TAGUATINGA;S/N;;370;BEBERIBE;33554136;33554137;EM.MONSENHORVIANA@EDUCARECIFE.COM.BR;00001;1;0;;;1;0;0;0;0;0;0;0;0;1;0;;;;;;;2;1;0;0;0;0;1;0;0;0;0;1;0;1;0;0;0;0;0;1;1;1;1;0;0;0;0;0;0;1;0;0;0;1;0;1;0;1;1;1;1;0;;;;;0;0;0;8;8;11;;9;;1;;3;;1;;2;18;;5;13;1;1;47;1;0;1;1;0;0;0;1;0;0;0;0
26153254;535;1;05/02/2015;23/12/2015;CRECHE MUNICIPAL FUTURO DO AMANHA;;;50761010;APULCRU DE ASSUNCAO;686;CASA;817;SAN MARTIN;33554344;33554345;CRM.FUTURODOAMANHA@EDUCARECIFE.COM.BR;00002;1;0;;;1;0;0;0;0;0;0;0;0;1;0;;;;;;;2;1;0;0;0;0;1;0;0;0;1;0;0;1;0;0;0;0;0;0;1;1;0;0;0;0;0;1;0;0;1;0;1;1;1;1;1;1;1;1;1;0;;;;;1;1;0;3;3;1;;1;;1;;1;1;1;;;2;;;2;1;1;55;1;1;1;1;0;0;0;;0;0;0;0
26126680;120;1;05/02/2015;23/12/2015;ESCOLA MUNICIPAL CORREGO DA AREIA;;;52091220;CORREGO DA AREIA;5449;;566;NOVA DESCOBERTA;33554484;33554485;EMCORREGODAAREIA@HOTMAIL.COM;00001;1;0;;;1;0;0;0;0;0;0;0;0;1;0;;;;;;;2;1;0;0;0;0;1;0;0;0;0;1;0;1;0;0;0;0;0;1;1;1;1;0;0;0;0;1;1;0;0;0;0;1;0;0;0;1;0;1;1;0;;;;;0;0;0;5;5;2;1;4;1;3;1;3;6;1;;2;19;;6;13;1;1;26;1;0;1;1;0;0;0;1;0;0;0;0
26139723;237;1;05/02/2015;23/12/2015;ESCOLA MUNICIPAL ALTO SANTA TEREZINHA;;;52131000;ANIBAL BENEVOLO;S/N;;370;BEBERIBE;33553856;;EMASTEREZINHA@HOTMAIL.COM;00001;1;0;;;1;0;0;0;0;0;0;0;0;1;0;;;;;;;2;1;0;0;0;0;1;0;0;0;0;1;0;1;0;0;0;0;0;1;1;1;0;0;1;0;0;1;1;0;0;0;0;1;0;1;0;1;0;1;1;0;;;;;0;0;0;12;12;6;7;7;;1;1;2;8;2;;1;4;;1;3;1;1;68;1;1;1;1;0;1;0;1;0;1;1;0
26175347;384;1;05/02/2015;23/12/2015;ESCOLA MUNICIPAL FREI TADEU GLASER;;;50110110;AGAMENON MAGALHAES;600;;108;SANTO AMARO;33553576;33553572;EM.TADEUGLASER@EDUCARECIFE.COM;00001;2;0;;;1;0;0;0;0;0;0;0;0;2;0;;;;;;;2;1;0;0;0;0;1;0;0;0;1;0;0;1;0;0;0;0;0;1;1;0;1;0;0;0;0;1;1;0;1;0;0;1;1;0;0;0;0;0;1;0;;;;;0;0;0;4;4;4;3;;;1;;1;1;;;;6;;1;5;1;1;28;1;0;0;1;0;0;0;;0;0;0;0
26119218;019;1;02/02/2015;23/12/2015;ESCOLA MUNICIPAL DA IPUTINGA;;;50731110;CORONEL FERNANDO FURTADO;479;IPUTINGA;698;IPUTINGA;33554097;33554096;EM.DAIPUTINGA@EDUCARECIFE.COM.BR;00002;1;0;;;1;0;0;0;0;0;0;0;0;1;0;;;;;;;2;1;0;0;0;0;1;0;0;0;0;1;0;1;0;0;0;0;0;1;1;1;1;1;1;1;1;1;1;1;1;0;0;1;1;1;1;1;1;1;1;0;;;;;1;1;0;21;21;1;;3;;3;1;4;9;3;;1;71;;23;48;1;1;110;1;1;1;1;0;1;0;1;1;1;0;0
26124173;434;1;05/02/2015;22/12/2015;ESCOLA MUNICIPAL CENTRO DE EDUC INFAN 14 BIS;;;51030230;ALMIRANTE NELSO FERNANDES;SN;;205;BOA VIAGEM;33550418;33550419;;00002;2;0;;;1;0;0;0;0;0;0;0;0;1;0;;;;;;;2;1;0;0;0;0;1;0;0;0;1;0;0;1;0;0;0;0;0;1;1;1;1;0;0;0;1;1;1;0;1;0;0;1;1;1;1;1;0;1;1;0;;;;;1;0;0;6;6;3;2;1;;1;;2;2;3;;;5;;1;4;1;1;30;1;1;0;1;0;0;0;;0;0;0;0
26149788;518;1;05/02/2015;23/12/2015;CRECHE MUNICIPAL CRIANCA FELIZ;;;52131470;VISCONDE SA BANDEIRA;S/N;;540;ALTO JOSE BONIFACIO;33554826;;CMEI.CRIANCAFELIZ@EDUCARECIFE.COM.BR;00001;1;0;;;1;0;0;0;0;0;0;0;0;1;0;;;;;;;2;1;0;0;0;0;1;0;0;0;0;1;0;1;0;0;0;0;0;1;0;0;0;0;0;0;0;1;0;0;0;0;0;1;1;0;0;1;1;1;1;0;;;;;0;1;0;4;4;3;;1;;1;;1;2;;;;4;;1;3;1;1;41;1;0;0;1;0;0;0;;0;0;0;0
26134049;150;1;05/02/2015;23/12/2015;ESCOLA MUNICIPAL NOSSA SENHORA DA PENHA;;;51021550;FRANCISCO DE BARROS BARRETO;109;;205;BOA VIAGEM;33553564;;EM.NOSSASENHORA@EDUCARECIFE.COM.BR;00002;1;0;;;1;0;0;0;0;0;0;0;0;2;0;;;;;;;2;1;0;0;0;0;1;0;0;0;1;0;0;1;0;0;0;0;0;1;0;0;1;0;0;0;0;1;0;1;0;0;0;1;0;0;0;1;0;0;1;0;;;;;0;0;0;6;6;1;;1;;1;;2;2;1;;;8;;2;6;1;1;44;1;0;0;1;0;1;0;1;0;0;0;0
26127873;075;1;05/02/2015;22/12/2015;ESCOLA MUNICIPAL HENFIL;;;50741180;SEIS DE MARCO;10;;736;VARZEA;33554065;32275417;ESCOLA.HENFIL@YAHOO.COM.BR;00002;1;0;;;1;0;0;0;0;0;0;0;0;1;0;;;;;;;2;1;0;0;0;0;1;0;0;0;1;0;0;1;0;0;0;0;0;0;0;1;1;0;1;0;0;1;1;0;0;0;0;1;0;1;1;0;1;1;0;0;;;;;0;0;0;4;4;4;;2;;1;1;2;1;1;;;8;;2;6;1;1;33;1;1;1;1;0;1;0;1;0;1;0;0
26120780;072;1;05/02/2015;23/12/2015;ESCOLA MUNICIPAL PADRE JOSE MATHIAS DELGADO;;;50910390;DOUTOR DEVALDO BORGES;S/N;;868;JARDIM SAO PAULO;33553538;33553542;EM.MATHIASDELGADO@EDUCARECIFE.COM.BR;00002;1;0;;;1;0;0;0;0;0;0;0;0;1;0;;;;;;;2;1;0;0;0;0;1;0;0;0;1;0;0;1;0;0;0;0;0;1;1;1;1;0;0;1;1;1;0;1;0;0;0;1;1;0;0;1;0;1;1;0;;;;;0;0;0;8;8;2;;4;;2;1;2;4;2;;2;10;;3;7;1;1;47;1;1;1;1;0;1;0;1;0;0;0;0
26168073;948;1;05/02/2015;23/12/2015;ESCOLA MUNICIPAL DO BARRO;;;50900395;GUIRAGIBE;117;;876;BARRO;33553584;;EM.DOBARRO@EDUCARECIFE.COM.BR;00002;1;0;;;1;0;0;0;0;0;0;0;0;1;0;;;;;;;2;1;0;0;0;0;1;0;0;0;0;1;0;1;0;0;0;0;0;0;0;1;0;0;0;0;0;1;0;0;0;0;0;1;0;0;0;0;0;0;1;0;;;;;0;0;0;5;5;1;;1;;1;;1;2;1;;;17;;5;12;1;1;25;1;1;1;1;0;0;0;1;0;1;0;0
26128950;099;1;05/02/2015;29/12/2015;ESCOLA MUNICIPAL IRMA TEREZINHA BATISTA - PROJ NOVO VIVER;;;52121030;IGUATU;S/N;;310;CAMPINA DO BARRETO;33553588;34435729;EM.TEREZINHABATISTA@EDUCARECIFE.COM.BR;00001;1;0;;;1;0;0;0;0;0;0;0;0;1;0;;;;;;;2;1;0;0;0;0;1;0;0;0;1;0;0;1;0;0;0;0;0;1;0;1;1;0;0;0;0;1;0;1;0;0;0;1;0;1;0;1;0;1;1;0;;;;;0;0;0;13;13;2;4;2;;1;1;1;6;1;;1;13;;4;9;1;1;38;1;0;0;1;0;0;0;1;0;1;0;0
26170639;967;1;05/02/2015;23/12/2015;ESCOLA MUNICIPAL ASA BRANCA;;;51290610;MARIA ADELAIDE CASTELO BRANCO;55;COHAB;230;IBURA;33556923;;EM.ASABRANCA@EDUCARECIFE.COM.BR;00002;2;0;;;1;0;0;0;0;0;0;0;0;2;0;;;;;;;2;1;0;0;0;0;1;0;0;0;0;1;0;1;0;0;0;0;0;0;0;0;0;0;0;0;1;1;0;0;0;0;1;1;0;0;0;1;0;0;1;0;;;;;0;0;0;6;6;;;1;;2;;1;3;1;;;9;;2;7;1;1;26;1;0;0;1;0;0;0;1;0;0;0;0
26149737;514;1;05/02/2015;29/12/2015;CRECHE MUNICIPAL MARDONIO COELHO;;;52081170;SENADOR MILTON CAMPOS;S/N;;558;VASCO DA GAMA;33553027;34417238;CRM.MARDONIOCOELHO@EDUCARECIFE.COM.BR;00001;1;0;;;1;0;0;0;0;0;0;0;0;1;0;;;;;;;2;1;0;0;0;0;1;0;0;0;1;0;0;1;0;0;0;0;0;1;1;0;0;0;0;0;0;1;0;0;1;1;0;1;1;0;0;1;1;1;1;0;;;;;0;1;0;5;5;1;;1;;1;;1;3;;;;4;;1;3;1;1;54;1;0;0;1;0;0;0;;0;0;0;0
26125994;448;1;05/02/2015;29/12/2015;ESCOLA MUNICIPAL ARQUITETO ALEXANDRE MUNIZ DE OLIVEIRA;;;52091210;ALTO DO VENANCIO;S/N;;418;GUABIRABA;32691627;32600114;EM.ARQALEXANDREMUNIZ@EDUCARECIFE.COM.BR;00001;2;0;;;1;0;0;0;0;0;0;0;0;1;0;;;;;;;2;1;0;0;0;0;1;0;0;0;0;1;0;1;0;0;0;0;0;1;1;0;0;0;0;0;0;1;1;0;0;0;0;1;0;0;0;0;0;1;1;0;;;;;0;0;0;4;4;6;;4;;;;1;2;6;;;14;;4;10;1;0;29;1;0;0;1;0;1;0;1;0;0;0;0
26183269;452;1;05/02/2015;23/12/2015;CRECHE MUNICIPAL MERCIA MARIA BEZERRA COSTA;;;52081550;VEREADOR OTACILIO AZEVEDO;1030;;574;BREJO DE BEBERIBE;33554358;;;00001;2;0;;;1;0;0;0;0;0;0;0;0;3;0;;;;;;;2;1;0;0;0;0;1;0;0;0;1;0;0;1;0;0;0;0;0;1;1;1;1;0;0;0;0;1;0;0;1;0;0;1;1;1;1;1;1;1;1;0;;;;;1;1;0;4;4;;;;;;;2;;;;;11;;3;8;1;1;45;1;0;0;1;0;0;0;;0;0;0;0
26127547;440;1;05/02/2015;23/12/2015;ESCOLA MUNICIPAL DOUTOR SAMUEL GONCALVES;;;50630360;AUSTRO COSTA;227;;663;PRADO;33553453;;EM.SAMUELGONCALVES@EDUCARECIFE.COM.BR;00001;1;0;;;1;0;0;0;0;0;0;0;0;2;0;;;;;;;2;1;0;0;0;0;1;0;0;0;1;0;0;1;0;0;0;0;0;0;1;1;1;0;0;0;0;1;1;0;0;0;0;1;0;1;0;1;0;0;1;0;;;;;0;0;0;5;5;1;;;;;;2;2;4;;;2;;;2;1;1;23;1;0;1;1;0;0;0;1;0;0;0;0
26171740;996;1;05/02/2015;23/12/2015;ESCOLA MUNICIPAL DA GUABIRABA;;;52291140;CASSITERITA;395;A;612;BREJO DA GUABIRABA;33554200;33554201;EMDAGUABIRABA@GMAIL.COM;00001;2;0;;;1;0;0;0;0;0;0;0;0;1;0;;;;;;;2;1;0;0;0;0;1;0;0;0;0;1;0;1;0;0;0;0;0;0;1;1;1;0;0;0;0;1;1;0;0;0;0;1;1;1;0;0;1;1;1;0;;;;;0;0;0;11;11;5;;2;;1;1;3;4;3;;1;3;;;3;1;1;48;1;1;1;1;0;0;0;1;0;0;0;0
26120720;045;1;05/02/2015;23/12/2015;ESCOLA MUNICIPAL DRAOMIRO CHAVES AGUIAR;;;52070240;SANTA ISABEL;655;;434;CASA AMARELA;33554072;;E.M.DRAOMIROCHAVES@GMAIL.COM;00001;1;0;;;1;0;0;0;0;0;0;0;0;1;0;;;;;;;2;1;0;0;0;0;1;0;0;0;1;0;0;1;0;0;0;0;0;1;1;1;1;0;1;0;0;1;1;0;0;0;0;1;1;1;0;1;0;1;1;0;;;;;0;0;0;10;10;3;1;2;;3;1;5;15;1;;2;22;;7;15;1;1;45;1;1;1;1;0;1;0;1;0;0;0;0
26153416;527;1;05/02/2015;23/12/2015;CRECHE MUNICIPAL MENINO JESUS DA BOMBA GRANDE;;;50731020;NOSSA SENHORA DA SAUDE;479;IPUTINGA;680;CORDEIRO;33556911;34461991;CRECHEMENINOJESUS2014@GMAIL.COM;00002;1;0;;;1;0;0;0;0;0;0;0;0;1;0;;;;;;;2;1;0;1;0;0;1;0;0;0;1;0;0;1;0;0;0;0;0;0;1;1;0;0;0;0;0;1;0;0;1;0;0;1;1;0;0;1;1;1;1;0;;;;;0;1;0;4;4;1;;1;;;;1;1;;;;2;;;2;1;1;29;1;0;0;1;0;0;0;;0;0;0;0
26153300;536;1;05/02/2015;23/12/2015;CRECHE MUNICIPAL NOSSA SENHORA AUXILIADORA;;;50761110;DOUTOR ANTONIO CORREIA DE OLIVEIRA;669;;701;TORROES;33554858;33553223;;00002;1;0;;;1;0;0;0;0;0;0;0;0;3;0;;;;;;;2;1;0;0;0;0;1;0;0;0;1;0;0;1;0;0;0;0;0;0;0;1;0;0;0;0;0;1;0;0;0;0;0;1;1;0;0;1;1;1;0;0;;;;;0;1;0;2;2;3;;2;;;;1;2;;;;2;;;2;1;1;29;1;0;0;1;0;0;0;;0;0;0;0
26124513;016;1;03/02/2015;23/12/2015;ESCOLA MUNICIPAL CICERO FRANKLIN CORDEIRO;;;51320410;FELIPE DOS SANTOS;81;UR 05;230;IBURA;33553560;34752756;EM.CICEROFRANKLIN@EDUCARECIFE.COM.BR;00002;1;0;;;1;0;0;0;0;0;0;0;0;1;0;;;;;;;2;0;1;0;0;0;1;0;0;0;1;0;0;1;0;0;0;0;0;1;1;1;1;0;0;0;0;1;1;0;0;0;0;1;0;1;1;1;1;1;1;1;;;;;1;0;0;15;15;2;;1;;1;1;;2;1;;2;9;;2;7;1;1;62;1;0;0;1;0;1;0;1;1;1;0;0
26123495;089;1;05/02/2015;23/12/2015;ESCOLA MUNICIPAL DOUTOR ANTONIO CORREIA;;;50900120;MANOEL SALVADOR;360;;876;BARRO;33553816;;EM.ANTONIOCORREIA@EDUCARECIFE.COM.BR;00002;1;0;;;1;0;0;0;0;0;0;0;0;2;0;;;;;;;2;1;0;0;0;0;1;0;0;0;0;1;0;1;0;0;0;0;0;0;1;1;0;0;0;0;0;1;0;1;0;0;1;1;0;0;0;0;0;0;0;0;;;;;0;0;0;6;6;2;;2;;1;;1;4;1;;2;8;;2;6;1;1;36;1;1;1;1;0;1;0;1;0;1;0;0
26126966;288;1;05/02/2015;23/12/2015;ESCOLA MUNICIPAL PEDRINHO;;;52190050;CORREGO DO ARCANJO;118;;566;NOVA DESCOBERTA;33556857;34420515;EMPEDRINHO@EDUCARECIFE.COM.BR;00001;1;0;;;1;0;0;0;0;0;0;0;0;1;0;;;;;;;2;1;0;0;0;0;1;0;0;0;0;1;0;1;0;0;0;0;0;1;1;1;0;0;0;0;0;1;0;0;0;0;0;1;1;0;0;1;0;0;0;0;;;;;0;0;0;5;5;2;;1;;1;;1;2;1;;2;12;;3;9;1;1;25;1;1;0;1;0;0;0;;0;0;0;0
26164701;354;1;05/02/2015;23/12/2015;ESCOLA MUNICIPAL PARQUE DOS MILAGRES;;;51340080;CANTOR LEANDRO;S/N;;230;IBURA;33556562;;;00002;2;0;;;1;0;0;0;0;0;0;0;0;3;0;;;;;;;2;1;0;0;0;0;1;0;0;0;1;0;0;1;0;0;0;0;0;1;0;1;0;0;1;0;0;1;0;0;0;0;1;1;1;0;1;1;1;1;1;0;;;;;0;0;0;11;11;1;;1;;1;;1;5;;;;2;;;2;1;1;41;1;1;1;1;0;0;0;1;0;0;0;0
26157888;348;1;05/02/2015;23/12/2015;ESCOLA MUNICIPAL PASTOR JOSE MUNGUBA SOBRINHO;;;51250100;SILVA JARDIM;145;;221;JORDAO;33554069;34619785;E.M.PASTORMUNGUBA@HOTMAIL.COM;00002;1;0;;;1;0;0;0;0;0;0;0;0;1;0;;;;;;;2;1;0;0;0;0;1;0;0;0;0;1;0;1;0;0;0;0;0;1;1;1;1;0;0;0;0;1;1;1;0;0;0;1;0;1;0;1;1;1;1;0;;;;;0;0;0;6;6;2;1;1;;1;1;3;2;1;;2;15;;4;11;1;1;39;1;0;1;1;0;1;0;1;0;0;0;0
26122570;092;1;02/02/2015;29/12/2015;ESCOLA MUNICIPAL DOM HELDER CAMARA;;;52021050;MARQUES DO PARANA;320;;124;ESPINHEIRO;33553668;34271291;EM.DOMHELDER@EDUCARECIFE.COM.BR;00001;1;0;;;1;0;0;0;0;0;0;0;0;3;0;;;;;;;2;1;0;0;0;0;1;0;0;0;1;0;0;1;0;0;0;0;0;1;1;1;0;0;1;0;0;1;0;1;0;0;0;1;1;1;0;1;1;0;1;0;;;;;1;0;0;9;9;3;;4;;1;1;3;4;1;;1;6;;1;5;1;1;49;1;1;1;1;0;0;0;1;0;1;0;0
26121913;282;1;05/02/2015;23/12/2015;ESCOLA MUNICIPAL LUTADORES DO BEM;;;50110400;CORONEL VIRGILIO DE MEDEIROS;65;;108;SANTO AMARO;33556318;;EM.LUTADORESDOBEM@EDUCARECIFE.COM;00001;1;0;;;1;0;0;0;0;0;0;0;0;3;0;;;;;;;2;1;0;0;0;0;1;0;0;0;1;0;0;1;0;0;0;0;0;1;1;1;0;0;0;0;0;1;0;1;0;0;0;1;0;1;0;1;0;0;1;0;;;;;0;0;0;7;7;10;;5;1;1;;2;2;1;;1;12;;3;9;1;1;42;1;0;1;1;0;1;0;1;1;0;0;0
26128780;061;1;05/02/2015;23/12/2015;ESCOLA MUNICIPAL COMPOSITOR LEVINO FERREIRA;;;52080040;CORREGO JOSE GRANDE;1440;;434;CASA AMARELA;33554922;;EM.LEVINOFERREIRA@EDUCARECIFE.COM.BR;00001;1;0;;;1;0;0;0;0;0;0;0;0;1;0;;;;;;;2;1;0;0;0;0;1;0;0;0;0;1;0;1;0;0;0;0;0;1;0;0;0;0;0;0;0;1;0;1;0;0;0;1;0;0;0;0;1;0;1;0;;;;;0;0;0;6;6;5;;2;;1;;2;1;3;;1;2;;;2;1;1;21;1;0;1;1;0;0;0;1;0;0;0;0
26121468;066;1;17/02/2015;30/12/2015;ESCOLA MUNICIPAL PEDRO AUGUSTO;;;50070310;BARAO DE SAO BORJA;279;;116;SOLEDADE;33554166;33554168;CM.PEDROAUGUSTO@EDUCARECIFE.COM.BR;00001;1;0;;;1;0;0;0;0;0;0;0;0;1;0;;;;;;;2;1;0;0;0;0;1;0;0;0;1;0;0;1;0;0;0;0;0;1;1;1;1;1;0;1;1;1;1;0;0;0;0;1;0;1;0;1;1;1;1;1;;;;;1;0;0;20;20;1;;1;;1;2;1;1;3;1;1;3;;;3;1;1;56;1;0;0;1;0;0;0;1;0;1;0;0
26119129;116;1;05/02/2015;30/12/2015;ESCOLA MUNICIPAL DE DOIS RIOS;;;51300260;IRMA MARIA EVANGELISTA;83;DOIS RIOS;230;IBURA;33553600;34753973;EM.DOISRIOS@EDUCARECIFE.COM.BR;00002;1;0;;;1;0;0;0;0;0;0;0;0;1;0;;;;;;;2;1;0;0;0;0;1;0;0;0;1;0;0;1;0;0;0;0;0;1;0;1;1;0;0;0;0;1;1;0;0;0;0;1;1;1;0;1;1;0;1;0;;;;;0;0;0;7;7;3;;2;;1;1;1;6;1;;1;8;;2;6;1;1;26;1;0;0;1;0;1;0;1;0;0;0;0
26121662;405;1;05/02/2015;23/02/2015;ESCOLA MUNICIPAL PADRE ANTONIO HENRIQUE ANEXO I;;;50070200;PAISSANDU;112;;86;BOA VISTA;33553836;;;00001;2;0;;;0;1;0;0;0;0;0;0;0;;;;;;;;;2;1;0;0;0;0;1;0;0;0;1;0;0;1;0;0;0;0;0;0;0;0;1;0;0;0;0;1;1;0;1;0;0;1;0;0;0;1;1;1;0;0;;;;;1;0;0;6;6;;;;;;;;;;;;10;;3;7;0;;26;1;0;1;1;0;0;0;1;0;0;0;0
26134057;101;1;05/02/2015;23/12/2015;ESCOLA MUNICIPAL MANOEL ROLIM;;;50920120;PAJUSSARA;57;;892;TEJIPIO;33554966;;EM.MANUELROLIM@EDUCARECIFE.COM.BR;00002;1;0;;;1;0;0;0;0;0;0;0;0;1;0;;;;;;;2;1;0;0;0;0;1;0;0;0;0;1;0;1;0;0;0;0;0;1;0;0;1;0;0;0;0;1;0;1;0;0;0;1;1;1;0;0;0;1;1;0;;;;;0;0;0;11;11;1;;1;;1;;;2;1;;1;2;;;2;1;1;44;1;0;1;1;0;1;0;1;0;1;0;0
26153262;551;1;05/02/2015;23/12/2015;CMEI NOSSO SENHOR JESUS DO BONFIM;;;50865180;TEIXEIRA DE MELO;56;;833;ESTANCIA;33553812;;CMEIJESUSDOBONFIM@HOTMAIL.COM;00002;1;0;;;1;0;0;0;0;0;0;0;0;1;0;;;;;;;2;1;0;0;0;0;1;0;0;0;1;0;0;1;0;0;0;0;0;1;1;0;0;0;0;0;0;1;0;0;1;1;0;1;1;0;0;1;1;1;1;0;;;;;0;0;0;5;5;1;1;1;;1;;1;1;;;1;7;;2;5;1;1;49;1;0;0;1;0;0;0;;0;0;0;0
26149931;501;1;05/02/2015;23/12/2015;CMEI MAEZINHA DO COQUE;;;50080730;GUAPIRAMA;S/N;;43;ILHA JOANA BEZERRA;33556993;;CRM.MAEZINHADOCQUE@EDUCARECIFE.COM.BR;00002;1;0;;;1;0;0;0;0;0;0;0;0;1;0;;;;;;;2;1;0;1;0;0;1;0;0;0;0;1;0;1;0;0;0;0;0;1;1;1;0;0;0;0;0;1;0;0;1;1;0;1;1;1;1;1;1;1;1;0;;;;;1;1;0;5;5;1;;2;;1;;;5;1;;;2;;;2;1;1;63;1;0;0;1;0;0;0;;0;0;0;0
26126770;060;1;05/02/2015;23/12/2015;ESCOLA MUNICIPAL JOSEFINA MARINHO;;;52080040;CORREGO JOSE GRANDE;1316;;523;ALTO JOSE DO PINHO;33554962;34418149;EM.JOSEFINAMARINHO@EDUCARECIFE.COM.BR;00001;1;0;;;1;0;0;0;0;0;0;0;0;3;0;;;;;;;2;1;0;0;0;0;1;0;0;0;1;0;0;1;0;0;0;0;0;1;0;0;0;0;0;0;0;1;0;0;0;0;0;1;0;0;0;0;0;1;0;0;;;;;0;0;0;4;4;4;;4;;2;;2;4;2;;1;15;;4;11;1;1;23;1;1;1;1;0;1;0;1;0;1;0;0
26153556;333;1;05/02/2015;23/12/2015;ESCOLA MUNICIPAL MARLUCE SANTIAGO DA SILVA;;;52170010;CONCRIZ;S/N;;400;PASSARINHO;33554974;34495188;MSANTIAGOSILVA@HOTMAIL.COM;00001;1;0;;;1;0;0;0;0;0;0;0;0;1;0;;;;;;;2;1;0;0;0;0;1;0;0;0;1;0;0;1;0;0;0;0;0;1;1;1;0;0;1;0;0;1;0;1;0;0;0;1;0;1;1;1;0;0;1;0;;;;;0;0;0;9;9;2;;3;;2;1;1;4;1;1;5;21;;6;15;1;1;45;1;1;1;1;0;0;0;1;0;1;1;0
26126370;113;1;05/02/2015;23/12/2015;ESCOLA MUNICIPAL ALTO DA GUABIRABA;;;52291230;PRESIDENTE COSTA E SILVA;S/N;;612;BREJO DA GUABIRABA;33553046;33554037;PEREIRASANTOS2013@OUTLOOK.COM;00001;1;0;;;1;0;0;0;0;0;0;0;0;1;0;;;;;;;2;0;0;1;0;0;1;0;0;0;0;1;0;1;0;0;0;0;0;1;1;1;0;0;0;0;0;1;1;0;0;0;0;1;0;0;0;1;1;1;1;0;;;;;0;0;0;9;9;4;;4;;1;2;1;4;;;1;16;;5;11;1;1;34;1;0;0;1;0;0;0;1;0;0;0;0
26124955;447;1;05/02/2015;23/12/2015;ESCOLA MUNICIPAL ESCRITOR JOSUE DE CASTRO;;;51010420;CARAPEBA;S/N;;256;BRASILIA TEIMOSA;33554241;31813013;ESCRIJCASTRO@OUTLOOK.COM;00002;1;0;;;1;0;0;0;0;0;0;0;0;1;0;;;;;;;2;1;0;0;0;0;1;0;0;0;0;1;0;1;0;0;0;0;0;1;0;1;1;0;0;0;0;1;1;0;0;0;0;1;0;0;0;1;1;1;1;0;;;;;1;1;0;4;4;1;;1;;2;;5;5;8;1;1;23;;7;16;1;0;20;1;1;0;1;0;0;0;1;0;0;0;0
26123380;962;1;05/02/2015;23/12/2015;ESCOLA MUNICIPAL ALTO DA BELA VISTA;;;50791180;ALTO DA BELA VISTA;338;;914;TOTO;33550120;;EM.ALTODABELAVISTA@EDUCARECIFE.COM.BR;00002;2;0;;;0;0;0;0;0;0;0;0;1;;;;;;;;;2;1;0;1;0;0;1;0;0;0;0;1;0;1;0;0;0;0;0;0;0;1;1;0;0;0;0;1;0;0;0;0;0;1;0;0;0;1;0;1;1;0;;;;;0;0;0;7;7;1;;1;;1;;3;4;1;;2;17;;5;12;1;1;32;1;0;1;1;0;0;0;1;0;1;0;0
26157551;530;1;03/02/2015;29/12/2015;CMEI NOVO PINA-;;;51011140;EURICO VITRUVIO;S/N;;248;PINA;33553221;34678584;CMEI.NOVOPINA@EDUCARECIFE.COM.BR;00002;1;0;;;1;0;0;0;0;0;0;0;0;1;0;;;;;;;2;1;0;0;0;0;1;0;0;0;1;0;0;1;0;0;0;0;0;0;1;1;0;0;0;0;0;1;0;0;1;1;0;1;1;0;0;1;0;1;1;1;;;;;1;1;0;6;6;2;;1;;1;;1;1;;;;1;;;1;1;1;63;1;0;0;1;0;0;0;;0;0;0;0
26128772;044;1;05/02/2015;23/12/2015;ESCOLA MUNICIPAL ANTONIO TIBURCIO;;;52211000;TAMBOARA;356;;949;ALTO SANTA TEREZINHA;33556873;34433798;ESCANTONIOTIBURCIO@HOTMAIL.COM;00001;1;0;;;1;0;0;0;0;0;0;0;0;2;0;;;;;;;2;1;0;0;0;0;1;0;0;0;0;1;0;1;0;0;0;0;0;1;1;1;1;0;0;0;0;1;1;0;0;0;0;1;1;0;0;0;1;0;1;0;;;;;0;0;0;5;5;6;5;5;;2;2;2;6;2;;1;8;;2;6;1;1;33;1;0;1;1;0;0;0;1;0;1;0;0
26183285;451;1;05/02/2015;30/12/2015;CRECHE MUNICIPAL DONA CARMELITA MUNIZ DE ARAUJO;;;52490005;DA MUMBECA;100;;418;GUABIRABA;;;;00001;2;0;;;1;0;0;0;0;0;0;0;0;1;0;;;;;;;2;1;0;0;0;0;1;0;0;0;1;0;0;0;0;1;0;0;0;1;1;1;1;0;0;0;0;1;0;0;1;0;1;1;1;0;1;1;1;1;1;0;;;;;1;1;0;10;10;1;;1;;;;1;;;;;8;;2;6;1;1;42;1;0;0;1;0;0;0;;0;0;0;0
26125854;406;1;05/02/2015;23/12/2015;ESCOLA MUNICIPAL ALTO JARDIM PROGRESSO - ANEXO I;;;52140100;SOBRAL PINTO;249;;566;NOVA DESCOBERTA;33553430;;;00001;1;0;;;1;0;0;0;0;0;0;0;0;1;0;;;;;;;2;0;0;0;0;1;1;0;0;0;0;1;0;1;0;0;0;0;0;0;0;0;0;0;0;0;0;0;0;0;0;0;0;1;0;0;0;0;0;0;0;0;;;;;0;0;0;2;2;1;;;;;;;;;;;;;;;;;9;1;1;1;1;0;0;0;1;0;0;0;0
26122898;256;1;05/02/2015;23/12/2015;ESCOLA MUNICIPAL DO COQUE;;;50080320;MIRANDOPOLIS;35;COQUE;43;ILHA JOANA BEZERRA;33553636;34480425;EM.DOCOQUE@EDUCARECIFE.COM.BR;00002;1;0;;;1;0;0;0;0;0;0;0;1;1;0;;;;;;;2;1;0;0;0;0;1;0;0;0;1;0;0;1;0;0;0;0;0;1;1;1;1;1;1;0;0;1;1;1;0;0;0;1;1;0;0;1;1;1;1;0;;;;;0;0;0;14;14;3;;2;1;1;;5;10;2;;1;23;;7;16;1;1;78;1;1;1;1;0;0;0;1;0;0;0;0
26157578;547;1;05/02/2015;23/12/2015;CRECHE MUNICIPAL JOAO EUGENIO;;;50670350;GASPAR PEREZ;3895;;698;IPUTINGA;33553948;;CMRJOAOEUGENIO@GMAIL.COM;00002;1;0;;;1;0;0;0;0;0;0;0;0;1;0;;;;;;;2;1;0;0;0;0;1;0;0;0;1;0;0;1;0;0;0;0;0;1;1;0;0;0;0;0;0;1;0;0;1;0;0;1;1;0;0;1;1;1;1;0;;;;;0;1;0;6;6;1;;1;;1;;1;;;;;7;;2;5;1;1;41;1;0;0;1;0;0;0;;0;0;0;0
26175363;382;1;05/02/2015;29/12/2015;ESCOLA MUNICIPAL CECILIA MEIRELLES;;;52090300;MATER LINCH;189;;582;MACAXEIRA;33554914;;EM.CECILIAMEIRELES@EDUCARECIFE.COM.BR;00001;2;0;;;1;0;0;0;0;0;0;0;0;1;0;;;;;;;2;1;0;0;0;0;1;0;0;0;1;0;0;1;0;0;0;0;0;1;1;0;0;0;0;0;1;1;0;0;1;0;0;1;1;0;0;1;0;0;1;0;;;;;1;0;0;14;14;1;;1;;1;1;1;2;1;;;9;;2;7;1;1;23;1;0;0;1;0;0;0;1;0;0;0;0
26149370;251;1;05/02/2015;23/12/2015;ESCOLA MUNICIPAL ALTO DO REFUGIO - IVAN NEVES;;;52191100;ALTO DO REFUGIO;250;;574;BREJO DE BEBERIBE;33554468;33556823;EM.IVANNEVES@EDUCARECIFE.COM.BR;00001;1;0;;;0;0;0;0;0;0;0;0;1;;;;;;;;;2;1;0;0;0;0;1;0;0;0;0;1;0;1;0;0;0;0;0;1;0;1;1;0;0;0;0;1;0;0;0;0;0;1;0;0;0;1;0;1;1;0;;;;;0;0;0;6;6;1;1;1;;1;;;;1;;1;2;;;2;1;1;34;1;0;0;1;0;1;0;1;0;0;0;0
26126362;058;1;05/02/2015;23/12/2015;ESCOLA MUNICIPAL CORREGO DA BICA;;;52390030;CORREGO DA BICA;SN;;400;PASSARINHO;33554456;;EM.CORREGODABICA@EDUCARECIFE.COM.BR;00001;1;0;;;1;0;0;0;0;0;0;0;0;1;0;;;;;;;2;1;0;0;0;0;1;0;0;0;1;0;0;1;0;0;0;0;0;1;1;1;1;0;0;0;0;1;1;0;0;0;0;1;0;0;0;0;0;0;1;0;;;;;0;0;0;6;6;1;;1;1;1;;;3;2;;;12;;3;9;1;1;38;1;1;1;1;0;1;0;1;0;1;0;0
26126281;062;1;05/02/2015;23/12/2015;ESCOLA MUNICIPAL MARGARIDA DE SIQUEIRA PESSOA;;;52080040;CORREGO JOSE GRANDE;1307;;434;CASA AMARELA;33554970;;MARGARIDASIQUEIRAPESSOA@HOTMAIL.COM;00001;1;0;;;1;0;0;0;0;0;0;0;0;1;0;;;;;;;2;1;0;0;0;0;1;0;0;0;1;0;0;1;0;0;0;0;0;1;1;1;0;0;0;0;0;1;0;0;0;0;0;1;0;1;0;1;1;0;1;0;;;;;0;0;0;6;6;1;;2;;2;;2;6;1;;2;2;;;2;1;1;32;1;1;0;1;0;0;0;1;0;0;0;0
26126494;051;1;05/02/2015;23/12/2015;ESCOLA MUNICIPAL POETA JOAQUIM CARDOSO;;;52091220;CORREGO DA AREIA;950;;582;MACAXEIRA;33554541;33554540;EMPOETAJC@GMAIL.COM;00001;1;0;;;1;0;0;0;0;0;0;0;0;1;0;;;;;;;2;1;0;0;0;0;1;0;0;0;1;0;0;1;0;0;0;0;0;1;1;1;1;0;0;0;0;1;1;0;0;0;0;1;0;0;1;1;1;0;1;0;;;;;0;0;0;12;12;3;;2;1;2;;2;3;2;1;2;15;;4;11;1;1;60;1;1;1;1;0;1;0;1;0;1;0;0
26126826;042;1;05/02/2015;23/12/2015;ESCOLA MUNICIPAL MANOEL ANTONIO DE FREITAS;;;52191390;SAO JERONIMO;147;;949;ALTO SANTA TEREZINHA;33556880;;EM.MANOELANTONIO@EDUCARECIFE.COM.BR;00001;1;0;;;1;0;0;0;0;0;0;0;0;1;0;;;;;;;2;1;0;0;0;0;1;0;0;0;0;1;0;1;0;0;0;0;0;1;1;0;0;0;0;0;0;1;0;0;0;0;0;1;0;0;0;1;0;0;1;0;;;;;0;0;0;6;6;3;;5;1;1;1;4;12;2;1;3;32;;10;22;1;1;30;1;0;0;1;0;0;0;1;0;0;0;0
26127784;297;1;05/02/2015;23/12/2015;ESCOLA MUNICIPAL JOAO PESSOA GUERRA;;;50741490;ISAAC BURIL;107;;736;VARZEA;33553980;33553981;JPESSOAGUERRA@GAMIL.COM;00002;1;0;;;1;0;0;0;0;0;0;0;0;3;0;;;;;;;2;1;0;0;0;0;1;0;0;0;1;0;0;1;0;0;0;0;0;1;1;0;1;0;0;0;0;1;0;1;0;0;0;1;1;1;0;1;1;1;1;0;;;;;0;0;0;6;6;1;;1;;1;;1;4;1;;1;10;;3;7;1;1;40;1;1;0;1;0;1;0;1;0;0;0;0
26145227;071;1;05/02/2015;23/12/2015;ESCOLA MUNICIPAL HISTORIADOR FLAVIO GUERRA;;;52390040;ALTO DA TELHA;320;;400;PASSARINHO;33554504;;DRIKA.MESQUITA@YAHOO.COM.BR;00001;1;0;;;1;0;0;0;0;0;0;0;0;1;0;;;;;;;2;1;0;0;0;0;1;0;0;0;0;1;0;1;0;0;0;0;0;1;1;1;1;0;0;0;0;1;0;0;0;0;0;1;1;0;0;1;0;1;1;0;;;;;0;0;0;16;16;2;;2;;1;;2;10;1;;1;2;;;2;1;0;96;1;0;1;1;0;0;0;1;0;0;0;0
26185180;439;1;05/02/2015;23/12/2015;ESCOLA MUNICIPAL CRECHE ESCOLA RECIFE GOV MIGUEL ARRAES;;;50860080;DOUTOR GIL RODRIGUES DOS SANTOS;10;;833;ESTANCIA;33554104;;TEREZA.JACINTA@EDUCACAORECIFE.COM.BR;00002;1;0;;;0;1;0;0;0;0;0;0;0;;;;;;;;;2;1;0;0;0;0;1;0;0;0;1;0;0;1;0;0;0;0;0;1;1;1;0;0;1;0;0;1;0;0;1;0;0;1;0;0;0;1;0;0;1;0;;;;;0;0;0;8;8;2;;2;;;;;2;1;;1;15;;4;11;1;0;30;1;0;0;1;0;0;0;;0;0;0;0
26123088;291;1;05/02/2015;23/12/2015;ESCOLA MUNICIPAL EDITE BRAGA;;;50770080;NICOLAU PEREIRA;85;;779;AFOGADOS;33553692;34286990;EM.EDITEBRAGA@EDUCARECIFE.COM.BR;00002;1;0;;;1;0;0;0;0;0;0;0;0;1;0;;;;;;;2;1;0;0;0;0;1;0;0;0;1;0;0;1;0;0;0;0;0;1;0;0;1;0;0;0;1;1;1;0;0;0;0;1;1;1;1;0;0;0;0;0;;;;;0;0;0;7;7;3;;3;;3;;2;3;2;;2;12;;3;9;1;1;56;1;1;1;1;0;1;0;1;0;1;0;0
26120674;114;1;05/02/2015;23/12/2015;ESCOLA MUNICIPAL ENGENHEIRO UMBERTO GONDIM;;;51010680;DAS OFICINAS;13;;256;BRASILIA TEIMOSA;33554101;33554101;ESCUMBERTO@YAHOO.COM.BR;00002;1;0;;;1;0;0;0;0;0;0;0;0;3;0;;;;;;;2;1;0;0;0;0;1;0;0;0;1;0;0;1;0;0;0;0;0;0;1;1;1;0;0;0;0;1;1;0;0;0;0;1;1;1;0;1;1;0;1;0;;;;;0;0;0;10;10;1;;;;1;1;2;3;1;;2;19;;6;13;1;1;48;1;1;1;1;0;0;0;1;0;1;0;0
26119927;015;1;05/02/2015;26/12/2015;ESCOLA MUNICIPAL MUNICIPAL LUIZ VAZ DE CAMOES;;;51320080;ERVAL;S/N;VL M LUCIA;213;IPSEP;33553941;34717548;LUIZVAZDECAMOES.ESCOLA@GMAIL.COM;00002;1;0;;;1;0;0;0;0;0;0;0;0;1;0;;;;;;;2;1;0;0;0;0;1;0;0;0;1;0;0;1;0;0;0;0;0;1;1;1;1;0;1;1;1;1;1;0;0;0;0;1;0;1;1;1;0;1;1;0;;;;;0;0;0;10;10;3;;1;1;2;2;2;2;2;1;3;13;;4;9;1;1;67;1;0;1;1;0;1;0;1;1;1;0;0
26166607;936;1;05/02/2015;23/12/2015;ESCOLA MUNICIPAL DE BEBERIBE;;;52131542;MELANIO DE BARROS CORREIA;25;;370;BEBERIBE;33553652;;LEDARAUJO.123@HOTMAIL.COM;00001;2;0;;;1;0;0;0;0;0;0;0;0;1;0;;;;;;;2;1;0;0;0;0;1;0;0;0;0;1;0;1;0;0;0;0;0;0;0;1;1;0;1;0;0;1;0;0;0;0;0;1;0;1;0;1;0;0;0;0;;;;;0;0;0;4;4;1;;;;1;;1;1;2;;;7;;2;5;1;1;34;1;1;0;1;0;0;0;1;0;0;0;0
26128888;176;1;05/02/2015;23/12/2015;ESCOLA MUNICIPAL DEUS E AMOR;;;52111430;LADEIRA DE PEDRA;395;;337;AGUA FRIA;33554216;;EM.DEUSEAMOR@EDUCARECIFE.COM.BR;00001;1;0;;;1;0;0;0;0;0;0;0;0;3;0;;;;;;;2;1;0;0;0;0;1;0;0;0;0;1;0;1;0;0;0;0;0;0;0;1;1;0;0;0;0;1;0;1;0;0;0;1;0;1;0;0;0;0;1;0;;;;;0;0;0;7;7;3;;1;;1;1;2;1;;;;22;;7;15;1;1;42;1;0;0;1;0;1;0;1;0;1;0;0
26212200;400;1;05/02/2015;23/12/2015;ESCOLA MUNICIPAL COMPOSITOR CAPIBA;;;52030250;PROFESSOR OTHON PARAISO;375;;272;TORREAO;33553768;;EMCCAPIBA@GMAIL.COM;00001;2;0;;;1;0;0;0;0;0;0;0;0;2;0;;;;;;;2;1;0;0;0;0;1;0;0;0;1;0;0;1;0;0;0;0;0;1;1;0;1;0;1;0;0;1;0;1;0;0;0;1;0;1;1;1;0;1;1;0;;;;;0;0;0;4;4;1;;1;;1;;2;4;1;;2;24;;7;17;1;1;34;1;1;1;1;0;0;0;1;0;0;0;0
26170671;956;1;06/02/2015;23/12/2015;ESCOLA MUNICIPAL MAESTRO NELSON FERREIRA;;;51240230;AVELINO CHAVES;176;;230;IBURA;33554524;33554525;MAESTRONELSONFERREIRA66@YAHOO.COM;00002;2;0;;;1;0;0;0;0;0;0;0;0;1;0;;;;;;;2;0;0;1;0;0;1;0;0;0;1;0;0;1;0;0;0;0;0;0;1;1;1;0;0;0;0;1;0;1;0;0;0;1;0;0;0;1;0;1;0;0;;;;;0;0;0;3;3;1;;1;;;;1;1;1;;;11;;3;8;1;1;26;1;1;1;1;0;0;0;1;0;0;0;0
26175398;380;1;05/02/2015;29/12/2015;ESCOLA MUNICIPAL MERCIA DE ALBUQUERQUE FERREIRA;;;50750230;TABAIARES;182;;760;ILHA DO RETIRO;33554076;33554077;EM.MERCIADEALBUQUERQUE@EDUCARECIFE.COM.BR;00002;2;0;;;1;0;0;0;0;0;0;0;0;1;0;;;;;;;2;1;0;0;0;0;1;0;0;0;1;0;0;1;0;0;0;0;0;1;1;1;1;0;0;0;0;1;1;0;0;0;0;1;0;0;1;1;0;1;1;0;;;;;0;0;0;6;6;1;;;;1;1;1;12;1;;2;13;;4;9;1;1;31;1;1;1;1;0;0;0;1;0;0;0;0
26147300;312;1;05/02/2015;23/12/2015;ESCOLA MUNICIPAL NOSSA SENHORA DO PILAR;;;50030150;ALFREDO LISBOA;S/N;;19;RECIFE;33554001;86121949;EMNSP@HOTMAIL.COM;00002;1;0;;;1;0;0;0;0;0;0;0;0;1;0;;;;;;;2;1;0;0;0;0;1;0;0;0;0;1;0;1;0;0;0;0;0;1;1;1;0;0;1;0;1;1;1;0;1;0;0;1;1;1;1;1;1;0;1;1;;;;;0;0;0;8;8;3;;3;;1;;;10;2;;1;3;;;3;1;1;38;1;1;1;1;0;1;0;1;0;1;0;0
26149370;311;1;03/02/2015;31/12/2015;ESCOLA MUNICIPAL ALTO DO REFUGIO - IVAN NEVES - ANEXO I;;;52191100;ALTO DO REFUGIO;255;;574;BREJO DE BEBERIBE;33556823;;EM.IVANNEVES@EDUCARECIFE.COM.BR;00001;1;0;;;1;0;0;0;0;0;0;0;0;2;0;;;;;;;2;1;0;0;0;0;1;0;0;0;1;0;0;1;0;0;0;0;0;0;0;0;1;0;0;0;0;0;0;0;0;0;0;1;0;0;0;0;0;0;0;0;;;;;0;0;0;3;3;;;1;;;;;;;;;;;;;;;14;1;0;0;1;0;0;0;1;0;0;0;0
26155869;309;1;05/02/2015;23/12/2015;ESCOLA MUNICIPAL ENGENHEIRO HENOCH COUTINHO DE MELO;;;51010680;DAS OFICINAS;12;;256;BRASILIA TEIMOSA;33556847;33271194;EM.HENOCKCOUTINHO@EDUCARECIFE.COM.BR;00002;1;0;;;1;0;0;0;0;0;0;0;0;1;0;;;;;;;2;1;0;0;0;0;1;0;0;0;0;1;0;1;0;0;0;0;0;1;1;0;1;0;1;0;0;1;1;0;1;0;0;1;0;1;1;1;0;1;1;0;;;;;0;0;0;6;6;3;;2;;1;2;2;5;2;;5;17;;5;12;1;1;41;1;1;0;1;0;1;0;1;1;1;0;0
26125854;115;1;05/02/2015;23/12/2015;ESCOLA MUNICIPAL ALTO JARDIM PROGRESSO;;;52190100;ALTO JARDIM PROGRESSO;300;;566;NOVA DESCOBERTA;33553430;;ESCOLA.ALTOJARDIMPROGRESSO@YAHOO.COM.BR;00001;1;0;;;1;0;0;0;0;0;0;0;0;1;0;;;;;;;2;1;0;0;0;0;1;0;0;0;0;1;0;1;0;0;0;0;0;1;1;1;1;0;1;0;0;1;1;0;0;0;0;1;0;0;0;0;0;1;0;0;;;;;0;0;0;10;10;12;;11;;1;1;3;12;1;;3;5;;1;4;1;1;43;1;1;1;1;0;0;0;1;0;0;0;0
26124610;141;1;05/02/2015;23/12/2015;ESCOLA MUNICIPAL FUTURO FELIZ;;;51330200;IBIRAJUBA;440;;230;IBURA;33554942;;EMFUTUROFELIZ2010@GMAIL.COM;00002;1;0;;;1;0;0;0;0;0;0;0;0;1;0;;;;;;;2;1;0;0;0;0;1;0;0;0;1;0;0;1;0;0;0;0;0;0;1;1;0;0;0;0;0;1;0;1;0;0;0;1;0;1;1;1;1;1;1;0;;;;;0;0;0;6;6;2;;2;;1;;2;5;2;;2;15;;4;11;1;1;25;1;0;1;1;0;0;0;1;0;0;0;0
26133622;206;1;05/02/2015;23/12/2015;ESCOLA MUNICIPAL NOVA DESCOBERTA;;;52390000;JORNALISTA WALDETE AGRA;100;;400;PASSARINHO;32678163;33553612;ESCOLANOVADESCOBERTA@HOTMAIL.COM;00001;1;0;;;1;0;0;0;0;0;0;0;0;1;0;;;;;;;2;1;0;0;0;0;1;0;0;0;1;0;0;1;0;0;0;0;0;1;1;0;1;0;0;0;0;1;0;0;0;0;0;1;1;0;0;1;1;1;1;0;;;;;0;0;0;10;10;6;5;4;;2;2;2;6;1;;1;20;;6;14;1;1;59;1;0;1;1;0;1;0;1;0;1;0;0
26117576;014;1;05/02/2015;23/12/2015;ESCOLA MUNICIPAL ANTONIO FARIAS FILHO;;;50761350;VINTE E UM DE ABRIL;S/N;;817;SAN MARTIN;33553166;33554902;EM.ANTONIOFARIAS@EDUCARECIFE.COM.BR;00002;1;0;;;1;0;0;0;0;0;0;0;0;1;0;;;;;;;2;1;0;0;0;0;1;0;0;0;1;1;0;1;0;0;0;0;0;1;1;1;1;0;1;1;1;1;1;0;0;0;0;1;0;1;0;0;1;1;1;0;;;;;0;0;0;16;16;2;;2;;;1;1;;1;;1;4;;1;3;1;1;83;1;1;1;1;0;1;0;1;1;1;0;0
26127083;068;1;05/02/2015;23/12/2015;ESCOLA MUNICIPAL DOS TORROES;;;50761110;DOUTOR ANTONIO CORREIA DE OLIVEIRA;110;;701;TORROES;33556350;;EM.DOSTORROES@EDUCARECIFE.COM.BR;00002;1;0;;;1;0;0;0;0;0;0;0;0;2;0;;;;;;;2;1;0;0;0;0;1;0;0;0;0;1;0;1;0;0;0;0;0;0;1;1;0;0;0;0;0;1;0;0;0;0;0;1;0;0;0;1;1;0;1;0;;;;;0;0;0;4;4;4;;2;;1;;1;5;1;;1;7;;2;5;1;1;20;1;0;1;1;0;0;0;1;0;0;0;0
26184648;454;1;05/02/2015;29/12/2015;CRECHE MUNICIPAL DO IRAQUE;;;50771630;HAVAI;S/N;;833;ESTANCIA;33553387;;CMEIRAQUE@HOTMAIL.COM;00002;2;0;;;1;0;0;0;0;0;0;0;0;1;0;;;;;;;2;1;0;0;0;0;1;0;0;0;1;0;0;1;0;0;0;0;0;1;1;1;1;0;0;0;0;1;0;1;0;1;0;1;1;1;1;1;1;1;1;0;;;;;0;1;0;5;5;2;;;;;;1;;;;;7;;2;5;1;1;53;1;1;0;1;0;0;0;;0;0;0;0
26164361;372;1;05/02/2015;23/12/2015;ESCOLA MUNICIPAL JOSE MUCIO MONTEIRO;;;51320540;JOAO RIO BRANCO DE LIMA;125;UR-12;230;IBURA;33553609;34770203;EM.JOSEMUCIO@EDUCARECIFE.COM.BR;00002;1;0;;;1;0;0;0;0;0;0;0;0;1;0;;;;;;;2;1;0;0;0;0;1;0;0;0;1;0;0;1;0;0;0;0;0;1;1;1;1;0;0;0;0;1;0;1;0;0;0;1;0;0;0;1;1;0;1;0;;;;;0;0;0;8;8;4;;1;;2;;1;6;2;;1;;;;;;;42;1;1;1;1;0;1;0;1;0;1;0;0
26124114;082;1;06/02/2015;26/12/2015;ESCOLA MUNICIPAL LAGOA ENCANTADA;;;51280410;DOUTOR BENIGNO JORDAO DE VASCONCELOS;S/N;LAGOA ENC.;230;IBURA;33556315;34755273;EMLE.EMLE@YAHOO.COM.BR;00002;1;0;;;1;0;0;0;0;0;0;0;0;1;0;;;;;;;2;1;0;0;0;0;1;0;0;0;1;0;0;1;0;0;0;0;0;1;0;1;0;0;0;0;0;1;1;0;0;0;0;1;0;1;1;1;0;1;1;0;;;;;0;0;0;5;5;2;;2;;1;1;1;2;2;;2;8;;2;6;1;1;24;1;1;1;1;0;1;0;1;0;0;0;0
26177978;395;1;05/02/2014;29/12/2014;ESCOLA MUNICIPAL NOVA MORADA - ANEXO I;;;50980685;ELIANE FRAGOSO DO NASCIMENTO;24;;736;VARZEA;33553546;32731495;EM_NOVAMORADA@YAHOO.COM.BR;00002;1;0;;;1;0;0;0;0;0;0;0;0;2;0;;;;;;;2;1;0;0;0;0;1;0;0;0;1;0;0;1;0;0;0;0;0;1;0;1;1;0;0;0;0;1;1;0;0;0;0;1;1;0;0;1;1;1;1;0;;;;;0;0;0;4;4;2;;2;;1;;1;1;;;1;8;;2;6;1;1;55;1;0;2;1;;;;1;0;1;1;0
26132249;106;1;05/02/2015;23/12/2015;ESCOLA MUNICIPAL PINTOR LULA CARDOSO AYRES;;;51250350;DR ALVARO FERRAZ;594;QUADRA P;221;JORDAO;33556346;;PINTORLULA@HOTMAIL.COM;00002;1;0;;;1;0;0;0;0;0;0;0;0;1;0;;;;;;;2;1;0;0;0;0;1;0;0;0;1;0;0;1;0;0;0;0;0;1;0;0;1;0;0;0;0;1;0;1;0;0;0;1;0;1;0;0;0;0;0;0;;;;;0;0;0;10;10;2;;2;;1;1;1;4;2;;1;4;;1;3;1;1;39;1;0;1;1;0;0;0;1;0;1;1;0
26134010;069;1;05/02/2015;23/12/2015;ESCOLA MUNICIPAL INES SOARES DE LIMA;;;51150380;14 DE NOVEMBRO;S/N;;264;IMBIRIBEIRA;33554044;33553772;EMISL2008@YAHOO.COM.BR;00002;1;0;;;1;0;0;0;0;0;0;0;0;1;0;;;;;;;2;1;0;0;0;0;1;0;0;0;1;0;0;1;0;0;0;0;0;1;0;1;0;0;0;0;0;1;1;0;0;0;0;1;0;1;0;1;0;1;1;0;;;;;0;0;0;6;6;5;;4;;2;;3;7;2;;2;9;;2;7;1;1;43;1;0;1;1;0;1;0;1;0;1;0;0
26153270;545;1;05/02/2015;29/12/2015;CMEI JESUS DE NAZARE;;;51260530;ANGATUBA;S/N;;221;JORDAO;33556974;;CRMJESUSDENAZARE@EDUCARECIFE.COM.BR;00002;1;0;;;1;0;0;0;0;0;0;0;0;1;0;;;;;;;2;1;0;0;0;0;1;0;0;0;1;0;0;1;0;0;0;0;0;1;1;1;0;0;0;0;0;1;0;0;1;1;0;1;1;1;0;1;1;1;1;0;;;;;1;1;0;5;5;1;;3;;1;;1;3;;;;6;;1;5;1;1;26;1;0;0;1;0;0;0;;0;0;0;0
26158280;304;1;05/02/2015;23/12/2015;ESCOLA MUNICIPAL JARDIM UCHOA;;;50780270;PALMARES;116;AREIAS;850;AREIAS;32516326;33553620;EM.JARDIMUCHOA@EDUCARECIFE.COM.BR;00002;2;0;;;0;0;0;0;0;0;0;0;1;;;;;;;;;2;1;0;0;0;0;1;0;0;0;1;0;0;1;0;0;0;0;0;1;0;1;1;0;0;0;1;1;0;0;0;0;0;1;0;0;0;0;0;1;0;0;;;;;0;0;0;7;7;1;;;;2;1;1;2;;;2;13;;4;9;1;1;38;1;0;1;1;0;1;0;1;0;1;0;0
26128926;258;1;05/02/2015;23/12/2015;ESCOLA MUNICIPAL ANITA PAES BARRETO;;;52221010;GERONCIO FALCAO;198;ALTO MIRAM;345;FUNDAO;33553568;;ANITAPAESBARRETO@HOTMAIL.COM;00001;2;0;;;1;0;0;0;0;0;0;0;0;1;0;;;;;;;2;1;0;0;0;0;1;0;0;0;0;1;0;1;0;0;0;0;0;0;0;1;0;0;0;0;0;0;1;0;0;0;0;1;0;0;0;0;0;1;0;0;;;;;0;0;0;3;3;2;;1;;1;;2;4;2;1;2;13;;4;9;1;1;21;1;0;0;1;0;0;0;1;0;0;0;0
